^C:\USERS\ANTONINO\DESKTOP\VULKAN_ENGINE\BULLET3-2.86.1\EXAMPLES\HELLOWORLD\HELLOWORLD.CPP
C:\USERS\ANTONINO\DESKTOP\VULKAN_ENGINE\BULLET3-2.86.1\BIN\APP_HELLOWORLD_VS2010_DEBUG.PDB
C:\USERS\ANTONINO\DESKTOP\VULKAN_ENGINE\BULLET3-2.86.1\BUILD3\VS2010\OBJ\X32\DEBUG\APP_HELLOWORLD\HELLOWORLD.OBJ
