--start_demo_name=Spheres & Plane C-API (Bullet2)
--mouse_move_multiplier=0.400000
--mouse_wheel_multiplier=0.010000
--background_color_red= 0.700000
--background_color_green= 0.700000
--background_color_blue= 0.800000
--fixed_timestep= 0.000000
