^C:\USERS\ANTONINO\DESKTOP\VULKAN_ENGINE\BULLET3-2.86.1\EXTRAS\CONVEXDECOMPOSITION\CONVEXDECOMPOSITION.CPP
C:\USERS\ANTONINO\DESKTOP\VULKAN_ENGINE\BULLET3-2.86.1\EXTRAS\CONVEXDECOMPOSITION\FLOAT_MATH.H
C:\PROGRAM FILES (X86)\WINDOWS KITS\10\INCLUDE\10.0.10150.0\UCRT\STDIO.H
C:\PROGRAM FILES (X86)\WINDOWS KITS\10\INCLUDE\10.0.10150.0\UCRT\CORECRT.H
C:\PROGRAM FILES (X86)\MICROSOFT VISUAL STUDIO 14.0\VC\INCLUDE\VCRUNTIME.H
C:\PROGRAM FILES (X86)\MICROSOFT VISUAL STUDIO 14.0\VC\INCLUDE\SAL.H
C:\PROGRAM FILES (X86)\MICROSOFT VISUAL STUDIO 14.0\VC\INCLUDE\CONCURRENCYSAL.H
C:\PROGRAM FILES (X86)\MICROSOFT VISUAL STUDIO 14.0\VC\INCLUDE\VADEFS.H
C:\PROGRAM FILES (X86)\WINDOWS KITS\10\INCLUDE\10.0.10150.0\UCRT\CORECRT_WSTDIO.H
C:\PROGRAM FILES (X86)\WINDOWS KITS\10\INCLUDE\10.0.10150.0\UCRT\CORECRT_STDIO_CONFIG.H
C:\PROGRAM FILES (X86)\WINDOWS KITS\10\INCLUDE\10.0.10150.0\UCRT\STDLIB.H
C:\PROGRAM FILES (X86)\WINDOWS KITS\10\INCLUDE\10.0.10150.0\UCRT\CORECRT_MALLOC.H
C:\PROGRAM FILES (X86)\WINDOWS KITS\10\INCLUDE\10.0.10150.0\UCRT\CORECRT_SEARCH.H
C:\PROGRAM FILES (X86)\WINDOWS KITS\10\INCLUDE\10.0.10150.0\UCRT\STDDEF.H
C:\PROGRAM FILES (X86)\WINDOWS KITS\10\INCLUDE\10.0.10150.0\UCRT\CORECRT_WSTDLIB.H
C:\PROGRAM FILES (X86)\MICROSOFT VISUAL STUDIO 14.0\VC\INCLUDE\LIMITS.H
C:\PROGRAM FILES (X86)\WINDOWS KITS\10\INCLUDE\10.0.10150.0\UCRT\STRING.H
C:\PROGRAM FILES (X86)\WINDOWS KITS\10\INCLUDE\10.0.10150.0\UCRT\CORECRT_MEMORY.H
C:\PROGRAM FILES (X86)\WINDOWS KITS\10\INCLUDE\10.0.10150.0\UCRT\CORECRT_MEMCPY_S.H
C:\PROGRAM FILES (X86)\WINDOWS KITS\10\INCLUDE\10.0.10150.0\UCRT\ERRNO.H
C:\PROGRAM FILES (X86)\MICROSOFT VISUAL STUDIO 14.0\VC\INCLUDE\VCRUNTIME_STRING.H
C:\PROGRAM FILES (X86)\WINDOWS KITS\10\INCLUDE\10.0.10150.0\UCRT\CORECRT_WSTRING.H
C:\PROGRAM FILES (X86)\WINDOWS KITS\10\INCLUDE\10.0.10150.0\UCRT\ASSERT.H
C:\USERS\ANTONINO\DESKTOP\VULKAN_ENGINE\BULLET3-2.86.1\EXTRAS\CONVEXDECOMPOSITION\CONVEXDECOMPOSITION.H
C:\PROGRAM FILES (X86)\WINDOWS KITS\10\INCLUDE\10.0.10150.0\UCRT\MEMORY.H
C:\USERS\ANTONINO\DESKTOP\VULKAN_ENGINE\BULLET3-2.86.1\SRC\LINEARMATH\BTALIGNEDOBJECTARRAY.H
C:\USERS\ANTONINO\DESKTOP\VULKAN_ENGINE\BULLET3-2.86.1\SRC\LINEARMATH\BTSCALAR.H
C:\PROGRAM FILES (X86)\WINDOWS KITS\10\INCLUDE\10.0.10150.0\UCRT\MATH.H
C:\PROGRAM FILES (X86)\WINDOWS KITS\10\INCLUDE\10.0.10150.0\UCRT\FLOAT.H
C:\PROGRAM FILES (X86)\MICROSOFT VISUAL STUDIO 14.0\VC\INCLUDE\EMMINTRIN.H
C:\PROGRAM FILES (X86)\MICROSOFT VISUAL STUDIO 14.0\VC\INCLUDE\XMMINTRIN.H
C:\PROGRAM FILES (X86)\MICROSOFT VISUAL STUDIO 14.0\VC\INCLUDE\MMINTRIN.H
C:\PROGRAM FILES (X86)\WINDOWS KITS\10\INCLUDE\10.0.10150.0\UCRT\MALLOC.H
C:\USERS\ANTONINO\DESKTOP\VULKAN_ENGINE\BULLET3-2.86.1\SRC\LINEARMATH\BTALIGNEDALLOCATOR.H
C:\PROGRAM FILES (X86)\MICROSOFT VISUAL STUDIO 14.0\VC\INCLUDE\NEW
C:\PROGRAM FILES (X86)\MICROSOFT VISUAL STUDIO 14.0\VC\INCLUDE\EXCEPTION
C:\PROGRAM FILES (X86)\MICROSOFT VISUAL STUDIO 14.0\VC\INCLUDE\TYPE_TRAITS
C:\PROGRAM FILES (X86)\MICROSOFT VISUAL STUDIO 14.0\VC\INCLUDE\XSTDDEF
C:\PROGRAM FILES (X86)\MICROSOFT VISUAL STUDIO 14.0\VC\INCLUDE\CSTDDEF
C:\PROGRAM FILES (X86)\MICROSOFT VISUAL STUDIO 14.0\VC\INCLUDE\YVALS.H
C:\PROGRAM FILES (X86)\MICROSOFT VISUAL STUDIO 14.0\VC\INCLUDE\XKEYCHECK.H
C:\PROGRAM FILES (X86)\MICROSOFT VISUAL STUDIO 14.0\VC\INCLUDE\CRTDEFS.H
C:\PROGRAM FILES (X86)\MICROSOFT VISUAL STUDIO 14.0\VC\INCLUDE\USE_ANSI.H
C:\PROGRAM FILES (X86)\MICROSOFT VISUAL STUDIO 14.0\VC\INCLUDE\CSTDLIB
C:\PROGRAM FILES (X86)\MICROSOFT VISUAL STUDIO 14.0\VC\INCLUDE\INITIALIZER_LIST
C:\PROGRAM FILES (X86)\MICROSOFT VISUAL STUDIO 14.0\VC\INCLUDE\XTR1COMMON
C:\PROGRAM FILES (X86)\MICROSOFT VISUAL STUDIO 14.0\VC\INCLUDE\VCRUNTIME_EXCEPTION.H
C:\PROGRAM FILES (X86)\MICROSOFT VISUAL STUDIO 14.0\VC\INCLUDE\EH.H
C:\PROGRAM FILES (X86)\WINDOWS KITS\10\INCLUDE\10.0.10150.0\UCRT\CORECRT_TERMINATE.H
C:\PROGRAM FILES (X86)\MICROSOFT VISUAL STUDIO 14.0\VC\INCLUDE\VCRUNTIME_NEW.H
C:\USERS\ANTONINO\DESKTOP\VULKAN_ENGINE\BULLET3-2.86.1\EXTRAS\CONVEXDECOMPOSITION\CD_VECTOR.H
C:\PROGRAM FILES (X86)\MICROSOFT VISUAL STUDIO 14.0\VC\INCLUDE\VECTOR
C:\PROGRAM FILES (X86)\MICROSOFT VISUAL STUDIO 14.0\VC\INCLUDE\XMEMORY
C:\PROGRAM FILES (X86)\MICROSOFT VISUAL STUDIO 14.0\VC\INCLUDE\XMEMORY0
C:\PROGRAM FILES (X86)\MICROSOFT VISUAL STUDIO 14.0\VC\INCLUDE\CSTDINT
C:\PROGRAM FILES (X86)\MICROSOFT VISUAL STUDIO 14.0\VC\INCLUDE\STDINT.H
C:\PROGRAM FILES (X86)\MICROSOFT VISUAL STUDIO 14.0\VC\INCLUDE\LIMITS
C:\PROGRAM FILES (X86)\MICROSOFT VISUAL STUDIO 14.0\VC\INCLUDE\YMATH.H
C:\PROGRAM FILES (X86)\MICROSOFT VISUAL STUDIO 14.0\VC\INCLUDE\CFLOAT
C:\PROGRAM FILES (X86)\MICROSOFT VISUAL STUDIO 14.0\VC\INCLUDE\CLIMITS
C:\PROGRAM FILES (X86)\MICROSOFT VISUAL STUDIO 14.0\VC\INCLUDE\CMATH
C:\PROGRAM FILES (X86)\MICROSOFT VISUAL STUDIO 14.0\VC\INCLUDE\XTGMATH.H
C:\PROGRAM FILES (X86)\MICROSOFT VISUAL STUDIO 14.0\VC\INCLUDE\CWCHAR
C:\PROGRAM FILES (X86)\WINDOWS KITS\10\INCLUDE\10.0.10150.0\UCRT\WCHAR.H
C:\PROGRAM FILES (X86)\WINDOWS KITS\10\INCLUDE\10.0.10150.0\UCRT\CORECRT_WCONIO.H
C:\PROGRAM FILES (X86)\WINDOWS KITS\10\INCLUDE\10.0.10150.0\UCRT\CORECRT_WCTYPE.H
C:\PROGRAM FILES (X86)\WINDOWS KITS\10\INCLUDE\10.0.10150.0\UCRT\CORECRT_WDIRECT.H
C:\PROGRAM FILES (X86)\WINDOWS KITS\10\INCLUDE\10.0.10150.0\UCRT\CORECRT_WIO.H
C:\PROGRAM FILES (X86)\WINDOWS KITS\10\INCLUDE\10.0.10150.0\UCRT\CORECRT_SHARE.H
C:\PROGRAM FILES (X86)\WINDOWS KITS\10\INCLUDE\10.0.10150.0\UCRT\CORECRT_WPROCESS.H
C:\PROGRAM FILES (X86)\WINDOWS KITS\10\INCLUDE\10.0.10150.0\UCRT\CORECRT_WTIME.H
C:\PROGRAM FILES (X86)\WINDOWS KITS\10\INCLUDE\10.0.10150.0\UCRT\SYS\STAT.H
C:\PROGRAM FILES (X86)\WINDOWS KITS\10\INCLUDE\10.0.10150.0\UCRT\SYS\TYPES.H
C:\PROGRAM FILES (X86)\MICROSOFT VISUAL STUDIO 14.0\VC\INCLUDE\XUTILITY
C:\PROGRAM FILES (X86)\MICROSOFT VISUAL STUDIO 14.0\VC\INCLUDE\UTILITY
C:\PROGRAM FILES (X86)\MICROSOFT VISUAL STUDIO 14.0\VC\INCLUDE\IOSFWD
C:\PROGRAM FILES (X86)\MICROSOFT VISUAL STUDIO 14.0\VC\INCLUDE\CSTDIO
C:\PROGRAM FILES (X86)\MICROSOFT VISUAL STUDIO 14.0\VC\INCLUDE\CSTRING
C:\PROGRAM FILES (X86)\WINDOWS KITS\10\INCLUDE\10.0.10150.0\UCRT\CRTDBG.H
C:\PROGRAM FILES (X86)\MICROSOFT VISUAL STUDIO 14.0\VC\INCLUDE\VCRUNTIME_NEW_DEBUG.H
C:\PROGRAM FILES (X86)\MICROSOFT VISUAL STUDIO 14.0\VC\INCLUDE\XATOMIC0.H
C:\PROGRAM FILES (X86)\MICROSOFT VISUAL STUDIO 14.0\VC\INCLUDE\INTRIN.H
C:\PROGRAM FILES (X86)\MICROSOFT VISUAL STUDIO 14.0\VC\INCLUDE\SETJMP.H
C:\PROGRAM FILES (X86)\MICROSOFT VISUAL STUDIO 14.0\VC\INCLUDE\IMMINTRIN.H
C:\PROGRAM FILES (X86)\MICROSOFT VISUAL STUDIO 14.0\VC\INCLUDE\WMMINTRIN.H
C:\PROGRAM FILES (X86)\MICROSOFT VISUAL STUDIO 14.0\VC\INCLUDE\NMMINTRIN.H
C:\PROGRAM FILES (X86)\MICROSOFT VISUAL STUDIO 14.0\VC\INCLUDE\SMMINTRIN.H
C:\PROGRAM FILES (X86)\MICROSOFT VISUAL STUDIO 14.0\VC\INCLUDE\TMMINTRIN.H
C:\PROGRAM FILES (X86)\MICROSOFT VISUAL STUDIO 14.0\VC\INCLUDE\PMMINTRIN.H
C:\PROGRAM FILES (X86)\MICROSOFT VISUAL STUDIO 14.0\VC\INCLUDE\AMMINTRIN.H
C:\PROGRAM FILES (X86)\MICROSOFT VISUAL STUDIO 14.0\VC\INCLUDE\MM3DNOW.H
C:\PROGRAM FILES (X86)\MICROSOFT VISUAL STUDIO 14.0\VC\INCLUDE\STDEXCEPT
C:\PROGRAM FILES (X86)\MICROSOFT VISUAL STUDIO 14.0\VC\INCLUDE\XSTRING
C:\USERS\ANTONINO\DESKTOP\VULKAN_ENGINE\BULLET3-2.86.1\EXTRAS\CONVEXDECOMPOSITION\CD_HULL.H
C:\USERS\ANTONINO\DESKTOP\VULKAN_ENGINE\BULLET3-2.86.1\EXTRAS\CONVEXDECOMPOSITION\BESTFIT.H
C:\USERS\ANTONINO\DESKTOP\VULKAN_ENGINE\BULLET3-2.86.1\EXTRAS\CONVEXDECOMPOSITION\PLANETRI.H
C:\USERS\ANTONINO\DESKTOP\VULKAN_ENGINE\BULLET3-2.86.1\EXTRAS\CONVEXDECOMPOSITION\VLOOKUP.H
C:\USERS\ANTONINO\DESKTOP\VULKAN_ENGINE\BULLET3-2.86.1\EXTRAS\CONVEXDECOMPOSITION\SPLITPLANE.H
C:\USERS\ANTONINO\DESKTOP\VULKAN_ENGINE\BULLET3-2.86.1\EXTRAS\CONVEXDECOMPOSITION\MESHVOLUME.H
C:\USERS\ANTONINO\DESKTOP\VULKAN_ENGINE\BULLET3-2.86.1\EXTRAS\CONVEXDECOMPOSITION\CONCAVITY.H
C:\USERS\ANTONINO\DESKTOP\VULKAN_ENGINE\BULLET3-2.86.1\EXTRAS\CONVEXDECOMPOSITION\BESTFITOBB.H
C:\USERS\ANTONINO\DESKTOP\VULKAN_ENGINE\BULLET3-2.86.1\EXTRAS\CONVEXDECOMPOSITION\FITSPHERE.H
^C:\USERS\ANTONINO\DESKTOP\VULKAN_ENGINE\BULLET3-2.86.1\EXTRAS\CONVEXDECOMPOSITION\CD_WAVEFRONT.CPP
C:\PROGRAM FILES (X86)\WINDOWS KITS\10\INCLUDE\10.0.10150.0\UCRT\STDIO.H
C:\PROGRAM FILES (X86)\WINDOWS KITS\10\INCLUDE\10.0.10150.0\UCRT\CORECRT.H
C:\PROGRAM FILES (X86)\MICROSOFT VISUAL STUDIO 14.0\VC\INCLUDE\VCRUNTIME.H
C:\PROGRAM FILES (X86)\MICROSOFT VISUAL STUDIO 14.0\VC\INCLUDE\SAL.H
C:\PROGRAM FILES (X86)\MICROSOFT VISUAL STUDIO 14.0\VC\INCLUDE\CONCURRENCYSAL.H
C:\PROGRAM FILES (X86)\MICROSOFT VISUAL STUDIO 14.0\VC\INCLUDE\VADEFS.H
C:\PROGRAM FILES (X86)\WINDOWS KITS\10\INCLUDE\10.0.10150.0\UCRT\CORECRT_WSTDIO.H
C:\PROGRAM FILES (X86)\WINDOWS KITS\10\INCLUDE\10.0.10150.0\UCRT\CORECRT_STDIO_CONFIG.H
C:\PROGRAM FILES (X86)\WINDOWS KITS\10\INCLUDE\10.0.10150.0\UCRT\STDLIB.H
C:\PROGRAM FILES (X86)\WINDOWS KITS\10\INCLUDE\10.0.10150.0\UCRT\CORECRT_MALLOC.H
C:\PROGRAM FILES (X86)\WINDOWS KITS\10\INCLUDE\10.0.10150.0\UCRT\CORECRT_SEARCH.H
C:\PROGRAM FILES (X86)\WINDOWS KITS\10\INCLUDE\10.0.10150.0\UCRT\STDDEF.H
C:\PROGRAM FILES (X86)\WINDOWS KITS\10\INCLUDE\10.0.10150.0\UCRT\CORECRT_WSTDLIB.H
C:\PROGRAM FILES (X86)\MICROSOFT VISUAL STUDIO 14.0\VC\INCLUDE\LIMITS.H
C:\PROGRAM FILES (X86)\WINDOWS KITS\10\INCLUDE\10.0.10150.0\UCRT\STRING.H
C:\PROGRAM FILES (X86)\WINDOWS KITS\10\INCLUDE\10.0.10150.0\UCRT\CORECRT_MEMORY.H
C:\PROGRAM FILES (X86)\WINDOWS KITS\10\INCLUDE\10.0.10150.0\UCRT\CORECRT_MEMCPY_S.H
C:\PROGRAM FILES (X86)\WINDOWS KITS\10\INCLUDE\10.0.10150.0\UCRT\ERRNO.H
C:\PROGRAM FILES (X86)\MICROSOFT VISUAL STUDIO 14.0\VC\INCLUDE\VCRUNTIME_STRING.H
C:\PROGRAM FILES (X86)\WINDOWS KITS\10\INCLUDE\10.0.10150.0\UCRT\CORECRT_WSTRING.H
C:\PROGRAM FILES (X86)\WINDOWS KITS\10\INCLUDE\10.0.10150.0\UCRT\ASSERT.H
C:\PROGRAM FILES (X86)\WINDOWS KITS\10\INCLUDE\10.0.10150.0\UCRT\CTYPE.H
C:\PROGRAM FILES (X86)\WINDOWS KITS\10\INCLUDE\10.0.10150.0\UCRT\CORECRT_WCTYPE.H
C:\USERS\ANTONINO\DESKTOP\VULKAN_ENGINE\BULLET3-2.86.1\EXTRAS\CONVEXDECOMPOSITION\FLOAT_MATH.H
C:\USERS\ANTONINO\DESKTOP\VULKAN_ENGINE\BULLET3-2.86.1\EXTRAS\CONVEXDECOMPOSITION\CD_WAVEFRONT.H
C:\PROGRAM FILES (X86)\MICROSOFT VISUAL STUDIO 14.0\VC\INCLUDE\VECTOR
C:\PROGRAM FILES (X86)\MICROSOFT VISUAL STUDIO 14.0\VC\INCLUDE\XMEMORY
C:\PROGRAM FILES (X86)\MICROSOFT VISUAL STUDIO 14.0\VC\INCLUDE\XMEMORY0
C:\PROGRAM FILES (X86)\MICROSOFT VISUAL STUDIO 14.0\VC\INCLUDE\CSTDINT
C:\PROGRAM FILES (X86)\MICROSOFT VISUAL STUDIO 14.0\VC\INCLUDE\YVALS.H
C:\PROGRAM FILES (X86)\MICROSOFT VISUAL STUDIO 14.0\VC\INCLUDE\XKEYCHECK.H
C:\PROGRAM FILES (X86)\MICROSOFT VISUAL STUDIO 14.0\VC\INCLUDE\CRTDEFS.H
C:\PROGRAM FILES (X86)\MICROSOFT VISUAL STUDIO 14.0\VC\INCLUDE\USE_ANSI.H
C:\PROGRAM FILES (X86)\MICROSOFT VISUAL STUDIO 14.0\VC\INCLUDE\STDINT.H
C:\PROGRAM FILES (X86)\MICROSOFT VISUAL STUDIO 14.0\VC\INCLUDE\CSTDLIB
C:\PROGRAM FILES (X86)\MICROSOFT VISUAL STUDIO 14.0\VC\INCLUDE\LIMITS
C:\PROGRAM FILES (X86)\MICROSOFT VISUAL STUDIO 14.0\VC\INCLUDE\YMATH.H
C:\PROGRAM FILES (X86)\MICROSOFT VISUAL STUDIO 14.0\VC\INCLUDE\CFLOAT
C:\PROGRAM FILES (X86)\WINDOWS KITS\10\INCLUDE\10.0.10150.0\UCRT\FLOAT.H
C:\PROGRAM FILES (X86)\MICROSOFT VISUAL STUDIO 14.0\VC\INCLUDE\CLIMITS
C:\PROGRAM FILES (X86)\MICROSOFT VISUAL STUDIO 14.0\VC\INCLUDE\CMATH
C:\PROGRAM FILES (X86)\WINDOWS KITS\10\INCLUDE\10.0.10150.0\UCRT\MATH.H
C:\PROGRAM FILES (X86)\MICROSOFT VISUAL STUDIO 14.0\VC\INCLUDE\XTGMATH.H
C:\PROGRAM FILES (X86)\MICROSOFT VISUAL STUDIO 14.0\VC\INCLUDE\XTR1COMMON
C:\PROGRAM FILES (X86)\MICROSOFT VISUAL STUDIO 14.0\VC\INCLUDE\CWCHAR
C:\PROGRAM FILES (X86)\WINDOWS KITS\10\INCLUDE\10.0.10150.0\UCRT\WCHAR.H
C:\PROGRAM FILES (X86)\WINDOWS KITS\10\INCLUDE\10.0.10150.0\UCRT\CORECRT_WCONIO.H
C:\PROGRAM FILES (X86)\WINDOWS KITS\10\INCLUDE\10.0.10150.0\UCRT\CORECRT_WDIRECT.H
C:\PROGRAM FILES (X86)\WINDOWS KITS\10\INCLUDE\10.0.10150.0\UCRT\CORECRT_WIO.H
C:\PROGRAM FILES (X86)\WINDOWS KITS\10\INCLUDE\10.0.10150.0\UCRT\CORECRT_SHARE.H
C:\PROGRAM FILES (X86)\WINDOWS KITS\10\INCLUDE\10.0.10150.0\UCRT\CORECRT_WPROCESS.H
C:\PROGRAM FILES (X86)\WINDOWS KITS\10\INCLUDE\10.0.10150.0\UCRT\CORECRT_WTIME.H
C:\PROGRAM FILES (X86)\WINDOWS KITS\10\INCLUDE\10.0.10150.0\UCRT\SYS\STAT.H
C:\PROGRAM FILES (X86)\WINDOWS KITS\10\INCLUDE\10.0.10150.0\UCRT\SYS\TYPES.H
C:\PROGRAM FILES (X86)\MICROSOFT VISUAL STUDIO 14.0\VC\INCLUDE\XSTDDEF
C:\PROGRAM FILES (X86)\MICROSOFT VISUAL STUDIO 14.0\VC\INCLUDE\CSTDDEF
C:\PROGRAM FILES (X86)\MICROSOFT VISUAL STUDIO 14.0\VC\INCLUDE\INITIALIZER_LIST
C:\PROGRAM FILES (X86)\MICROSOFT VISUAL STUDIO 14.0\VC\INCLUDE\NEW
C:\PROGRAM FILES (X86)\MICROSOFT VISUAL STUDIO 14.0\VC\INCLUDE\EXCEPTION
C:\PROGRAM FILES (X86)\MICROSOFT VISUAL STUDIO 14.0\VC\INCLUDE\TYPE_TRAITS
C:\PROGRAM FILES (X86)\WINDOWS KITS\10\INCLUDE\10.0.10150.0\UCRT\MALLOC.H
C:\PROGRAM FILES (X86)\MICROSOFT VISUAL STUDIO 14.0\VC\INCLUDE\VCRUNTIME_EXCEPTION.H
C:\PROGRAM FILES (X86)\MICROSOFT VISUAL STUDIO 14.0\VC\INCLUDE\EH.H
C:\PROGRAM FILES (X86)\WINDOWS KITS\10\INCLUDE\10.0.10150.0\UCRT\CORECRT_TERMINATE.H
C:\PROGRAM FILES (X86)\MICROSOFT VISUAL STUDIO 14.0\VC\INCLUDE\VCRUNTIME_NEW.H
C:\PROGRAM FILES (X86)\MICROSOFT VISUAL STUDIO 14.0\VC\INCLUDE\XUTILITY
C:\PROGRAM FILES (X86)\MICROSOFT VISUAL STUDIO 14.0\VC\INCLUDE\UTILITY
C:\PROGRAM FILES (X86)\MICROSOFT VISUAL STUDIO 14.0\VC\INCLUDE\IOSFWD
C:\PROGRAM FILES (X86)\MICROSOFT VISUAL STUDIO 14.0\VC\INCLUDE\CSTDIO
C:\PROGRAM FILES (X86)\MICROSOFT VISUAL STUDIO 14.0\VC\INCLUDE\CSTRING
C:\PROGRAM FILES (X86)\WINDOWS KITS\10\INCLUDE\10.0.10150.0\UCRT\CRTDBG.H
C:\PROGRAM FILES (X86)\MICROSOFT VISUAL STUDIO 14.0\VC\INCLUDE\VCRUNTIME_NEW_DEBUG.H
C:\PROGRAM FILES (X86)\MICROSOFT VISUAL STUDIO 14.0\VC\INCLUDE\XATOMIC0.H
C:\PROGRAM FILES (X86)\MICROSOFT VISUAL STUDIO 14.0\VC\INCLUDE\INTRIN.H
C:\PROGRAM FILES (X86)\MICROSOFT VISUAL STUDIO 14.0\VC\INCLUDE\SETJMP.H
C:\PROGRAM FILES (X86)\MICROSOFT VISUAL STUDIO 14.0\VC\INCLUDE\IMMINTRIN.H
C:\PROGRAM FILES (X86)\MICROSOFT VISUAL STUDIO 14.0\VC\INCLUDE\WMMINTRIN.H
C:\PROGRAM FILES (X86)\MICROSOFT VISUAL STUDIO 14.0\VC\INCLUDE\NMMINTRIN.H
C:\PROGRAM FILES (X86)\MICROSOFT VISUAL STUDIO 14.0\VC\INCLUDE\SMMINTRIN.H
C:\PROGRAM FILES (X86)\MICROSOFT VISUAL STUDIO 14.0\VC\INCLUDE\TMMINTRIN.H
C:\PROGRAM FILES (X86)\MICROSOFT VISUAL STUDIO 14.0\VC\INCLUDE\PMMINTRIN.H
C:\PROGRAM FILES (X86)\MICROSOFT VISUAL STUDIO 14.0\VC\INCLUDE\EMMINTRIN.H
C:\PROGRAM FILES (X86)\MICROSOFT VISUAL STUDIO 14.0\VC\INCLUDE\XMMINTRIN.H
C:\PROGRAM FILES (X86)\MICROSOFT VISUAL STUDIO 14.0\VC\INCLUDE\MMINTRIN.H
C:\PROGRAM FILES (X86)\MICROSOFT VISUAL STUDIO 14.0\VC\INCLUDE\AMMINTRIN.H
C:\PROGRAM FILES (X86)\MICROSOFT VISUAL STUDIO 14.0\VC\INCLUDE\MM3DNOW.H
C:\PROGRAM FILES (X86)\MICROSOFT VISUAL STUDIO 14.0\VC\INCLUDE\STDEXCEPT
C:\PROGRAM FILES (X86)\MICROSOFT VISUAL STUDIO 14.0\VC\INCLUDE\XSTRING
^C:\USERS\ANTONINO\DESKTOP\VULKAN_ENGINE\BULLET3-2.86.1\EXTRAS\CONVEXDECOMPOSITION\CONCAVITY.CPP
C:\USERS\ANTONINO\DESKTOP\VULKAN_ENGINE\BULLET3-2.86.1\EXTRAS\CONVEXDECOMPOSITION\FLOAT_MATH.H
C:\PROGRAM FILES (X86)\WINDOWS KITS\10\INCLUDE\10.0.10150.0\UCRT\STDIO.H
C:\PROGRAM FILES (X86)\WINDOWS KITS\10\INCLUDE\10.0.10150.0\UCRT\CORECRT.H
C:\PROGRAM FILES (X86)\MICROSOFT VISUAL STUDIO 14.0\VC\INCLUDE\VCRUNTIME.H
C:\PROGRAM FILES (X86)\MICROSOFT VISUAL STUDIO 14.0\VC\INCLUDE\SAL.H
C:\PROGRAM FILES (X86)\MICROSOFT VISUAL STUDIO 14.0\VC\INCLUDE\CONCURRENCYSAL.H
C:\PROGRAM FILES (X86)\MICROSOFT VISUAL STUDIO 14.0\VC\INCLUDE\VADEFS.H
C:\PROGRAM FILES (X86)\WINDOWS KITS\10\INCLUDE\10.0.10150.0\UCRT\CORECRT_WSTDIO.H
C:\PROGRAM FILES (X86)\WINDOWS KITS\10\INCLUDE\10.0.10150.0\UCRT\CORECRT_STDIO_CONFIG.H
C:\PROGRAM FILES (X86)\WINDOWS KITS\10\INCLUDE\10.0.10150.0\UCRT\STDLIB.H
C:\PROGRAM FILES (X86)\WINDOWS KITS\10\INCLUDE\10.0.10150.0\UCRT\CORECRT_MALLOC.H
C:\PROGRAM FILES (X86)\WINDOWS KITS\10\INCLUDE\10.0.10150.0\UCRT\CORECRT_SEARCH.H
C:\PROGRAM FILES (X86)\WINDOWS KITS\10\INCLUDE\10.0.10150.0\UCRT\STDDEF.H
C:\PROGRAM FILES (X86)\WINDOWS KITS\10\INCLUDE\10.0.10150.0\UCRT\CORECRT_WSTDLIB.H
C:\PROGRAM FILES (X86)\MICROSOFT VISUAL STUDIO 14.0\VC\INCLUDE\LIMITS.H
C:\PROGRAM FILES (X86)\WINDOWS KITS\10\INCLUDE\10.0.10150.0\UCRT\STRING.H
C:\PROGRAM FILES (X86)\WINDOWS KITS\10\INCLUDE\10.0.10150.0\UCRT\CORECRT_MEMORY.H
C:\PROGRAM FILES (X86)\WINDOWS KITS\10\INCLUDE\10.0.10150.0\UCRT\CORECRT_MEMCPY_S.H
C:\PROGRAM FILES (X86)\WINDOWS KITS\10\INCLUDE\10.0.10150.0\UCRT\ERRNO.H
C:\PROGRAM FILES (X86)\MICROSOFT VISUAL STUDIO 14.0\VC\INCLUDE\VCRUNTIME_STRING.H
C:\PROGRAM FILES (X86)\WINDOWS KITS\10\INCLUDE\10.0.10150.0\UCRT\CORECRT_WSTRING.H
C:\PROGRAM FILES (X86)\WINDOWS KITS\10\INCLUDE\10.0.10150.0\UCRT\ASSERT.H
C:\PROGRAM FILES (X86)\MICROSOFT VISUAL STUDIO 14.0\VC\INCLUDE\VECTOR
C:\PROGRAM FILES (X86)\MICROSOFT VISUAL STUDIO 14.0\VC\INCLUDE\XMEMORY
C:\PROGRAM FILES (X86)\MICROSOFT VISUAL STUDIO 14.0\VC\INCLUDE\XMEMORY0
C:\PROGRAM FILES (X86)\MICROSOFT VISUAL STUDIO 14.0\VC\INCLUDE\CSTDINT
C:\PROGRAM FILES (X86)\MICROSOFT VISUAL STUDIO 14.0\VC\INCLUDE\YVALS.H
C:\PROGRAM FILES (X86)\MICROSOFT VISUAL STUDIO 14.0\VC\INCLUDE\XKEYCHECK.H
C:\PROGRAM FILES (X86)\MICROSOFT VISUAL STUDIO 14.0\VC\INCLUDE\CRTDEFS.H
C:\PROGRAM FILES (X86)\MICROSOFT VISUAL STUDIO 14.0\VC\INCLUDE\USE_ANSI.H
C:\PROGRAM FILES (X86)\MICROSOFT VISUAL STUDIO 14.0\VC\INCLUDE\STDINT.H
C:\PROGRAM FILES (X86)\MICROSOFT VISUAL STUDIO 14.0\VC\INCLUDE\CSTDLIB
C:\PROGRAM FILES (X86)\MICROSOFT VISUAL STUDIO 14.0\VC\INCLUDE\LIMITS
C:\PROGRAM FILES (X86)\MICROSOFT VISUAL STUDIO 14.0\VC\INCLUDE\YMATH.H
C:\PROGRAM FILES (X86)\MICROSOFT VISUAL STUDIO 14.0\VC\INCLUDE\CFLOAT
C:\PROGRAM FILES (X86)\WINDOWS KITS\10\INCLUDE\10.0.10150.0\UCRT\FLOAT.H
C:\PROGRAM FILES (X86)\MICROSOFT VISUAL STUDIO 14.0\VC\INCLUDE\CLIMITS
C:\PROGRAM FILES (X86)\MICROSOFT VISUAL STUDIO 14.0\VC\INCLUDE\CMATH
C:\PROGRAM FILES (X86)\WINDOWS KITS\10\INCLUDE\10.0.10150.0\UCRT\MATH.H
C:\PROGRAM FILES (X86)\MICROSOFT VISUAL STUDIO 14.0\VC\INCLUDE\XTGMATH.H
C:\PROGRAM FILES (X86)\MICROSOFT VISUAL STUDIO 14.0\VC\INCLUDE\XTR1COMMON
C:\PROGRAM FILES (X86)\MICROSOFT VISUAL STUDIO 14.0\VC\INCLUDE\CWCHAR
C:\PROGRAM FILES (X86)\WINDOWS KITS\10\INCLUDE\10.0.10150.0\UCRT\WCHAR.H
C:\PROGRAM FILES (X86)\WINDOWS KITS\10\INCLUDE\10.0.10150.0\UCRT\CORECRT_WCONIO.H
C:\PROGRAM FILES (X86)\WINDOWS KITS\10\INCLUDE\10.0.10150.0\UCRT\CORECRT_WCTYPE.H
C:\PROGRAM FILES (X86)\WINDOWS KITS\10\INCLUDE\10.0.10150.0\UCRT\CORECRT_WDIRECT.H
C:\PROGRAM FILES (X86)\WINDOWS KITS\10\INCLUDE\10.0.10150.0\UCRT\CORECRT_WIO.H
C:\PROGRAM FILES (X86)\WINDOWS KITS\10\INCLUDE\10.0.10150.0\UCRT\CORECRT_SHARE.H
C:\PROGRAM FILES (X86)\WINDOWS KITS\10\INCLUDE\10.0.10150.0\UCRT\CORECRT_WPROCESS.H
C:\PROGRAM FILES (X86)\WINDOWS KITS\10\INCLUDE\10.0.10150.0\UCRT\CORECRT_WTIME.H
C:\PROGRAM FILES (X86)\WINDOWS KITS\10\INCLUDE\10.0.10150.0\UCRT\SYS\STAT.H
C:\PROGRAM FILES (X86)\WINDOWS KITS\10\INCLUDE\10.0.10150.0\UCRT\SYS\TYPES.H
C:\PROGRAM FILES (X86)\MICROSOFT VISUAL STUDIO 14.0\VC\INCLUDE\XSTDDEF
C:\PROGRAM FILES (X86)\MICROSOFT VISUAL STUDIO 14.0\VC\INCLUDE\CSTDDEF
C:\PROGRAM FILES (X86)\MICROSOFT VISUAL STUDIO 14.0\VC\INCLUDE\INITIALIZER_LIST
C:\PROGRAM FILES (X86)\MICROSOFT VISUAL STUDIO 14.0\VC\INCLUDE\NEW
C:\PROGRAM FILES (X86)\MICROSOFT VISUAL STUDIO 14.0\VC\INCLUDE\EXCEPTION
C:\PROGRAM FILES (X86)\MICROSOFT VISUAL STUDIO 14.0\VC\INCLUDE\TYPE_TRAITS
C:\PROGRAM FILES (X86)\WINDOWS KITS\10\INCLUDE\10.0.10150.0\UCRT\MALLOC.H
C:\PROGRAM FILES (X86)\MICROSOFT VISUAL STUDIO 14.0\VC\INCLUDE\VCRUNTIME_EXCEPTION.H
C:\PROGRAM FILES (X86)\MICROSOFT VISUAL STUDIO 14.0\VC\INCLUDE\EH.H
C:\PROGRAM FILES (X86)\WINDOWS KITS\10\INCLUDE\10.0.10150.0\UCRT\CORECRT_TERMINATE.H
C:\PROGRAM FILES (X86)\MICROSOFT VISUAL STUDIO 14.0\VC\INCLUDE\VCRUNTIME_NEW.H
C:\PROGRAM FILES (X86)\MICROSOFT VISUAL STUDIO 14.0\VC\INCLUDE\XUTILITY
C:\PROGRAM FILES (X86)\MICROSOFT VISUAL STUDIO 14.0\VC\INCLUDE\UTILITY
C:\PROGRAM FILES (X86)\MICROSOFT VISUAL STUDIO 14.0\VC\INCLUDE\IOSFWD
C:\PROGRAM FILES (X86)\MICROSOFT VISUAL STUDIO 14.0\VC\INCLUDE\CSTDIO
C:\PROGRAM FILES (X86)\MICROSOFT VISUAL STUDIO 14.0\VC\INCLUDE\CSTRING
C:\PROGRAM FILES (X86)\WINDOWS KITS\10\INCLUDE\10.0.10150.0\UCRT\CRTDBG.H
C:\PROGRAM FILES (X86)\MICROSOFT VISUAL STUDIO 14.0\VC\INCLUDE\VCRUNTIME_NEW_DEBUG.H
C:\PROGRAM FILES (X86)\MICROSOFT VISUAL STUDIO 14.0\VC\INCLUDE\XATOMIC0.H
C:\PROGRAM FILES (X86)\MICROSOFT VISUAL STUDIO 14.0\VC\INCLUDE\INTRIN.H
C:\PROGRAM FILES (X86)\MICROSOFT VISUAL STUDIO 14.0\VC\INCLUDE\SETJMP.H
C:\PROGRAM FILES (X86)\MICROSOFT VISUAL STUDIO 14.0\VC\INCLUDE\IMMINTRIN.H
C:\PROGRAM FILES (X86)\MICROSOFT VISUAL STUDIO 14.0\VC\INCLUDE\WMMINTRIN.H
C:\PROGRAM FILES (X86)\MICROSOFT VISUAL STUDIO 14.0\VC\INCLUDE\NMMINTRIN.H
C:\PROGRAM FILES (X86)\MICROSOFT VISUAL STUDIO 14.0\VC\INCLUDE\SMMINTRIN.H
C:\PROGRAM FILES (X86)\MICROSOFT VISUAL STUDIO 14.0\VC\INCLUDE\TMMINTRIN.H
C:\PROGRAM FILES (X86)\MICROSOFT VISUAL STUDIO 14.0\VC\INCLUDE\PMMINTRIN.H
C:\PROGRAM FILES (X86)\MICROSOFT VISUAL STUDIO 14.0\VC\INCLUDE\EMMINTRIN.H
C:\PROGRAM FILES (X86)\MICROSOFT VISUAL STUDIO 14.0\VC\INCLUDE\XMMINTRIN.H
C:\PROGRAM FILES (X86)\MICROSOFT VISUAL STUDIO 14.0\VC\INCLUDE\MMINTRIN.H
C:\PROGRAM FILES (X86)\MICROSOFT VISUAL STUDIO 14.0\VC\INCLUDE\AMMINTRIN.H
C:\PROGRAM FILES (X86)\MICROSOFT VISUAL STUDIO 14.0\VC\INCLUDE\MM3DNOW.H
C:\PROGRAM FILES (X86)\MICROSOFT VISUAL STUDIO 14.0\VC\INCLUDE\STDEXCEPT
C:\PROGRAM FILES (X86)\MICROSOFT VISUAL STUDIO 14.0\VC\INCLUDE\XSTRING
C:\USERS\ANTONINO\DESKTOP\VULKAN_ENGINE\BULLET3-2.86.1\EXTRAS\CONVEXDECOMPOSITION\CONCAVITY.H
C:\USERS\ANTONINO\DESKTOP\VULKAN_ENGINE\BULLET3-2.86.1\EXTRAS\CONVEXDECOMPOSITION\RAYTRI.H
C:\USERS\ANTONINO\DESKTOP\VULKAN_ENGINE\BULLET3-2.86.1\EXTRAS\CONVEXDECOMPOSITION\BESTFIT.H
C:\USERS\ANTONINO\DESKTOP\VULKAN_ENGINE\BULLET3-2.86.1\EXTRAS\CONVEXDECOMPOSITION\CD_HULL.H
C:\USERS\ANTONINO\DESKTOP\VULKAN_ENGINE\BULLET3-2.86.1\EXTRAS\CONVEXDECOMPOSITION\MESHVOLUME.H
C:\USERS\ANTONINO\DESKTOP\VULKAN_ENGINE\BULLET3-2.86.1\EXTRAS\CONVEXDECOMPOSITION\CD_VECTOR.H
C:\USERS\ANTONINO\DESKTOP\VULKAN_ENGINE\BULLET3-2.86.1\EXTRAS\CONVEXDECOMPOSITION\SPLITPLANE.H
C:\USERS\ANTONINO\DESKTOP\VULKAN_ENGINE\BULLET3-2.86.1\EXTRAS\CONVEXDECOMPOSITION\CONVEXDECOMPOSITION.H
C:\PROGRAM FILES (X86)\WINDOWS KITS\10\INCLUDE\10.0.10150.0\UCRT\MEMORY.H
C:\USERS\ANTONINO\DESKTOP\VULKAN_ENGINE\BULLET3-2.86.1\SRC\LINEARMATH\BTALIGNEDOBJECTARRAY.H
C:\USERS\ANTONINO\DESKTOP\VULKAN_ENGINE\BULLET3-2.86.1\SRC\LINEARMATH\BTSCALAR.H
C:\USERS\ANTONINO\DESKTOP\VULKAN_ENGINE\BULLET3-2.86.1\SRC\LINEARMATH\BTALIGNEDALLOCATOR.H
^C:\USERS\ANTONINO\DESKTOP\VULKAN_ENGINE\BULLET3-2.86.1\EXTRAS\CONVEXDECOMPOSITION\CONVEXBUILDER.CPP
C:\USERS\ANTONINO\DESKTOP\VULKAN_ENGINE\BULLET3-2.86.1\EXTRAS\CONVEXDECOMPOSITION\FLOAT_MATH.H
C:\USERS\ANTONINO\DESKTOP\VULKAN_ENGINE\BULLET3-2.86.1\EXTRAS\CONVEXDECOMPOSITION\CONVEXBUILDER.H
C:\USERS\ANTONINO\DESKTOP\VULKAN_ENGINE\BULLET3-2.86.1\EXTRAS\CONVEXDECOMPOSITION\CONVEXDECOMPOSITION.H
C:\PROGRAM FILES (X86)\WINDOWS KITS\10\INCLUDE\10.0.10150.0\UCRT\MEMORY.H
C:\PROGRAM FILES (X86)\WINDOWS KITS\10\INCLUDE\10.0.10150.0\UCRT\CORECRT_MEMORY.H
C:\PROGRAM FILES (X86)\WINDOWS KITS\10\INCLUDE\10.0.10150.0\UCRT\CORECRT.H
C:\PROGRAM FILES (X86)\MICROSOFT VISUAL STUDIO 14.0\VC\INCLUDE\VCRUNTIME.H
C:\PROGRAM FILES (X86)\MICROSOFT VISUAL STUDIO 14.0\VC\INCLUDE\SAL.H
C:\PROGRAM FILES (X86)\MICROSOFT VISUAL STUDIO 14.0\VC\INCLUDE\CONCURRENCYSAL.H
C:\PROGRAM FILES (X86)\MICROSOFT VISUAL STUDIO 14.0\VC\INCLUDE\VADEFS.H
C:\PROGRAM FILES (X86)\WINDOWS KITS\10\INCLUDE\10.0.10150.0\UCRT\CORECRT_MEMCPY_S.H
C:\PROGRAM FILES (X86)\WINDOWS KITS\10\INCLUDE\10.0.10150.0\UCRT\ERRNO.H
C:\PROGRAM FILES (X86)\MICROSOFT VISUAL STUDIO 14.0\VC\INCLUDE\VCRUNTIME_STRING.H
C:\PROGRAM FILES (X86)\WINDOWS KITS\10\INCLUDE\10.0.10150.0\UCRT\STRING.H
C:\PROGRAM FILES (X86)\WINDOWS KITS\10\INCLUDE\10.0.10150.0\UCRT\CORECRT_WSTRING.H
C:\PROGRAM FILES (X86)\WINDOWS KITS\10\INCLUDE\10.0.10150.0\UCRT\STDIO.H
C:\PROGRAM FILES (X86)\WINDOWS KITS\10\INCLUDE\10.0.10150.0\UCRT\CORECRT_WSTDIO.H
C:\PROGRAM FILES (X86)\WINDOWS KITS\10\INCLUDE\10.0.10150.0\UCRT\CORECRT_STDIO_CONFIG.H
C:\USERS\ANTONINO\DESKTOP\VULKAN_ENGINE\BULLET3-2.86.1\SRC\LINEARMATH\BTALIGNEDOBJECTARRAY.H
C:\USERS\ANTONINO\DESKTOP\VULKAN_ENGINE\BULLET3-2.86.1\SRC\LINEARMATH\BTSCALAR.H
C:\PROGRAM FILES (X86)\WINDOWS KITS\10\INCLUDE\10.0.10150.0\UCRT\MATH.H
C:\PROGRAM FILES (X86)\WINDOWS KITS\10\INCLUDE\10.0.10150.0\UCRT\STDLIB.H
C:\PROGRAM FILES (X86)\WINDOWS KITS\10\INCLUDE\10.0.10150.0\UCRT\CORECRT_MALLOC.H
C:\PROGRAM FILES (X86)\WINDOWS KITS\10\INCLUDE\10.0.10150.0\UCRT\CORECRT_SEARCH.H
C:\PROGRAM FILES (X86)\WINDOWS KITS\10\INCLUDE\10.0.10150.0\UCRT\STDDEF.H
C:\PROGRAM FILES (X86)\WINDOWS KITS\10\INCLUDE\10.0.10150.0\UCRT\CORECRT_WSTDLIB.H
C:\PROGRAM FILES (X86)\MICROSOFT VISUAL STUDIO 14.0\VC\INCLUDE\LIMITS.H
C:\PROGRAM FILES (X86)\WINDOWS KITS\10\INCLUDE\10.0.10150.0\UCRT\FLOAT.H
C:\PROGRAM FILES (X86)\MICROSOFT VISUAL STUDIO 14.0\VC\INCLUDE\EMMINTRIN.H
C:\PROGRAM FILES (X86)\MICROSOFT VISUAL STUDIO 14.0\VC\INCLUDE\XMMINTRIN.H
C:\PROGRAM FILES (X86)\MICROSOFT VISUAL STUDIO 14.0\VC\INCLUDE\MMINTRIN.H
C:\PROGRAM FILES (X86)\WINDOWS KITS\10\INCLUDE\10.0.10150.0\UCRT\MALLOC.H
C:\USERS\ANTONINO\DESKTOP\VULKAN_ENGINE\BULLET3-2.86.1\SRC\LINEARMATH\BTALIGNEDALLOCATOR.H
C:\PROGRAM FILES (X86)\MICROSOFT VISUAL STUDIO 14.0\VC\INCLUDE\NEW
C:\PROGRAM FILES (X86)\MICROSOFT VISUAL STUDIO 14.0\VC\INCLUDE\EXCEPTION
C:\PROGRAM FILES (X86)\MICROSOFT VISUAL STUDIO 14.0\VC\INCLUDE\TYPE_TRAITS
C:\PROGRAM FILES (X86)\MICROSOFT VISUAL STUDIO 14.0\VC\INCLUDE\XSTDDEF
C:\PROGRAM FILES (X86)\MICROSOFT VISUAL STUDIO 14.0\VC\INCLUDE\CSTDDEF
C:\PROGRAM FILES (X86)\MICROSOFT VISUAL STUDIO 14.0\VC\INCLUDE\YVALS.H
C:\PROGRAM FILES (X86)\MICROSOFT VISUAL STUDIO 14.0\VC\INCLUDE\XKEYCHECK.H
C:\PROGRAM FILES (X86)\MICROSOFT VISUAL STUDIO 14.0\VC\INCLUDE\CRTDEFS.H
C:\PROGRAM FILES (X86)\MICROSOFT VISUAL STUDIO 14.0\VC\INCLUDE\USE_ANSI.H
C:\PROGRAM FILES (X86)\MICROSOFT VISUAL STUDIO 14.0\VC\INCLUDE\CSTDLIB
C:\PROGRAM FILES (X86)\MICROSOFT VISUAL STUDIO 14.0\VC\INCLUDE\INITIALIZER_LIST
C:\PROGRAM FILES (X86)\MICROSOFT VISUAL STUDIO 14.0\VC\INCLUDE\XTR1COMMON
C:\PROGRAM FILES (X86)\MICROSOFT VISUAL STUDIO 14.0\VC\INCLUDE\VCRUNTIME_EXCEPTION.H
C:\PROGRAM FILES (X86)\MICROSOFT VISUAL STUDIO 14.0\VC\INCLUDE\EH.H
C:\PROGRAM FILES (X86)\WINDOWS KITS\10\INCLUDE\10.0.10150.0\UCRT\CORECRT_TERMINATE.H
C:\PROGRAM FILES (X86)\MICROSOFT VISUAL STUDIO 14.0\VC\INCLUDE\VCRUNTIME_NEW.H
C:\USERS\ANTONINO\DESKTOP\VULKAN_ENGINE\BULLET3-2.86.1\EXTRAS\CONVEXDECOMPOSITION\VLOOKUP.H
C:\USERS\ANTONINO\DESKTOP\VULKAN_ENGINE\BULLET3-2.86.1\EXTRAS\CONVEXDECOMPOSITION\MESHVOLUME.H
C:\USERS\ANTONINO\DESKTOP\VULKAN_ENGINE\BULLET3-2.86.1\EXTRAS\CONVEXDECOMPOSITION\BESTFIT.H
C:\PROGRAM FILES (X86)\WINDOWS KITS\10\INCLUDE\10.0.10150.0\UCRT\ASSERT.H
C:\USERS\ANTONINO\DESKTOP\VULKAN_ENGINE\BULLET3-2.86.1\EXTRAS\CONVEXDECOMPOSITION\CD_HULL.H
C:\USERS\ANTONINO\DESKTOP\VULKAN_ENGINE\BULLET3-2.86.1\EXTRAS\CONVEXDECOMPOSITION\FITSPHERE.H
C:\USERS\ANTONINO\DESKTOP\VULKAN_ENGINE\BULLET3-2.86.1\EXTRAS\CONVEXDECOMPOSITION\BESTFITOBB.H
^C:\USERS\ANTONINO\DESKTOP\VULKAN_ENGINE\BULLET3-2.86.1\EXTRAS\CONVEXDECOMPOSITION\SPLITPLANE.CPP
C:\USERS\ANTONINO\DESKTOP\VULKAN_ENGINE\BULLET3-2.86.1\EXTRAS\CONVEXDECOMPOSITION\FLOAT_MATH.H
C:\PROGRAM FILES (X86)\WINDOWS KITS\10\INCLUDE\10.0.10150.0\UCRT\STDIO.H
C:\PROGRAM FILES (X86)\WINDOWS KITS\10\INCLUDE\10.0.10150.0\UCRT\CORECRT.H
C:\PROGRAM FILES (X86)\MICROSOFT VISUAL STUDIO 14.0\VC\INCLUDE\VCRUNTIME.H
C:\PROGRAM FILES (X86)\MICROSOFT VISUAL STUDIO 14.0\VC\INCLUDE\SAL.H
C:\PROGRAM FILES (X86)\MICROSOFT VISUAL STUDIO 14.0\VC\INCLUDE\CONCURRENCYSAL.H
C:\PROGRAM FILES (X86)\MICROSOFT VISUAL STUDIO 14.0\VC\INCLUDE\VADEFS.H
C:\PROGRAM FILES (X86)\WINDOWS KITS\10\INCLUDE\10.0.10150.0\UCRT\CORECRT_WSTDIO.H
C:\PROGRAM FILES (X86)\WINDOWS KITS\10\INCLUDE\10.0.10150.0\UCRT\CORECRT_STDIO_CONFIG.H
C:\PROGRAM FILES (X86)\WINDOWS KITS\10\INCLUDE\10.0.10150.0\UCRT\STDLIB.H
C:\PROGRAM FILES (X86)\WINDOWS KITS\10\INCLUDE\10.0.10150.0\UCRT\CORECRT_MALLOC.H
C:\PROGRAM FILES (X86)\WINDOWS KITS\10\INCLUDE\10.0.10150.0\UCRT\CORECRT_SEARCH.H
C:\PROGRAM FILES (X86)\WINDOWS KITS\10\INCLUDE\10.0.10150.0\UCRT\STDDEF.H
C:\PROGRAM FILES (X86)\WINDOWS KITS\10\INCLUDE\10.0.10150.0\UCRT\CORECRT_WSTDLIB.H
C:\PROGRAM FILES (X86)\MICROSOFT VISUAL STUDIO 14.0\VC\INCLUDE\LIMITS.H
C:\PROGRAM FILES (X86)\WINDOWS KITS\10\INCLUDE\10.0.10150.0\UCRT\STRING.H
C:\PROGRAM FILES (X86)\WINDOWS KITS\10\INCLUDE\10.0.10150.0\UCRT\CORECRT_MEMORY.H
C:\PROGRAM FILES (X86)\WINDOWS KITS\10\INCLUDE\10.0.10150.0\UCRT\CORECRT_MEMCPY_S.H
C:\PROGRAM FILES (X86)\WINDOWS KITS\10\INCLUDE\10.0.10150.0\UCRT\ERRNO.H
C:\PROGRAM FILES (X86)\MICROSOFT VISUAL STUDIO 14.0\VC\INCLUDE\VCRUNTIME_STRING.H
C:\PROGRAM FILES (X86)\WINDOWS KITS\10\INCLUDE\10.0.10150.0\UCRT\CORECRT_WSTRING.H
C:\PROGRAM FILES (X86)\WINDOWS KITS\10\INCLUDE\10.0.10150.0\UCRT\ASSERT.H
C:\PROGRAM FILES (X86)\WINDOWS KITS\10\INCLUDE\10.0.10150.0\UCRT\FLOAT.H
C:\PROGRAM FILES (X86)\WINDOWS KITS\10\INCLUDE\10.0.10150.0\UCRT\MATH.H
C:\USERS\ANTONINO\DESKTOP\VULKAN_ENGINE\BULLET3-2.86.1\EXTRAS\CONVEXDECOMPOSITION\SPLITPLANE.H
C:\USERS\ANTONINO\DESKTOP\VULKAN_ENGINE\BULLET3-2.86.1\EXTRAS\CONVEXDECOMPOSITION\CONVEXDECOMPOSITION.H
C:\PROGRAM FILES (X86)\WINDOWS KITS\10\INCLUDE\10.0.10150.0\UCRT\MEMORY.H
C:\USERS\ANTONINO\DESKTOP\VULKAN_ENGINE\BULLET3-2.86.1\SRC\LINEARMATH\BTALIGNEDOBJECTARRAY.H
C:\USERS\ANTONINO\DESKTOP\VULKAN_ENGINE\BULLET3-2.86.1\SRC\LINEARMATH\BTSCALAR.H
C:\PROGRAM FILES (X86)\MICROSOFT VISUAL STUDIO 14.0\VC\INCLUDE\EMMINTRIN.H
C:\PROGRAM FILES (X86)\MICROSOFT VISUAL STUDIO 14.0\VC\INCLUDE\XMMINTRIN.H
C:\PROGRAM FILES (X86)\MICROSOFT VISUAL STUDIO 14.0\VC\INCLUDE\MMINTRIN.H
C:\PROGRAM FILES (X86)\WINDOWS KITS\10\INCLUDE\10.0.10150.0\UCRT\MALLOC.H
C:\USERS\ANTONINO\DESKTOP\VULKAN_ENGINE\BULLET3-2.86.1\SRC\LINEARMATH\BTALIGNEDALLOCATOR.H
C:\PROGRAM FILES (X86)\MICROSOFT VISUAL STUDIO 14.0\VC\INCLUDE\NEW
C:\PROGRAM FILES (X86)\MICROSOFT VISUAL STUDIO 14.0\VC\INCLUDE\EXCEPTION
C:\PROGRAM FILES (X86)\MICROSOFT VISUAL STUDIO 14.0\VC\INCLUDE\TYPE_TRAITS
C:\PROGRAM FILES (X86)\MICROSOFT VISUAL STUDIO 14.0\VC\INCLUDE\XSTDDEF
C:\PROGRAM FILES (X86)\MICROSOFT VISUAL STUDIO 14.0\VC\INCLUDE\CSTDDEF
C:\PROGRAM FILES (X86)\MICROSOFT VISUAL STUDIO 14.0\VC\INCLUDE\YVALS.H
C:\PROGRAM FILES (X86)\MICROSOFT VISUAL STUDIO 14.0\VC\INCLUDE\XKEYCHECK.H
C:\PROGRAM FILES (X86)\MICROSOFT VISUAL STUDIO 14.0\VC\INCLUDE\CRTDEFS.H
C:\PROGRAM FILES (X86)\MICROSOFT VISUAL STUDIO 14.0\VC\INCLUDE\USE_ANSI.H
C:\PROGRAM FILES (X86)\MICROSOFT VISUAL STUDIO 14.0\VC\INCLUDE\CSTDLIB
C:\PROGRAM FILES (X86)\MICROSOFT VISUAL STUDIO 14.0\VC\INCLUDE\INITIALIZER_LIST
C:\PROGRAM FILES (X86)\MICROSOFT VISUAL STUDIO 14.0\VC\INCLUDE\XTR1COMMON
C:\PROGRAM FILES (X86)\MICROSOFT VISUAL STUDIO 14.0\VC\INCLUDE\VCRUNTIME_EXCEPTION.H
C:\PROGRAM FILES (X86)\MICROSOFT VISUAL STUDIO 14.0\VC\INCLUDE\EH.H
C:\PROGRAM FILES (X86)\WINDOWS KITS\10\INCLUDE\10.0.10150.0\UCRT\CORECRT_TERMINATE.H
C:\PROGRAM FILES (X86)\MICROSOFT VISUAL STUDIO 14.0\VC\INCLUDE\VCRUNTIME_NEW.H
C:\USERS\ANTONINO\DESKTOP\VULKAN_ENGINE\BULLET3-2.86.1\EXTRAS\CONVEXDECOMPOSITION\CD_VECTOR.H
C:\PROGRAM FILES (X86)\MICROSOFT VISUAL STUDIO 14.0\VC\INCLUDE\VECTOR
C:\PROGRAM FILES (X86)\MICROSOFT VISUAL STUDIO 14.0\VC\INCLUDE\XMEMORY
C:\PROGRAM FILES (X86)\MICROSOFT VISUAL STUDIO 14.0\VC\INCLUDE\XMEMORY0
C:\PROGRAM FILES (X86)\MICROSOFT VISUAL STUDIO 14.0\VC\INCLUDE\CSTDINT
C:\PROGRAM FILES (X86)\MICROSOFT VISUAL STUDIO 14.0\VC\INCLUDE\STDINT.H
C:\PROGRAM FILES (X86)\MICROSOFT VISUAL STUDIO 14.0\VC\INCLUDE\LIMITS
C:\PROGRAM FILES (X86)\MICROSOFT VISUAL STUDIO 14.0\VC\INCLUDE\YMATH.H
C:\PROGRAM FILES (X86)\MICROSOFT VISUAL STUDIO 14.0\VC\INCLUDE\CFLOAT
C:\PROGRAM FILES (X86)\MICROSOFT VISUAL STUDIO 14.0\VC\INCLUDE\CLIMITS
C:\PROGRAM FILES (X86)\MICROSOFT VISUAL STUDIO 14.0\VC\INCLUDE\CMATH
C:\PROGRAM FILES (X86)\MICROSOFT VISUAL STUDIO 14.0\VC\INCLUDE\XTGMATH.H
C:\PROGRAM FILES (X86)\MICROSOFT VISUAL STUDIO 14.0\VC\INCLUDE\CWCHAR
C:\PROGRAM FILES (X86)\WINDOWS KITS\10\INCLUDE\10.0.10150.0\UCRT\WCHAR.H
C:\PROGRAM FILES (X86)\WINDOWS KITS\10\INCLUDE\10.0.10150.0\UCRT\CORECRT_WCONIO.H
C:\PROGRAM FILES (X86)\WINDOWS KITS\10\INCLUDE\10.0.10150.0\UCRT\CORECRT_WCTYPE.H
C:\PROGRAM FILES (X86)\WINDOWS KITS\10\INCLUDE\10.0.10150.0\UCRT\CORECRT_WDIRECT.H
C:\PROGRAM FILES (X86)\WINDOWS KITS\10\INCLUDE\10.0.10150.0\UCRT\CORECRT_WIO.H
C:\PROGRAM FILES (X86)\WINDOWS KITS\10\INCLUDE\10.0.10150.0\UCRT\CORECRT_SHARE.H
C:\PROGRAM FILES (X86)\WINDOWS KITS\10\INCLUDE\10.0.10150.0\UCRT\CORECRT_WPROCESS.H
C:\PROGRAM FILES (X86)\WINDOWS KITS\10\INCLUDE\10.0.10150.0\UCRT\CORECRT_WTIME.H
C:\PROGRAM FILES (X86)\WINDOWS KITS\10\INCLUDE\10.0.10150.0\UCRT\SYS\STAT.H
C:\PROGRAM FILES (X86)\WINDOWS KITS\10\INCLUDE\10.0.10150.0\UCRT\SYS\TYPES.H
C:\PROGRAM FILES (X86)\MICROSOFT VISUAL STUDIO 14.0\VC\INCLUDE\XUTILITY
C:\PROGRAM FILES (X86)\MICROSOFT VISUAL STUDIO 14.0\VC\INCLUDE\UTILITY
C:\PROGRAM FILES (X86)\MICROSOFT VISUAL STUDIO 14.0\VC\INCLUDE\IOSFWD
C:\PROGRAM FILES (X86)\MICROSOFT VISUAL STUDIO 14.0\VC\INCLUDE\CSTDIO
C:\PROGRAM FILES (X86)\MICROSOFT VISUAL STUDIO 14.0\VC\INCLUDE\CSTRING
C:\PROGRAM FILES (X86)\WINDOWS KITS\10\INCLUDE\10.0.10150.0\UCRT\CRTDBG.H
C:\PROGRAM FILES (X86)\MICROSOFT VISUAL STUDIO 14.0\VC\INCLUDE\VCRUNTIME_NEW_DEBUG.H
C:\PROGRAM FILES (X86)\MICROSOFT VISUAL STUDIO 14.0\VC\INCLUDE\XATOMIC0.H
C:\PROGRAM FILES (X86)\MICROSOFT VISUAL STUDIO 14.0\VC\INCLUDE\INTRIN.H
C:\PROGRAM FILES (X86)\MICROSOFT VISUAL STUDIO 14.0\VC\INCLUDE\SETJMP.H
C:\PROGRAM FILES (X86)\MICROSOFT VISUAL STUDIO 14.0\VC\INCLUDE\IMMINTRIN.H
C:\PROGRAM FILES (X86)\MICROSOFT VISUAL STUDIO 14.0\VC\INCLUDE\WMMINTRIN.H
C:\PROGRAM FILES (X86)\MICROSOFT VISUAL STUDIO 14.0\VC\INCLUDE\NMMINTRIN.H
C:\PROGRAM FILES (X86)\MICROSOFT VISUAL STUDIO 14.0\VC\INCLUDE\SMMINTRIN.H
C:\PROGRAM FILES (X86)\MICROSOFT VISUAL STUDIO 14.0\VC\INCLUDE\TMMINTRIN.H
C:\PROGRAM FILES (X86)\MICROSOFT VISUAL STUDIO 14.0\VC\INCLUDE\PMMINTRIN.H
C:\PROGRAM FILES (X86)\MICROSOFT VISUAL STUDIO 14.0\VC\INCLUDE\AMMINTRIN.H
C:\PROGRAM FILES (X86)\MICROSOFT VISUAL STUDIO 14.0\VC\INCLUDE\MM3DNOW.H
C:\PROGRAM FILES (X86)\MICROSOFT VISUAL STUDIO 14.0\VC\INCLUDE\STDEXCEPT
C:\PROGRAM FILES (X86)\MICROSOFT VISUAL STUDIO 14.0\VC\INCLUDE\XSTRING
C:\USERS\ANTONINO\DESKTOP\VULKAN_ENGINE\BULLET3-2.86.1\EXTRAS\CONVEXDECOMPOSITION\CD_HULL.H
C:\USERS\ANTONINO\DESKTOP\VULKAN_ENGINE\BULLET3-2.86.1\EXTRAS\CONVEXDECOMPOSITION\CD_WAVEFRONT.H
C:\USERS\ANTONINO\DESKTOP\VULKAN_ENGINE\BULLET3-2.86.1\EXTRAS\CONVEXDECOMPOSITION\BESTFIT.H
C:\USERS\ANTONINO\DESKTOP\VULKAN_ENGINE\BULLET3-2.86.1\EXTRAS\CONVEXDECOMPOSITION\PLANETRI.H
C:\USERS\ANTONINO\DESKTOP\VULKAN_ENGINE\BULLET3-2.86.1\EXTRAS\CONVEXDECOMPOSITION\VLOOKUP.H
C:\USERS\ANTONINO\DESKTOP\VULKAN_ENGINE\BULLET3-2.86.1\EXTRAS\CONVEXDECOMPOSITION\MESHVOLUME.H
^C:\USERS\ANTONINO\DESKTOP\VULKAN_ENGINE\BULLET3-2.86.1\EXTRAS\CONVEXDECOMPOSITION\CD_HULL.CPP
C:\USERS\ANTONINO\DESKTOP\VULKAN_ENGINE\BULLET3-2.86.1\EXTRAS\CONVEXDECOMPOSITION\FLOAT_MATH.H
C:\PROGRAM FILES (X86)\WINDOWS KITS\10\INCLUDE\10.0.10150.0\UCRT\STDIO.H
C:\PROGRAM FILES (X86)\WINDOWS KITS\10\INCLUDE\10.0.10150.0\UCRT\CORECRT.H
C:\PROGRAM FILES (X86)\MICROSOFT VISUAL STUDIO 14.0\VC\INCLUDE\VCRUNTIME.H
C:\PROGRAM FILES (X86)\MICROSOFT VISUAL STUDIO 14.0\VC\INCLUDE\SAL.H
C:\PROGRAM FILES (X86)\MICROSOFT VISUAL STUDIO 14.0\VC\INCLUDE\CONCURRENCYSAL.H
C:\PROGRAM FILES (X86)\MICROSOFT VISUAL STUDIO 14.0\VC\INCLUDE\VADEFS.H
C:\PROGRAM FILES (X86)\WINDOWS KITS\10\INCLUDE\10.0.10150.0\UCRT\CORECRT_WSTDIO.H
C:\PROGRAM FILES (X86)\WINDOWS KITS\10\INCLUDE\10.0.10150.0\UCRT\CORECRT_STDIO_CONFIG.H
C:\PROGRAM FILES (X86)\WINDOWS KITS\10\INCLUDE\10.0.10150.0\UCRT\STDLIB.H
C:\PROGRAM FILES (X86)\WINDOWS KITS\10\INCLUDE\10.0.10150.0\UCRT\CORECRT_MALLOC.H
C:\PROGRAM FILES (X86)\WINDOWS KITS\10\INCLUDE\10.0.10150.0\UCRT\CORECRT_SEARCH.H
C:\PROGRAM FILES (X86)\WINDOWS KITS\10\INCLUDE\10.0.10150.0\UCRT\STDDEF.H
C:\PROGRAM FILES (X86)\WINDOWS KITS\10\INCLUDE\10.0.10150.0\UCRT\CORECRT_WSTDLIB.H
C:\PROGRAM FILES (X86)\MICROSOFT VISUAL STUDIO 14.0\VC\INCLUDE\LIMITS.H
C:\PROGRAM FILES (X86)\WINDOWS KITS\10\INCLUDE\10.0.10150.0\UCRT\STRING.H
C:\PROGRAM FILES (X86)\WINDOWS KITS\10\INCLUDE\10.0.10150.0\UCRT\CORECRT_MEMORY.H
C:\PROGRAM FILES (X86)\WINDOWS KITS\10\INCLUDE\10.0.10150.0\UCRT\CORECRT_MEMCPY_S.H
C:\PROGRAM FILES (X86)\WINDOWS KITS\10\INCLUDE\10.0.10150.0\UCRT\ERRNO.H
C:\PROGRAM FILES (X86)\MICROSOFT VISUAL STUDIO 14.0\VC\INCLUDE\VCRUNTIME_STRING.H
C:\PROGRAM FILES (X86)\WINDOWS KITS\10\INCLUDE\10.0.10150.0\UCRT\CORECRT_WSTRING.H
C:\PROGRAM FILES (X86)\WINDOWS KITS\10\INCLUDE\10.0.10150.0\UCRT\ASSERT.H
C:\PROGRAM FILES (X86)\WINDOWS KITS\10\INCLUDE\10.0.10150.0\UCRT\MATH.H
C:\PROGRAM FILES (X86)\WINDOWS KITS\10\INCLUDE\10.0.10150.0\UCRT\FLOAT.H
C:\USERS\ANTONINO\DESKTOP\VULKAN_ENGINE\BULLET3-2.86.1\EXTRAS\CONVEXDECOMPOSITION\CD_HULL.H
^C:\USERS\ANTONINO\DESKTOP\VULKAN_ENGINE\BULLET3-2.86.1\EXTRAS\CONVEXDECOMPOSITION\VLOOKUP.CPP
C:\USERS\ANTONINO\DESKTOP\VULKAN_ENGINE\BULLET3-2.86.1\EXTRAS\CONVEXDECOMPOSITION\FLOAT_MATH.H
C:\PROGRAM FILES (X86)\WINDOWS KITS\10\INCLUDE\10.0.10150.0\UCRT\STDIO.H
C:\PROGRAM FILES (X86)\WINDOWS KITS\10\INCLUDE\10.0.10150.0\UCRT\CORECRT.H
C:\PROGRAM FILES (X86)\MICROSOFT VISUAL STUDIO 14.0\VC\INCLUDE\VCRUNTIME.H
C:\PROGRAM FILES (X86)\MICROSOFT VISUAL STUDIO 14.0\VC\INCLUDE\SAL.H
C:\PROGRAM FILES (X86)\MICROSOFT VISUAL STUDIO 14.0\VC\INCLUDE\CONCURRENCYSAL.H
C:\PROGRAM FILES (X86)\MICROSOFT VISUAL STUDIO 14.0\VC\INCLUDE\VADEFS.H
C:\PROGRAM FILES (X86)\WINDOWS KITS\10\INCLUDE\10.0.10150.0\UCRT\CORECRT_WSTDIO.H
C:\PROGRAM FILES (X86)\WINDOWS KITS\10\INCLUDE\10.0.10150.0\UCRT\CORECRT_STDIO_CONFIG.H
C:\PROGRAM FILES (X86)\WINDOWS KITS\10\INCLUDE\10.0.10150.0\UCRT\STDLIB.H
C:\PROGRAM FILES (X86)\WINDOWS KITS\10\INCLUDE\10.0.10150.0\UCRT\CORECRT_MALLOC.H
C:\PROGRAM FILES (X86)\WINDOWS KITS\10\INCLUDE\10.0.10150.0\UCRT\CORECRT_SEARCH.H
C:\PROGRAM FILES (X86)\WINDOWS KITS\10\INCLUDE\10.0.10150.0\UCRT\STDDEF.H
C:\PROGRAM FILES (X86)\WINDOWS KITS\10\INCLUDE\10.0.10150.0\UCRT\CORECRT_WSTDLIB.H
C:\PROGRAM FILES (X86)\MICROSOFT VISUAL STUDIO 14.0\VC\INCLUDE\LIMITS.H
C:\PROGRAM FILES (X86)\WINDOWS KITS\10\INCLUDE\10.0.10150.0\UCRT\STRING.H
C:\PROGRAM FILES (X86)\WINDOWS KITS\10\INCLUDE\10.0.10150.0\UCRT\CORECRT_MEMORY.H
C:\PROGRAM FILES (X86)\WINDOWS KITS\10\INCLUDE\10.0.10150.0\UCRT\CORECRT_MEMCPY_S.H
C:\PROGRAM FILES (X86)\WINDOWS KITS\10\INCLUDE\10.0.10150.0\UCRT\ERRNO.H
C:\PROGRAM FILES (X86)\MICROSOFT VISUAL STUDIO 14.0\VC\INCLUDE\VCRUNTIME_STRING.H
C:\PROGRAM FILES (X86)\WINDOWS KITS\10\INCLUDE\10.0.10150.0\UCRT\CORECRT_WSTRING.H
C:\PROGRAM FILES (X86)\WINDOWS KITS\10\INCLUDE\10.0.10150.0\UCRT\ASSERT.H
C:\PROGRAM FILES (X86)\MICROSOFT VISUAL STUDIO 14.0\VC\INCLUDE\VECTOR
C:\PROGRAM FILES (X86)\MICROSOFT VISUAL STUDIO 14.0\VC\INCLUDE\XMEMORY
C:\PROGRAM FILES (X86)\MICROSOFT VISUAL STUDIO 14.0\VC\INCLUDE\XMEMORY0
C:\PROGRAM FILES (X86)\MICROSOFT VISUAL STUDIO 14.0\VC\INCLUDE\CSTDINT
C:\PROGRAM FILES (X86)\MICROSOFT VISUAL STUDIO 14.0\VC\INCLUDE\YVALS.H
C:\PROGRAM FILES (X86)\MICROSOFT VISUAL STUDIO 14.0\VC\INCLUDE\XKEYCHECK.H
C:\PROGRAM FILES (X86)\MICROSOFT VISUAL STUDIO 14.0\VC\INCLUDE\CRTDEFS.H
C:\PROGRAM FILES (X86)\MICROSOFT VISUAL STUDIO 14.0\VC\INCLUDE\USE_ANSI.H
C:\PROGRAM FILES (X86)\MICROSOFT VISUAL STUDIO 14.0\VC\INCLUDE\STDINT.H
C:\PROGRAM FILES (X86)\MICROSOFT VISUAL STUDIO 14.0\VC\INCLUDE\CSTDLIB
C:\PROGRAM FILES (X86)\MICROSOFT VISUAL STUDIO 14.0\VC\INCLUDE\LIMITS
C:\PROGRAM FILES (X86)\MICROSOFT VISUAL STUDIO 14.0\VC\INCLUDE\YMATH.H
C:\PROGRAM FILES (X86)\MICROSOFT VISUAL STUDIO 14.0\VC\INCLUDE\CFLOAT
C:\PROGRAM FILES (X86)\WINDOWS KITS\10\INCLUDE\10.0.10150.0\UCRT\FLOAT.H
C:\PROGRAM FILES (X86)\MICROSOFT VISUAL STUDIO 14.0\VC\INCLUDE\CLIMITS
C:\PROGRAM FILES (X86)\MICROSOFT VISUAL STUDIO 14.0\VC\INCLUDE\CMATH
C:\PROGRAM FILES (X86)\WINDOWS KITS\10\INCLUDE\10.0.10150.0\UCRT\MATH.H
C:\PROGRAM FILES (X86)\MICROSOFT VISUAL STUDIO 14.0\VC\INCLUDE\XTGMATH.H
C:\PROGRAM FILES (X86)\MICROSOFT VISUAL STUDIO 14.0\VC\INCLUDE\XTR1COMMON
C:\PROGRAM FILES (X86)\MICROSOFT VISUAL STUDIO 14.0\VC\INCLUDE\CWCHAR
C:\PROGRAM FILES (X86)\WINDOWS KITS\10\INCLUDE\10.0.10150.0\UCRT\WCHAR.H
C:\PROGRAM FILES (X86)\WINDOWS KITS\10\INCLUDE\10.0.10150.0\UCRT\CORECRT_WCONIO.H
C:\PROGRAM FILES (X86)\WINDOWS KITS\10\INCLUDE\10.0.10150.0\UCRT\CORECRT_WCTYPE.H
C:\PROGRAM FILES (X86)\WINDOWS KITS\10\INCLUDE\10.0.10150.0\UCRT\CORECRT_WDIRECT.H
C:\PROGRAM FILES (X86)\WINDOWS KITS\10\INCLUDE\10.0.10150.0\UCRT\CORECRT_WIO.H
C:\PROGRAM FILES (X86)\WINDOWS KITS\10\INCLUDE\10.0.10150.0\UCRT\CORECRT_SHARE.H
C:\PROGRAM FILES (X86)\WINDOWS KITS\10\INCLUDE\10.0.10150.0\UCRT\CORECRT_WPROCESS.H
C:\PROGRAM FILES (X86)\WINDOWS KITS\10\INCLUDE\10.0.10150.0\UCRT\CORECRT_WTIME.H
C:\PROGRAM FILES (X86)\WINDOWS KITS\10\INCLUDE\10.0.10150.0\UCRT\SYS\STAT.H
C:\PROGRAM FILES (X86)\WINDOWS KITS\10\INCLUDE\10.0.10150.0\UCRT\SYS\TYPES.H
C:\PROGRAM FILES (X86)\MICROSOFT VISUAL STUDIO 14.0\VC\INCLUDE\XSTDDEF
C:\PROGRAM FILES (X86)\MICROSOFT VISUAL STUDIO 14.0\VC\INCLUDE\CSTDDEF
C:\PROGRAM FILES (X86)\MICROSOFT VISUAL STUDIO 14.0\VC\INCLUDE\INITIALIZER_LIST
C:\PROGRAM FILES (X86)\MICROSOFT VISUAL STUDIO 14.0\VC\INCLUDE\NEW
C:\PROGRAM FILES (X86)\MICROSOFT VISUAL STUDIO 14.0\VC\INCLUDE\EXCEPTION
C:\PROGRAM FILES (X86)\MICROSOFT VISUAL STUDIO 14.0\VC\INCLUDE\TYPE_TRAITS
C:\PROGRAM FILES (X86)\WINDOWS KITS\10\INCLUDE\10.0.10150.0\UCRT\MALLOC.H
C:\PROGRAM FILES (X86)\MICROSOFT VISUAL STUDIO 14.0\VC\INCLUDE\VCRUNTIME_EXCEPTION.H
C:\PROGRAM FILES (X86)\MICROSOFT VISUAL STUDIO 14.0\VC\INCLUDE\EH.H
C:\PROGRAM FILES (X86)\WINDOWS KITS\10\INCLUDE\10.0.10150.0\UCRT\CORECRT_TERMINATE.H
C:\PROGRAM FILES (X86)\MICROSOFT VISUAL STUDIO 14.0\VC\INCLUDE\VCRUNTIME_NEW.H
C:\PROGRAM FILES (X86)\MICROSOFT VISUAL STUDIO 14.0\VC\INCLUDE\XUTILITY
C:\PROGRAM FILES (X86)\MICROSOFT VISUAL STUDIO 14.0\VC\INCLUDE\UTILITY
C:\PROGRAM FILES (X86)\MICROSOFT VISUAL STUDIO 14.0\VC\INCLUDE\IOSFWD
C:\PROGRAM FILES (X86)\MICROSOFT VISUAL STUDIO 14.0\VC\INCLUDE\CSTDIO
C:\PROGRAM FILES (X86)\MICROSOFT VISUAL STUDIO 14.0\VC\INCLUDE\CSTRING
C:\PROGRAM FILES (X86)\WINDOWS KITS\10\INCLUDE\10.0.10150.0\UCRT\CRTDBG.H
C:\PROGRAM FILES (X86)\MICROSOFT VISUAL STUDIO 14.0\VC\INCLUDE\VCRUNTIME_NEW_DEBUG.H
C:\PROGRAM FILES (X86)\MICROSOFT VISUAL STUDIO 14.0\VC\INCLUDE\XATOMIC0.H
C:\PROGRAM FILES (X86)\MICROSOFT VISUAL STUDIO 14.0\VC\INCLUDE\INTRIN.H
C:\PROGRAM FILES (X86)\MICROSOFT VISUAL STUDIO 14.0\VC\INCLUDE\SETJMP.H
C:\PROGRAM FILES (X86)\MICROSOFT VISUAL STUDIO 14.0\VC\INCLUDE\IMMINTRIN.H
C:\PROGRAM FILES (X86)\MICROSOFT VISUAL STUDIO 14.0\VC\INCLUDE\WMMINTRIN.H
C:\PROGRAM FILES (X86)\MICROSOFT VISUAL STUDIO 14.0\VC\INCLUDE\NMMINTRIN.H
C:\PROGRAM FILES (X86)\MICROSOFT VISUAL STUDIO 14.0\VC\INCLUDE\SMMINTRIN.H
C:\PROGRAM FILES (X86)\MICROSOFT VISUAL STUDIO 14.0\VC\INCLUDE\TMMINTRIN.H
C:\PROGRAM FILES (X86)\MICROSOFT VISUAL STUDIO 14.0\VC\INCLUDE\PMMINTRIN.H
C:\PROGRAM FILES (X86)\MICROSOFT VISUAL STUDIO 14.0\VC\INCLUDE\EMMINTRIN.H
C:\PROGRAM FILES (X86)\MICROSOFT VISUAL STUDIO 14.0\VC\INCLUDE\XMMINTRIN.H
C:\PROGRAM FILES (X86)\MICROSOFT VISUAL STUDIO 14.0\VC\INCLUDE\MMINTRIN.H
C:\PROGRAM FILES (X86)\MICROSOFT VISUAL STUDIO 14.0\VC\INCLUDE\AMMINTRIN.H
C:\PROGRAM FILES (X86)\MICROSOFT VISUAL STUDIO 14.0\VC\INCLUDE\MM3DNOW.H
C:\PROGRAM FILES (X86)\MICROSOFT VISUAL STUDIO 14.0\VC\INCLUDE\STDEXCEPT
C:\PROGRAM FILES (X86)\MICROSOFT VISUAL STUDIO 14.0\VC\INCLUDE\XSTRING
C:\PROGRAM FILES (X86)\MICROSOFT VISUAL STUDIO 14.0\VC\INCLUDE\MAP
C:\PROGRAM FILES (X86)\MICROSOFT VISUAL STUDIO 14.0\VC\INCLUDE\TUPLE
C:\PROGRAM FILES (X86)\MICROSOFT VISUAL STUDIO 14.0\VC\INCLUDE\XTREE
C:\PROGRAM FILES (X86)\MICROSOFT VISUAL STUDIO 14.0\VC\INCLUDE\SET
C:\USERS\ANTONINO\DESKTOP\VULKAN_ENGINE\BULLET3-2.86.1\EXTRAS\CONVEXDECOMPOSITION\VLOOKUP.H
^C:\USERS\ANTONINO\DESKTOP\VULKAN_ENGINE\BULLET3-2.86.1\EXTRAS\CONVEXDECOMPOSITION\BESTFIT.CPP
C:\USERS\ANTONINO\DESKTOP\VULKAN_ENGINE\BULLET3-2.86.1\EXTRAS\CONVEXDECOMPOSITION\FLOAT_MATH.H
C:\PROGRAM FILES (X86)\WINDOWS KITS\10\INCLUDE\10.0.10150.0\UCRT\STDIO.H
C:\PROGRAM FILES (X86)\WINDOWS KITS\10\INCLUDE\10.0.10150.0\UCRT\CORECRT.H
C:\PROGRAM FILES (X86)\MICROSOFT VISUAL STUDIO 14.0\VC\INCLUDE\VCRUNTIME.H
C:\PROGRAM FILES (X86)\MICROSOFT VISUAL STUDIO 14.0\VC\INCLUDE\SAL.H
C:\PROGRAM FILES (X86)\MICROSOFT VISUAL STUDIO 14.0\VC\INCLUDE\CONCURRENCYSAL.H
C:\PROGRAM FILES (X86)\MICROSOFT VISUAL STUDIO 14.0\VC\INCLUDE\VADEFS.H
C:\PROGRAM FILES (X86)\WINDOWS KITS\10\INCLUDE\10.0.10150.0\UCRT\CORECRT_WSTDIO.H
C:\PROGRAM FILES (X86)\WINDOWS KITS\10\INCLUDE\10.0.10150.0\UCRT\CORECRT_STDIO_CONFIG.H
C:\PROGRAM FILES (X86)\WINDOWS KITS\10\INCLUDE\10.0.10150.0\UCRT\STDLIB.H
C:\PROGRAM FILES (X86)\WINDOWS KITS\10\INCLUDE\10.0.10150.0\UCRT\CORECRT_MALLOC.H
C:\PROGRAM FILES (X86)\WINDOWS KITS\10\INCLUDE\10.0.10150.0\UCRT\CORECRT_SEARCH.H
C:\PROGRAM FILES (X86)\WINDOWS KITS\10\INCLUDE\10.0.10150.0\UCRT\STDDEF.H
C:\PROGRAM FILES (X86)\WINDOWS KITS\10\INCLUDE\10.0.10150.0\UCRT\CORECRT_WSTDLIB.H
C:\PROGRAM FILES (X86)\MICROSOFT VISUAL STUDIO 14.0\VC\INCLUDE\LIMITS.H
C:\PROGRAM FILES (X86)\WINDOWS KITS\10\INCLUDE\10.0.10150.0\UCRT\STRING.H
C:\PROGRAM FILES (X86)\WINDOWS KITS\10\INCLUDE\10.0.10150.0\UCRT\CORECRT_MEMORY.H
C:\PROGRAM FILES (X86)\WINDOWS KITS\10\INCLUDE\10.0.10150.0\UCRT\CORECRT_MEMCPY_S.H
C:\PROGRAM FILES (X86)\WINDOWS KITS\10\INCLUDE\10.0.10150.0\UCRT\ERRNO.H
C:\PROGRAM FILES (X86)\MICROSOFT VISUAL STUDIO 14.0\VC\INCLUDE\VCRUNTIME_STRING.H
C:\PROGRAM FILES (X86)\WINDOWS KITS\10\INCLUDE\10.0.10150.0\UCRT\CORECRT_WSTRING.H
C:\PROGRAM FILES (X86)\WINDOWS KITS\10\INCLUDE\10.0.10150.0\UCRT\ASSERT.H
C:\PROGRAM FILES (X86)\WINDOWS KITS\10\INCLUDE\10.0.10150.0\UCRT\MATH.H
C:\USERS\ANTONINO\DESKTOP\VULKAN_ENGINE\BULLET3-2.86.1\EXTRAS\CONVEXDECOMPOSITION\BESTFIT.H
^C:\USERS\ANTONINO\DESKTOP\VULKAN_ENGINE\BULLET3-2.86.1\EXTRAS\CONVEXDECOMPOSITION\PLANETRI.CPP
C:\USERS\ANTONINO\DESKTOP\VULKAN_ENGINE\BULLET3-2.86.1\EXTRAS\CONVEXDECOMPOSITION\FLOAT_MATH.H
C:\PROGRAM FILES (X86)\WINDOWS KITS\10\INCLUDE\10.0.10150.0\UCRT\STDIO.H
C:\PROGRAM FILES (X86)\WINDOWS KITS\10\INCLUDE\10.0.10150.0\UCRT\CORECRT.H
C:\PROGRAM FILES (X86)\MICROSOFT VISUAL STUDIO 14.0\VC\INCLUDE\VCRUNTIME.H
C:\PROGRAM FILES (X86)\MICROSOFT VISUAL STUDIO 14.0\VC\INCLUDE\SAL.H
C:\PROGRAM FILES (X86)\MICROSOFT VISUAL STUDIO 14.0\VC\INCLUDE\CONCURRENCYSAL.H
C:\PROGRAM FILES (X86)\MICROSOFT VISUAL STUDIO 14.0\VC\INCLUDE\VADEFS.H
C:\PROGRAM FILES (X86)\WINDOWS KITS\10\INCLUDE\10.0.10150.0\UCRT\CORECRT_WSTDIO.H
C:\PROGRAM FILES (X86)\WINDOWS KITS\10\INCLUDE\10.0.10150.0\UCRT\CORECRT_STDIO_CONFIG.H
C:\PROGRAM FILES (X86)\WINDOWS KITS\10\INCLUDE\10.0.10150.0\UCRT\STDLIB.H
C:\PROGRAM FILES (X86)\WINDOWS KITS\10\INCLUDE\10.0.10150.0\UCRT\CORECRT_MALLOC.H
C:\PROGRAM FILES (X86)\WINDOWS KITS\10\INCLUDE\10.0.10150.0\UCRT\CORECRT_SEARCH.H
C:\PROGRAM FILES (X86)\WINDOWS KITS\10\INCLUDE\10.0.10150.0\UCRT\STDDEF.H
C:\PROGRAM FILES (X86)\WINDOWS KITS\10\INCLUDE\10.0.10150.0\UCRT\CORECRT_WSTDLIB.H
C:\PROGRAM FILES (X86)\MICROSOFT VISUAL STUDIO 14.0\VC\INCLUDE\LIMITS.H
C:\PROGRAM FILES (X86)\WINDOWS KITS\10\INCLUDE\10.0.10150.0\UCRT\STRING.H
C:\PROGRAM FILES (X86)\WINDOWS KITS\10\INCLUDE\10.0.10150.0\UCRT\CORECRT_MEMORY.H
C:\PROGRAM FILES (X86)\WINDOWS KITS\10\INCLUDE\10.0.10150.0\UCRT\CORECRT_MEMCPY_S.H
C:\PROGRAM FILES (X86)\WINDOWS KITS\10\INCLUDE\10.0.10150.0\UCRT\ERRNO.H
C:\PROGRAM FILES (X86)\MICROSOFT VISUAL STUDIO 14.0\VC\INCLUDE\VCRUNTIME_STRING.H
C:\PROGRAM FILES (X86)\WINDOWS KITS\10\INCLUDE\10.0.10150.0\UCRT\CORECRT_WSTRING.H
C:\PROGRAM FILES (X86)\WINDOWS KITS\10\INCLUDE\10.0.10150.0\UCRT\ASSERT.H
C:\USERS\ANTONINO\DESKTOP\VULKAN_ENGINE\BULLET3-2.86.1\EXTRAS\CONVEXDECOMPOSITION\PLANETRI.H
^C:\USERS\ANTONINO\DESKTOP\VULKAN_ENGINE\BULLET3-2.86.1\EXTRAS\CONVEXDECOMPOSITION\BESTFITOBB.CPP
C:\USERS\ANTONINO\DESKTOP\VULKAN_ENGINE\BULLET3-2.86.1\EXTRAS\CONVEXDECOMPOSITION\FLOAT_MATH.H
C:\PROGRAM FILES (X86)\WINDOWS KITS\10\INCLUDE\10.0.10150.0\UCRT\STDIO.H
C:\PROGRAM FILES (X86)\WINDOWS KITS\10\INCLUDE\10.0.10150.0\UCRT\CORECRT.H
C:\PROGRAM FILES (X86)\MICROSOFT VISUAL STUDIO 14.0\VC\INCLUDE\VCRUNTIME.H
C:\PROGRAM FILES (X86)\MICROSOFT VISUAL STUDIO 14.0\VC\INCLUDE\SAL.H
C:\PROGRAM FILES (X86)\MICROSOFT VISUAL STUDIO 14.0\VC\INCLUDE\CONCURRENCYSAL.H
C:\PROGRAM FILES (X86)\MICROSOFT VISUAL STUDIO 14.0\VC\INCLUDE\VADEFS.H
C:\PROGRAM FILES (X86)\WINDOWS KITS\10\INCLUDE\10.0.10150.0\UCRT\CORECRT_WSTDIO.H
C:\PROGRAM FILES (X86)\WINDOWS KITS\10\INCLUDE\10.0.10150.0\UCRT\CORECRT_STDIO_CONFIG.H
C:\PROGRAM FILES (X86)\WINDOWS KITS\10\INCLUDE\10.0.10150.0\UCRT\STDLIB.H
C:\PROGRAM FILES (X86)\WINDOWS KITS\10\INCLUDE\10.0.10150.0\UCRT\CORECRT_MALLOC.H
C:\PROGRAM FILES (X86)\WINDOWS KITS\10\INCLUDE\10.0.10150.0\UCRT\CORECRT_SEARCH.H
C:\PROGRAM FILES (X86)\WINDOWS KITS\10\INCLUDE\10.0.10150.0\UCRT\STDDEF.H
C:\PROGRAM FILES (X86)\WINDOWS KITS\10\INCLUDE\10.0.10150.0\UCRT\CORECRT_WSTDLIB.H
C:\PROGRAM FILES (X86)\MICROSOFT VISUAL STUDIO 14.0\VC\INCLUDE\LIMITS.H
C:\PROGRAM FILES (X86)\WINDOWS KITS\10\INCLUDE\10.0.10150.0\UCRT\STRING.H
C:\PROGRAM FILES (X86)\WINDOWS KITS\10\INCLUDE\10.0.10150.0\UCRT\CORECRT_MEMORY.H
C:\PROGRAM FILES (X86)\WINDOWS KITS\10\INCLUDE\10.0.10150.0\UCRT\CORECRT_MEMCPY_S.H
C:\PROGRAM FILES (X86)\WINDOWS KITS\10\INCLUDE\10.0.10150.0\UCRT\ERRNO.H
C:\PROGRAM FILES (X86)\MICROSOFT VISUAL STUDIO 14.0\VC\INCLUDE\VCRUNTIME_STRING.H
C:\PROGRAM FILES (X86)\WINDOWS KITS\10\INCLUDE\10.0.10150.0\UCRT\CORECRT_WSTRING.H
C:\PROGRAM FILES (X86)\WINDOWS KITS\10\INCLUDE\10.0.10150.0\UCRT\MATH.H
C:\PROGRAM FILES (X86)\WINDOWS KITS\10\INCLUDE\10.0.10150.0\UCRT\ASSERT.H
C:\USERS\ANTONINO\DESKTOP\VULKAN_ENGINE\BULLET3-2.86.1\EXTRAS\CONVEXDECOMPOSITION\BESTFITOBB.H
^C:\USERS\ANTONINO\DESKTOP\VULKAN_ENGINE\BULLET3-2.86.1\EXTRAS\CONVEXDECOMPOSITION\FLOAT_MATH.CPP
C:\USERS\ANTONINO\DESKTOP\VULKAN_ENGINE\BULLET3-2.86.1\EXTRAS\CONVEXDECOMPOSITION\FLOAT_MATH.H
C:\PROGRAM FILES (X86)\WINDOWS KITS\10\INCLUDE\10.0.10150.0\UCRT\STDIO.H
C:\PROGRAM FILES (X86)\WINDOWS KITS\10\INCLUDE\10.0.10150.0\UCRT\CORECRT.H
C:\PROGRAM FILES (X86)\MICROSOFT VISUAL STUDIO 14.0\VC\INCLUDE\VCRUNTIME.H
C:\PROGRAM FILES (X86)\MICROSOFT VISUAL STUDIO 14.0\VC\INCLUDE\SAL.H
C:\PROGRAM FILES (X86)\MICROSOFT VISUAL STUDIO 14.0\VC\INCLUDE\CONCURRENCYSAL.H
C:\PROGRAM FILES (X86)\MICROSOFT VISUAL STUDIO 14.0\VC\INCLUDE\VADEFS.H
C:\PROGRAM FILES (X86)\WINDOWS KITS\10\INCLUDE\10.0.10150.0\UCRT\CORECRT_WSTDIO.H
C:\PROGRAM FILES (X86)\WINDOWS KITS\10\INCLUDE\10.0.10150.0\UCRT\CORECRT_STDIO_CONFIG.H
C:\PROGRAM FILES (X86)\WINDOWS KITS\10\INCLUDE\10.0.10150.0\UCRT\STDLIB.H
C:\PROGRAM FILES (X86)\WINDOWS KITS\10\INCLUDE\10.0.10150.0\UCRT\CORECRT_MALLOC.H
C:\PROGRAM FILES (X86)\WINDOWS KITS\10\INCLUDE\10.0.10150.0\UCRT\CORECRT_SEARCH.H
C:\PROGRAM FILES (X86)\WINDOWS KITS\10\INCLUDE\10.0.10150.0\UCRT\STDDEF.H
C:\PROGRAM FILES (X86)\WINDOWS KITS\10\INCLUDE\10.0.10150.0\UCRT\CORECRT_WSTDLIB.H
C:\PROGRAM FILES (X86)\MICROSOFT VISUAL STUDIO 14.0\VC\INCLUDE\LIMITS.H
C:\PROGRAM FILES (X86)\WINDOWS KITS\10\INCLUDE\10.0.10150.0\UCRT\STRING.H
C:\PROGRAM FILES (X86)\WINDOWS KITS\10\INCLUDE\10.0.10150.0\UCRT\CORECRT_MEMORY.H
C:\PROGRAM FILES (X86)\WINDOWS KITS\10\INCLUDE\10.0.10150.0\UCRT\CORECRT_MEMCPY_S.H
C:\PROGRAM FILES (X86)\WINDOWS KITS\10\INCLUDE\10.0.10150.0\UCRT\ERRNO.H
C:\PROGRAM FILES (X86)\MICROSOFT VISUAL STUDIO 14.0\VC\INCLUDE\VCRUNTIME_STRING.H
C:\PROGRAM FILES (X86)\WINDOWS KITS\10\INCLUDE\10.0.10150.0\UCRT\CORECRT_WSTRING.H
C:\PROGRAM FILES (X86)\WINDOWS KITS\10\INCLUDE\10.0.10150.0\UCRT\ASSERT.H
C:\PROGRAM FILES (X86)\WINDOWS KITS\10\INCLUDE\10.0.10150.0\UCRT\MATH.H
^C:\USERS\ANTONINO\DESKTOP\VULKAN_ENGINE\BULLET3-2.86.1\EXTRAS\CONVEXDECOMPOSITION\FITSPHERE.CPP
C:\PROGRAM FILES (X86)\WINDOWS KITS\10\INCLUDE\10.0.10150.0\UCRT\STDIO.H
C:\PROGRAM FILES (X86)\WINDOWS KITS\10\INCLUDE\10.0.10150.0\UCRT\CORECRT.H
C:\PROGRAM FILES (X86)\MICROSOFT VISUAL STUDIO 14.0\VC\INCLUDE\VCRUNTIME.H
C:\PROGRAM FILES (X86)\MICROSOFT VISUAL STUDIO 14.0\VC\INCLUDE\SAL.H
C:\PROGRAM FILES (X86)\MICROSOFT VISUAL STUDIO 14.0\VC\INCLUDE\CONCURRENCYSAL.H
C:\PROGRAM FILES (X86)\MICROSOFT VISUAL STUDIO 14.0\VC\INCLUDE\VADEFS.H
C:\PROGRAM FILES (X86)\WINDOWS KITS\10\INCLUDE\10.0.10150.0\UCRT\CORECRT_WSTDIO.H
C:\PROGRAM FILES (X86)\WINDOWS KITS\10\INCLUDE\10.0.10150.0\UCRT\CORECRT_STDIO_CONFIG.H
C:\PROGRAM FILES (X86)\WINDOWS KITS\10\INCLUDE\10.0.10150.0\UCRT\STDLIB.H
C:\PROGRAM FILES (X86)\WINDOWS KITS\10\INCLUDE\10.0.10150.0\UCRT\CORECRT_MALLOC.H
C:\PROGRAM FILES (X86)\WINDOWS KITS\10\INCLUDE\10.0.10150.0\UCRT\CORECRT_SEARCH.H
C:\PROGRAM FILES (X86)\WINDOWS KITS\10\INCLUDE\10.0.10150.0\UCRT\STDDEF.H
C:\PROGRAM FILES (X86)\WINDOWS KITS\10\INCLUDE\10.0.10150.0\UCRT\CORECRT_WSTDLIB.H
C:\PROGRAM FILES (X86)\MICROSOFT VISUAL STUDIO 14.0\VC\INCLUDE\LIMITS.H
C:\PROGRAM FILES (X86)\WINDOWS KITS\10\INCLUDE\10.0.10150.0\UCRT\STRING.H
C:\PROGRAM FILES (X86)\WINDOWS KITS\10\INCLUDE\10.0.10150.0\UCRT\CORECRT_MEMORY.H
C:\PROGRAM FILES (X86)\WINDOWS KITS\10\INCLUDE\10.0.10150.0\UCRT\CORECRT_MEMCPY_S.H
C:\PROGRAM FILES (X86)\WINDOWS KITS\10\INCLUDE\10.0.10150.0\UCRT\ERRNO.H
C:\PROGRAM FILES (X86)\MICROSOFT VISUAL STUDIO 14.0\VC\INCLUDE\VCRUNTIME_STRING.H
C:\PROGRAM FILES (X86)\WINDOWS KITS\10\INCLUDE\10.0.10150.0\UCRT\CORECRT_WSTRING.H
C:\PROGRAM FILES (X86)\WINDOWS KITS\10\INCLUDE\10.0.10150.0\UCRT\ASSERT.H
C:\PROGRAM FILES (X86)\WINDOWS KITS\10\INCLUDE\10.0.10150.0\UCRT\MATH.H
C:\USERS\ANTONINO\DESKTOP\VULKAN_ENGINE\BULLET3-2.86.1\EXTRAS\CONVEXDECOMPOSITION\FITSPHERE.H
^C:\USERS\ANTONINO\DESKTOP\VULKAN_ENGINE\BULLET3-2.86.1\EXTRAS\CONVEXDECOMPOSITION\MESHVOLUME.CPP
C:\USERS\ANTONINO\DESKTOP\VULKAN_ENGINE\BULLET3-2.86.1\EXTRAS\CONVEXDECOMPOSITION\FLOAT_MATH.H
C:\USERS\ANTONINO\DESKTOP\VULKAN_ENGINE\BULLET3-2.86.1\EXTRAS\CONVEXDECOMPOSITION\MESHVOLUME.H
^C:\USERS\ANTONINO\DESKTOP\VULKAN_ENGINE\BULLET3-2.86.1\EXTRAS\CONVEXDECOMPOSITION\RAYTRI.CPP
C:\USERS\ANTONINO\DESKTOP\VULKAN_ENGINE\BULLET3-2.86.1\EXTRAS\CONVEXDECOMPOSITION\FLOAT_MATH.H
C:\PROGRAM FILES (X86)\WINDOWS KITS\10\INCLUDE\10.0.10150.0\UCRT\STDIO.H
C:\PROGRAM FILES (X86)\WINDOWS KITS\10\INCLUDE\10.0.10150.0\UCRT\CORECRT.H
C:\PROGRAM FILES (X86)\MICROSOFT VISUAL STUDIO 14.0\VC\INCLUDE\VCRUNTIME.H
C:\PROGRAM FILES (X86)\MICROSOFT VISUAL STUDIO 14.0\VC\INCLUDE\SAL.H
C:\PROGRAM FILES (X86)\MICROSOFT VISUAL STUDIO 14.0\VC\INCLUDE\CONCURRENCYSAL.H
C:\PROGRAM FILES (X86)\MICROSOFT VISUAL STUDIO 14.0\VC\INCLUDE\VADEFS.H
C:\PROGRAM FILES (X86)\WINDOWS KITS\10\INCLUDE\10.0.10150.0\UCRT\CORECRT_WSTDIO.H
C:\PROGRAM FILES (X86)\WINDOWS KITS\10\INCLUDE\10.0.10150.0\UCRT\CORECRT_STDIO_CONFIG.H
C:\PROGRAM FILES (X86)\WINDOWS KITS\10\INCLUDE\10.0.10150.0\UCRT\STDLIB.H
C:\PROGRAM FILES (X86)\WINDOWS KITS\10\INCLUDE\10.0.10150.0\UCRT\CORECRT_MALLOC.H
C:\PROGRAM FILES (X86)\WINDOWS KITS\10\INCLUDE\10.0.10150.0\UCRT\CORECRT_SEARCH.H
C:\PROGRAM FILES (X86)\WINDOWS KITS\10\INCLUDE\10.0.10150.0\UCRT\STDDEF.H
C:\PROGRAM FILES (X86)\WINDOWS KITS\10\INCLUDE\10.0.10150.0\UCRT\CORECRT_WSTDLIB.H
C:\PROGRAM FILES (X86)\MICROSOFT VISUAL STUDIO 14.0\VC\INCLUDE\LIMITS.H
C:\PROGRAM FILES (X86)\WINDOWS KITS\10\INCLUDE\10.0.10150.0\UCRT\STRING.H
C:\PROGRAM FILES (X86)\WINDOWS KITS\10\INCLUDE\10.0.10150.0\UCRT\CORECRT_MEMORY.H
C:\PROGRAM FILES (X86)\WINDOWS KITS\10\INCLUDE\10.0.10150.0\UCRT\CORECRT_MEMCPY_S.H
C:\PROGRAM FILES (X86)\WINDOWS KITS\10\INCLUDE\10.0.10150.0\UCRT\ERRNO.H
C:\PROGRAM FILES (X86)\MICROSOFT VISUAL STUDIO 14.0\VC\INCLUDE\VCRUNTIME_STRING.H
C:\PROGRAM FILES (X86)\WINDOWS KITS\10\INCLUDE\10.0.10150.0\UCRT\CORECRT_WSTRING.H
C:\PROGRAM FILES (X86)\WINDOWS KITS\10\INCLUDE\10.0.10150.0\UCRT\ASSERT.H
C:\PROGRAM FILES (X86)\WINDOWS KITS\10\INCLUDE\10.0.10150.0\UCRT\MATH.H
C:\USERS\ANTONINO\DESKTOP\VULKAN_ENGINE\BULLET3-2.86.1\EXTRAS\CONVEXDECOMPOSITION\RAYTRI.H
