^C:\USERS\ANTONINO\DESKTOP\VULKAN_ENGINE\BULLET3-2.86.1\EXAMPLES\BASICDEMO\BASICEXAMPLE.CPP
/c /I..\..\SRC /Zi /nologo /W3 /WX- /Od /Oy- /D _DEBUG=1 /D _MBCS /Gm- /EHsc /RTC1 /MTd /GS /Gy /fp:fast /Zc:wchar_t /Zc:forScope /Zc:inline /Fo"OBJ\X32\DEBUG\APP_BASICEXAMPLE\\" /Fd"..\..\BIN\APP_BASICEXAMPLE_VS2010_DEBUG.PDB" /Gd /TP /analyze- /wd4244 /wd4267  C:\USERS\ANTONINO\DESKTOP\VULKAN_ENGINE\BULLET3-2.86.1\EXAMPLES\BASICDEMO\BASICEXAMPLE.CPP
^C:\USERS\ANTONINO\DESKTOP\VULKAN_ENGINE\BULLET3-2.86.1\EXAMPLES\BASICDEMO\MAIN.CPP
/c /I..\..\SRC /Zi /nologo /W3 /WX- /Od /Oy- /D _DEBUG=1 /D _MBCS /Gm- /EHsc /RTC1 /MTd /GS /Gy /fp:fast /Zc:wchar_t /Zc:forScope /Zc:inline /Fo"OBJ\X32\DEBUG\APP_BASICEXAMPLE\\" /Fd"..\..\BIN\APP_BASICEXAMPLE_VS2010_DEBUG.PDB" /Gd /TP /analyze- /wd4244 /wd4267  C:\USERS\ANTONINO\DESKTOP\VULKAN_ENGINE\BULLET3-2.86.1\EXAMPLES\BASICDEMO\MAIN.CPP
