^C:\USERS\ANTONINO\DESKTOP\VULKAN_ENGINE\BULLET3-2.86.1\EXAMPLES\BASICDEMO\BASICEXAMPLE.CPP|C:\USERS\ANTONINO\DESKTOP\VULKAN_ENGINE\BULLET3-2.86.1\EXAMPLES\BASICDEMO\MAIN.CPP
C:\USERS\ANTONINO\DESKTOP\VULKAN_ENGINE\BULLET3-2.86.1\BUILD3\VS2010\OBJ\X32\DEBUG\APP_BASICEXAMPLE\BASICEXAMPLE.OBJ
C:\USERS\ANTONINO\DESKTOP\VULKAN_ENGINE\BULLET3-2.86.1\BUILD3\VS2010\OBJ\X32\DEBUG\APP_BASICEXAMPLE\MAIN.OBJ
^C:\USERS\ANTONINO\DESKTOP\VULKAN_ENGINE\BULLET3-2.86.1\EXAMPLES\BASICDEMO\BASICEXAMPLE.CPP
C:\USERS\ANTONINO\DESKTOP\VULKAN_ENGINE\BULLET3-2.86.1\BIN\APP_BASICEXAMPLE_VS2010_DEBUG.PDB
^C:\USERS\ANTONINO\DESKTOP\VULKAN_ENGINE\BULLET3-2.86.1\EXAMPLES\BASICDEMO\MAIN.CPP
C:\USERS\ANTONINO\DESKTOP\VULKAN_ENGINE\BULLET3-2.86.1\BIN\APP_BASICEXAMPLE_VS2010_DEBUG.PDB
