^C:\USERS\ANTONINO\DESKTOP\VULKAN_ENGINE\BULLET3-2.86.1\EXAMPLES\SHAREDMEMORY\IKTRAJECTORYHELPER.CPP
/c /I..\..\EXAMPLES\SHAREDMEMORY /I..\..\SRC /I..\..\EXAMPLES\THIRDPARTYLIBS /I..\..\EXAMPLES\THIRDPARTYLIBS\ENET\INCLUDE /Zi /nologo /W3 /WX- /Od /Oy- /D _DEBUG=1 /D NO_SHARED_MEMORY /D WIN32 /D _MBCS /Gm- /EHsc /RTC1 /MTd /GS /Gy /fp:fast /Zc:wchar_t /Zc:forScope /Zc:inline /Fo"OBJ\X32\DEBUG\APP_PHYSICSSERVERUDP\\" /Fd"..\..\BIN\APP_PHYSICSSERVERUDP_VS2010_DEBUG.PDB" /Gd /TP /analyze- /wd4244 /wd4267  C:\USERS\ANTONINO\DESKTOP\VULKAN_ENGINE\BULLET3-2.86.1\EXAMPLES\SHAREDMEMORY\IKTRAJECTORYHELPER.CPP
^C:\USERS\ANTONINO\DESKTOP\VULKAN_ENGINE\BULLET3-2.86.1\EXAMPLES\SHAREDMEMORY\PHYSICSSERVERCOMMANDPROCESSOR.CPP
/c /I..\..\EXAMPLES\SHAREDMEMORY /I..\..\SRC /I..\..\EXAMPLES\THIRDPARTYLIBS /I..\..\EXAMPLES\THIRDPARTYLIBS\ENET\INCLUDE /Zi /nologo /W3 /WX- /Od /Oy- /D _DEBUG=1 /D NO_SHARED_MEMORY /D WIN32 /D _MBCS /Gm- /EHsc /RTC1 /MTd /GS /Gy /fp:fast /Zc:wchar_t /Zc:forScope /Zc:inline /Fo"OBJ\X32\DEBUG\APP_PHYSICSSERVERUDP\\" /Fd"..\..\BIN\APP_PHYSICSSERVERUDP_VS2010_DEBUG.PDB" /Gd /TP /analyze- /wd4244 /wd4267  C:\USERS\ANTONINO\DESKTOP\VULKAN_ENGINE\BULLET3-2.86.1\EXAMPLES\SHAREDMEMORY\PHYSICSSERVERCOMMANDPROCESSOR.CPP
^C:\USERS\ANTONINO\DESKTOP\VULKAN_ENGINE\BULLET3-2.86.1\EXAMPLES\SHAREDMEMORY\TINYRENDERERVISUALSHAPECONVERTER.CPP
/c /I..\..\EXAMPLES\SHAREDMEMORY /I..\..\SRC /I..\..\EXAMPLES\THIRDPARTYLIBS /I..\..\EXAMPLES\THIRDPARTYLIBS\ENET\INCLUDE /Zi /nologo /W3 /WX- /Od /Oy- /D _DEBUG=1 /D NO_SHARED_MEMORY /D WIN32 /D _MBCS /Gm- /EHsc /RTC1 /MTd /GS /Gy /fp:fast /Zc:wchar_t /Zc:forScope /Zc:inline /Fo"OBJ\X32\DEBUG\APP_PHYSICSSERVERUDP\\" /Fd"..\..\BIN\APP_PHYSICSSERVERUDP_VS2010_DEBUG.PDB" /Gd /TP /analyze- /wd4244 /wd4267  C:\USERS\ANTONINO\DESKTOP\VULKAN_ENGINE\BULLET3-2.86.1\EXAMPLES\SHAREDMEMORY\TINYRENDERERVISUALSHAPECONVERTER.CPP
^C:\USERS\ANTONINO\DESKTOP\VULKAN_ENGINE\BULLET3-2.86.1\EXAMPLES\TINYRENDERER\GEOMETRY.CPP
/c /I..\..\EXAMPLES\SHAREDMEMORY /I..\..\SRC /I..\..\EXAMPLES\THIRDPARTYLIBS /I..\..\EXAMPLES\THIRDPARTYLIBS\ENET\INCLUDE /Zi /nologo /W3 /WX- /Od /Oy- /D _DEBUG=1 /D NO_SHARED_MEMORY /D WIN32 /D _MBCS /Gm- /EHsc /RTC1 /MTd /GS /Gy /fp:fast /Zc:wchar_t /Zc:forScope /Zc:inline /Fo"OBJ\X32\DEBUG\APP_PHYSICSSERVERUDP\\" /Fd"..\..\BIN\APP_PHYSICSSERVERUDP_VS2010_DEBUG.PDB" /Gd /TP /analyze- /wd4244 /wd4267  C:\USERS\ANTONINO\DESKTOP\VULKAN_ENGINE\BULLET3-2.86.1\EXAMPLES\TINYRENDERER\GEOMETRY.CPP
^C:\USERS\ANTONINO\DESKTOP\VULKAN_ENGINE\BULLET3-2.86.1\EXAMPLES\TINYRENDERER\MODEL.CPP
/c /I..\..\EXAMPLES\SHAREDMEMORY /I..\..\SRC /I..\..\EXAMPLES\THIRDPARTYLIBS /I..\..\EXAMPLES\THIRDPARTYLIBS\ENET\INCLUDE /Zi /nologo /W3 /WX- /Od /Oy- /D _DEBUG=1 /D NO_SHARED_MEMORY /D WIN32 /D _MBCS /Gm- /EHsc /RTC1 /MTd /GS /Gy /fp:fast /Zc:wchar_t /Zc:forScope /Zc:inline /Fo"OBJ\X32\DEBUG\APP_PHYSICSSERVERUDP\\" /Fd"..\..\BIN\APP_PHYSICSSERVERUDP_VS2010_DEBUG.PDB" /Gd /TP /analyze- /wd4244 /wd4267  C:\USERS\ANTONINO\DESKTOP\VULKAN_ENGINE\BULLET3-2.86.1\EXAMPLES\TINYRENDERER\MODEL.CPP
^C:\USERS\ANTONINO\DESKTOP\VULKAN_ENGINE\BULLET3-2.86.1\EXAMPLES\TINYRENDERER\TGAIMAGE.CPP
/c /I..\..\EXAMPLES\SHAREDMEMORY /I..\..\SRC /I..\..\EXAMPLES\THIRDPARTYLIBS /I..\..\EXAMPLES\THIRDPARTYLIBS\ENET\INCLUDE /Zi /nologo /W3 /WX- /Od /Oy- /D _DEBUG=1 /D NO_SHARED_MEMORY /D WIN32 /D _MBCS /Gm- /EHsc /RTC1 /MTd /GS /Gy /fp:fast /Zc:wchar_t /Zc:forScope /Zc:inline /Fo"OBJ\X32\DEBUG\APP_PHYSICSSERVERUDP\\" /Fd"..\..\BIN\APP_PHYSICSSERVERUDP_VS2010_DEBUG.PDB" /Gd /TP /analyze- /wd4244 /wd4267  C:\USERS\ANTONINO\DESKTOP\VULKAN_ENGINE\BULLET3-2.86.1\EXAMPLES\TINYRENDERER\TGAIMAGE.CPP
^C:\USERS\ANTONINO\DESKTOP\VULKAN_ENGINE\BULLET3-2.86.1\EXAMPLES\TINYRENDERER\OUR_GL.CPP
/c /I..\..\EXAMPLES\SHAREDMEMORY /I..\..\SRC /I..\..\EXAMPLES\THIRDPARTYLIBS /I..\..\EXAMPLES\THIRDPARTYLIBS\ENET\INCLUDE /Zi /nologo /W3 /WX- /Od /Oy- /D _DEBUG=1 /D NO_SHARED_MEMORY /D WIN32 /D _MBCS /Gm- /EHsc /RTC1 /MTd /GS /Gy /fp:fast /Zc:wchar_t /Zc:forScope /Zc:inline /Fo"OBJ\X32\DEBUG\APP_PHYSICSSERVERUDP\\" /Fd"..\..\BIN\APP_PHYSICSSERVERUDP_VS2010_DEBUG.PDB" /Gd /TP /analyze- /wd4244 /wd4267  C:\USERS\ANTONINO\DESKTOP\VULKAN_ENGINE\BULLET3-2.86.1\EXAMPLES\TINYRENDERER\OUR_GL.CPP
^C:\USERS\ANTONINO\DESKTOP\VULKAN_ENGINE\BULLET3-2.86.1\EXAMPLES\TINYRENDERER\TINYRENDERER.CPP
/c /I..\..\EXAMPLES\SHAREDMEMORY /I..\..\SRC /I..\..\EXAMPLES\THIRDPARTYLIBS /I..\..\EXAMPLES\THIRDPARTYLIBS\ENET\INCLUDE /Zi /nologo /W3 /WX- /Od /Oy- /D _DEBUG=1 /D NO_SHARED_MEMORY /D WIN32 /D _MBCS /Gm- /EHsc /RTC1 /MTd /GS /Gy /fp:fast /Zc:wchar_t /Zc:forScope /Zc:inline /Fo"OBJ\X32\DEBUG\APP_PHYSICSSERVERUDP\\" /Fd"..\..\BIN\APP_PHYSICSSERVERUDP_VS2010_DEBUG.PDB" /Gd /TP /analyze- /wd4244 /wd4267  C:\USERS\ANTONINO\DESKTOP\VULKAN_ENGINE\BULLET3-2.86.1\EXAMPLES\TINYRENDERER\TINYRENDERER.CPP
^C:\USERS\ANTONINO\DESKTOP\VULKAN_ENGINE\BULLET3-2.86.1\EXAMPLES\OPENGLWINDOW\SIMPLECAMERA.CPP
/c /I..\..\EXAMPLES\SHAREDMEMORY /I..\..\SRC /I..\..\EXAMPLES\THIRDPARTYLIBS /I..\..\EXAMPLES\THIRDPARTYLIBS\ENET\INCLUDE /Zi /nologo /W3 /WX- /Od /Oy- /D _DEBUG=1 /D NO_SHARED_MEMORY /D WIN32 /D _MBCS /Gm- /EHsc /RTC1 /MTd /GS /Gy /fp:fast /Zc:wchar_t /Zc:forScope /Zc:inline /Fo"OBJ\X32\DEBUG\APP_PHYSICSSERVERUDP\\" /Fd"..\..\BIN\APP_PHYSICSSERVERUDP_VS2010_DEBUG.PDB" /Gd /TP /analyze- /wd4244 /wd4267  C:\USERS\ANTONINO\DESKTOP\VULKAN_ENGINE\BULLET3-2.86.1\EXAMPLES\OPENGLWINDOW\SIMPLECAMERA.CPP
^C:\USERS\ANTONINO\DESKTOP\VULKAN_ENGINE\BULLET3-2.86.1\EXAMPLES\IMPORTERS\IMPORTURDFDEMO\MYMULTIBODYCREATOR.CPP
/c /I..\..\EXAMPLES\SHAREDMEMORY /I..\..\SRC /I..\..\EXAMPLES\THIRDPARTYLIBS /I..\..\EXAMPLES\THIRDPARTYLIBS\ENET\INCLUDE /Zi /nologo /W3 /WX- /Od /Oy- /D _DEBUG=1 /D NO_SHARED_MEMORY /D WIN32 /D _MBCS /Gm- /EHsc /RTC1 /MTd /GS /Gy /fp:fast /Zc:wchar_t /Zc:forScope /Zc:inline /Fo"OBJ\X32\DEBUG\APP_PHYSICSSERVERUDP\\" /Fd"..\..\BIN\APP_PHYSICSSERVERUDP_VS2010_DEBUG.PDB" /Gd /TP /analyze- /wd4244 /wd4267  C:\USERS\ANTONINO\DESKTOP\VULKAN_ENGINE\BULLET3-2.86.1\EXAMPLES\IMPORTERS\IMPORTURDFDEMO\MYMULTIBODYCREATOR.CPP
^C:\USERS\ANTONINO\DESKTOP\VULKAN_ENGINE\BULLET3-2.86.1\EXAMPLES\IMPORTERS\IMPORTMJCFDEMO\BULLETMJCFIMPORTER.CPP
/c /I..\..\EXAMPLES\SHAREDMEMORY /I..\..\SRC /I..\..\EXAMPLES\THIRDPARTYLIBS /I..\..\EXAMPLES\THIRDPARTYLIBS\ENET\INCLUDE /Zi /nologo /W3 /WX- /Od /Oy- /D _DEBUG=1 /D NO_SHARED_MEMORY /D WIN32 /D _MBCS /Gm- /EHsc /RTC1 /MTd /GS /Gy /fp:fast /Zc:wchar_t /Zc:forScope /Zc:inline /Fo"OBJ\X32\DEBUG\APP_PHYSICSSERVERUDP\\" /Fd"..\..\BIN\APP_PHYSICSSERVERUDP_VS2010_DEBUG.PDB" /Gd /TP /analyze- /wd4244 /wd4267  C:\USERS\ANTONINO\DESKTOP\VULKAN_ENGINE\BULLET3-2.86.1\EXAMPLES\IMPORTERS\IMPORTMJCFDEMO\BULLETMJCFIMPORTER.CPP
^C:\USERS\ANTONINO\DESKTOP\VULKAN_ENGINE\BULLET3-2.86.1\EXAMPLES\IMPORTERS\IMPORTURDFDEMO\BULLETURDFIMPORTER.CPP
/c /I..\..\EXAMPLES\SHAREDMEMORY /I..\..\SRC /I..\..\EXAMPLES\THIRDPARTYLIBS /I..\..\EXAMPLES\THIRDPARTYLIBS\ENET\INCLUDE /Zi /nologo /W3 /WX- /Od /Oy- /D _DEBUG=1 /D NO_SHARED_MEMORY /D WIN32 /D _MBCS /Gm- /EHsc /RTC1 /MTd /GS /Gy /fp:fast /Zc:wchar_t /Zc:forScope /Zc:inline /Fo"OBJ\X32\DEBUG\APP_PHYSICSSERVERUDP\\" /Fd"..\..\BIN\APP_PHYSICSSERVERUDP_VS2010_DEBUG.PDB" /Gd /TP /analyze- /wd4244 /wd4267  C:\USERS\ANTONINO\DESKTOP\VULKAN_ENGINE\BULLET3-2.86.1\EXAMPLES\IMPORTERS\IMPORTURDFDEMO\BULLETURDFIMPORTER.CPP
^C:\USERS\ANTONINO\DESKTOP\VULKAN_ENGINE\BULLET3-2.86.1\EXAMPLES\IMPORTERS\IMPORTURDFDEMO\URDFPARSER.CPP
/c /I..\..\EXAMPLES\SHAREDMEMORY /I..\..\SRC /I..\..\EXAMPLES\THIRDPARTYLIBS /I..\..\EXAMPLES\THIRDPARTYLIBS\ENET\INCLUDE /Zi /nologo /W3 /WX- /Od /Oy- /D _DEBUG=1 /D NO_SHARED_MEMORY /D WIN32 /D _MBCS /Gm- /EHsc /RTC1 /MTd /GS /Gy /fp:fast /Zc:wchar_t /Zc:forScope /Zc:inline /Fo"OBJ\X32\DEBUG\APP_PHYSICSSERVERUDP\\" /Fd"..\..\BIN\APP_PHYSICSSERVERUDP_VS2010_DEBUG.PDB" /Gd /TP /analyze- /wd4244 /wd4267  C:\USERS\ANTONINO\DESKTOP\VULKAN_ENGINE\BULLET3-2.86.1\EXAMPLES\IMPORTERS\IMPORTURDFDEMO\URDFPARSER.CPP
^C:\USERS\ANTONINO\DESKTOP\VULKAN_ENGINE\BULLET3-2.86.1\EXAMPLES\IMPORTERS\IMPORTURDFDEMO\URDFSTRINGSPLIT.CPP
/c /I..\..\EXAMPLES\SHAREDMEMORY /I..\..\SRC /I..\..\EXAMPLES\THIRDPARTYLIBS /I..\..\EXAMPLES\THIRDPARTYLIBS\ENET\INCLUDE /Zi /nologo /W3 /WX- /Od /Oy- /D _DEBUG=1 /D NO_SHARED_MEMORY /D WIN32 /D _MBCS /Gm- /EHsc /RTC1 /MTd /GS /Gy /fp:fast /Zc:wchar_t /Zc:forScope /Zc:inline /Fo"OBJ\X32\DEBUG\APP_PHYSICSSERVERUDP\\" /Fd"..\..\BIN\APP_PHYSICSSERVERUDP_VS2010_DEBUG.PDB" /Gd /TP /analyze- /wd4244 /wd4267  C:\USERS\ANTONINO\DESKTOP\VULKAN_ENGINE\BULLET3-2.86.1\EXAMPLES\IMPORTERS\IMPORTURDFDEMO\URDFSTRINGSPLIT.CPP
^C:\USERS\ANTONINO\DESKTOP\VULKAN_ENGINE\BULLET3-2.86.1\EXAMPLES\IMPORTERS\IMPORTURDFDEMO\URDF2BULLET.CPP
/c /I..\..\EXAMPLES\SHAREDMEMORY /I..\..\SRC /I..\..\EXAMPLES\THIRDPARTYLIBS /I..\..\EXAMPLES\THIRDPARTYLIBS\ENET\INCLUDE /Zi /nologo /W3 /WX- /Od /Oy- /D _DEBUG=1 /D NO_SHARED_MEMORY /D WIN32 /D _MBCS /Gm- /EHsc /RTC1 /MTd /GS /Gy /fp:fast /Zc:wchar_t /Zc:forScope /Zc:inline /Fo"OBJ\X32\DEBUG\APP_PHYSICSSERVERUDP\\" /Fd"..\..\BIN\APP_PHYSICSSERVERUDP_VS2010_DEBUG.PDB" /Gd /TP /analyze- /wd4244 /wd4267  C:\USERS\ANTONINO\DESKTOP\VULKAN_ENGINE\BULLET3-2.86.1\EXAMPLES\IMPORTERS\IMPORTURDFDEMO\URDF2BULLET.CPP
^C:\USERS\ANTONINO\DESKTOP\VULKAN_ENGINE\BULLET3-2.86.1\EXAMPLES\UTILS\B3RESOURCEPATH.CPP
/c /I..\..\EXAMPLES\SHAREDMEMORY /I..\..\SRC /I..\..\EXAMPLES\THIRDPARTYLIBS /I..\..\EXAMPLES\THIRDPARTYLIBS\ENET\INCLUDE /Zi /nologo /W3 /WX- /Od /Oy- /D _DEBUG=1 /D NO_SHARED_MEMORY /D WIN32 /D _MBCS /Gm- /EHsc /RTC1 /MTd /GS /Gy /fp:fast /Zc:wchar_t /Zc:forScope /Zc:inline /Fo"OBJ\X32\DEBUG\APP_PHYSICSSERVERUDP\\" /Fd"..\..\BIN\APP_PHYSICSSERVERUDP_VS2010_DEBUG.PDB" /Gd /TP /analyze- /wd4244 /wd4267  C:\USERS\ANTONINO\DESKTOP\VULKAN_ENGINE\BULLET3-2.86.1\EXAMPLES\UTILS\B3RESOURCEPATH.CPP
^C:\USERS\ANTONINO\DESKTOP\VULKAN_ENGINE\BULLET3-2.86.1\EXAMPLES\UTILS\B3CLOCK.CPP
/c /I..\..\EXAMPLES\SHAREDMEMORY /I..\..\SRC /I..\..\EXAMPLES\THIRDPARTYLIBS /I..\..\EXAMPLES\THIRDPARTYLIBS\ENET\INCLUDE /Zi /nologo /W3 /WX- /Od /Oy- /D _DEBUG=1 /D NO_SHARED_MEMORY /D WIN32 /D _MBCS /Gm- /EHsc /RTC1 /MTd /GS /Gy /fp:fast /Zc:wchar_t /Zc:forScope /Zc:inline /Fo"OBJ\X32\DEBUG\APP_PHYSICSSERVERUDP\\" /Fd"..\..\BIN\APP_PHYSICSSERVERUDP_VS2010_DEBUG.PDB" /Gd /TP /analyze- /wd4244 /wd4267  C:\USERS\ANTONINO\DESKTOP\VULKAN_ENGINE\BULLET3-2.86.1\EXAMPLES\UTILS\B3CLOCK.CPP
^C:\USERS\ANTONINO\DESKTOP\VULKAN_ENGINE\BULLET3-2.86.1\EXAMPLES\UTILS\ROBOTLOGGINGUTIL.CPP
/c /I..\..\EXAMPLES\SHAREDMEMORY /I..\..\SRC /I..\..\EXAMPLES\THIRDPARTYLIBS /I..\..\EXAMPLES\THIRDPARTYLIBS\ENET\INCLUDE /Zi /nologo /W3 /WX- /Od /Oy- /D _DEBUG=1 /D NO_SHARED_MEMORY /D WIN32 /D _MBCS /Gm- /EHsc /RTC1 /MTd /GS /Gy /fp:fast /Zc:wchar_t /Zc:forScope /Zc:inline /Fo"OBJ\X32\DEBUG\APP_PHYSICSSERVERUDP\\" /Fd"..\..\BIN\APP_PHYSICSSERVERUDP_VS2010_DEBUG.PDB" /Gd /TP /analyze- /wd4244 /wd4267  C:\USERS\ANTONINO\DESKTOP\VULKAN_ENGINE\BULLET3-2.86.1\EXAMPLES\UTILS\ROBOTLOGGINGUTIL.CPP
^C:\USERS\ANTONINO\DESKTOP\VULKAN_ENGINE\BULLET3-2.86.1\EXTRAS\SERIALIZE\BULLETWORLDIMPORTER\BTBULLETWORLDIMPORTER.CPP
/c /I..\..\EXAMPLES\SHAREDMEMORY /I..\..\SRC /I..\..\EXAMPLES\THIRDPARTYLIBS /I..\..\EXAMPLES\THIRDPARTYLIBS\ENET\INCLUDE /Zi /nologo /W3 /WX- /Od /Oy- /D _DEBUG=1 /D NO_SHARED_MEMORY /D WIN32 /D _MBCS /Gm- /EHsc /RTC1 /MTd /GS /Gy /fp:fast /Zc:wchar_t /Zc:forScope /Zc:inline /Fo"OBJ\X32\DEBUG\APP_PHYSICSSERVERUDP\\" /Fd"..\..\BIN\APP_PHYSICSSERVERUDP_VS2010_DEBUG.PDB" /Gd /TP /analyze- /wd4244 /wd4267  C:\USERS\ANTONINO\DESKTOP\VULKAN_ENGINE\BULLET3-2.86.1\EXTRAS\SERIALIZE\BULLETWORLDIMPORTER\BTBULLETWORLDIMPORTER.CPP
^C:\USERS\ANTONINO\DESKTOP\VULKAN_ENGINE\BULLET3-2.86.1\EXTRAS\SERIALIZE\BULLETWORLDIMPORTER\BTWORLDIMPORTER.CPP
/c /I..\..\EXAMPLES\SHAREDMEMORY /I..\..\SRC /I..\..\EXAMPLES\THIRDPARTYLIBS /I..\..\EXAMPLES\THIRDPARTYLIBS\ENET\INCLUDE /Zi /nologo /W3 /WX- /Od /Oy- /D _DEBUG=1 /D NO_SHARED_MEMORY /D WIN32 /D _MBCS /Gm- /EHsc /RTC1 /MTd /GS /Gy /fp:fast /Zc:wchar_t /Zc:forScope /Zc:inline /Fo"OBJ\X32\DEBUG\APP_PHYSICSSERVERUDP\\" /Fd"..\..\BIN\APP_PHYSICSSERVERUDP_VS2010_DEBUG.PDB" /Gd /TP /analyze- /wd4244 /wd4267  C:\USERS\ANTONINO\DESKTOP\VULKAN_ENGINE\BULLET3-2.86.1\EXTRAS\SERIALIZE\BULLETWORLDIMPORTER\BTWORLDIMPORTER.CPP
^C:\USERS\ANTONINO\DESKTOP\VULKAN_ENGINE\BULLET3-2.86.1\EXTRAS\SERIALIZE\BULLETFILELOADER\BCHUNK.CPP
/c /I..\..\EXAMPLES\SHAREDMEMORY /I..\..\SRC /I..\..\EXAMPLES\THIRDPARTYLIBS /I..\..\EXAMPLES\THIRDPARTYLIBS\ENET\INCLUDE /Zi /nologo /W3 /WX- /Od /Oy- /D _DEBUG=1 /D NO_SHARED_MEMORY /D WIN32 /D _MBCS /Gm- /EHsc /RTC1 /MTd /GS /Gy /fp:fast /Zc:wchar_t /Zc:forScope /Zc:inline /Fo"OBJ\X32\DEBUG\APP_PHYSICSSERVERUDP\\" /Fd"..\..\BIN\APP_PHYSICSSERVERUDP_VS2010_DEBUG.PDB" /Gd /TP /analyze- /wd4244 /wd4267  C:\USERS\ANTONINO\DESKTOP\VULKAN_ENGINE\BULLET3-2.86.1\EXTRAS\SERIALIZE\BULLETFILELOADER\BCHUNK.CPP
^C:\USERS\ANTONINO\DESKTOP\VULKAN_ENGINE\BULLET3-2.86.1\EXTRAS\SERIALIZE\BULLETFILELOADER\BDNA.CPP
/c /I..\..\EXAMPLES\SHAREDMEMORY /I..\..\SRC /I..\..\EXAMPLES\THIRDPARTYLIBS /I..\..\EXAMPLES\THIRDPARTYLIBS\ENET\INCLUDE /Zi /nologo /W3 /WX- /Od /Oy- /D _DEBUG=1 /D NO_SHARED_MEMORY /D WIN32 /D _MBCS /Gm- /EHsc /RTC1 /MTd /GS /Gy /fp:fast /Zc:wchar_t /Zc:forScope /Zc:inline /Fo"OBJ\X32\DEBUG\APP_PHYSICSSERVERUDP\\" /Fd"..\..\BIN\APP_PHYSICSSERVERUDP_VS2010_DEBUG.PDB" /Gd /TP /analyze- /wd4244 /wd4267  C:\USERS\ANTONINO\DESKTOP\VULKAN_ENGINE\BULLET3-2.86.1\EXTRAS\SERIALIZE\BULLETFILELOADER\BDNA.CPP
^C:\USERS\ANTONINO\DESKTOP\VULKAN_ENGINE\BULLET3-2.86.1\EXTRAS\SERIALIZE\BULLETFILELOADER\BFILE.CPP
/c /I..\..\EXAMPLES\SHAREDMEMORY /I..\..\SRC /I..\..\EXAMPLES\THIRDPARTYLIBS /I..\..\EXAMPLES\THIRDPARTYLIBS\ENET\INCLUDE /Zi /nologo /W3 /WX- /Od /Oy- /D _DEBUG=1 /D NO_SHARED_MEMORY /D WIN32 /D _MBCS /Gm- /EHsc /RTC1 /MTd /GS /Gy /fp:fast /Zc:wchar_t /Zc:forScope /Zc:inline /Fo"OBJ\X32\DEBUG\APP_PHYSICSSERVERUDP\\" /Fd"..\..\BIN\APP_PHYSICSSERVERUDP_VS2010_DEBUG.PDB" /Gd /TP /analyze- /wd4244 /wd4267  C:\USERS\ANTONINO\DESKTOP\VULKAN_ENGINE\BULLET3-2.86.1\EXTRAS\SERIALIZE\BULLETFILELOADER\BFILE.CPP
^C:\USERS\ANTONINO\DESKTOP\VULKAN_ENGINE\BULLET3-2.86.1\EXTRAS\SERIALIZE\BULLETFILELOADER\BTBULLETFILE.CPP
/c /I..\..\EXAMPLES\SHAREDMEMORY /I..\..\SRC /I..\..\EXAMPLES\THIRDPARTYLIBS /I..\..\EXAMPLES\THIRDPARTYLIBS\ENET\INCLUDE /Zi /nologo /W3 /WX- /Od /Oy- /D _DEBUG=1 /D NO_SHARED_MEMORY /D WIN32 /D _MBCS /Gm- /EHsc /RTC1 /MTd /GS /Gy /fp:fast /Zc:wchar_t /Zc:forScope /Zc:inline /Fo"OBJ\X32\DEBUG\APP_PHYSICSSERVERUDP\\" /Fd"..\..\BIN\APP_PHYSICSSERVERUDP_VS2010_DEBUG.PDB" /Gd /TP /analyze- /wd4244 /wd4267  C:\USERS\ANTONINO\DESKTOP\VULKAN_ENGINE\BULLET3-2.86.1\EXTRAS\SERIALIZE\BULLETFILELOADER\BTBULLETFILE.CPP
^C:\USERS\ANTONINO\DESKTOP\VULKAN_ENGINE\BULLET3-2.86.1\EXAMPLES\IMPORTERS\IMPORTOBJDEMO\WAVEFRONT2GLINSTANCEGRAPHICSSHAPE.CPP
/c /I..\..\EXAMPLES\SHAREDMEMORY /I..\..\SRC /I..\..\EXAMPLES\THIRDPARTYLIBS /I..\..\EXAMPLES\THIRDPARTYLIBS\ENET\INCLUDE /Zi /nologo /W3 /WX- /Od /Oy- /D _DEBUG=1 /D NO_SHARED_MEMORY /D WIN32 /D _MBCS /Gm- /EHsc /RTC1 /MTd /GS /Gy /fp:fast /Zc:wchar_t /Zc:forScope /Zc:inline /Fo"OBJ\X32\DEBUG\APP_PHYSICSSERVERUDP\\" /Fd"..\..\BIN\APP_PHYSICSSERVERUDP_VS2010_DEBUG.PDB" /Gd /TP /analyze- /wd4244 /wd4267  C:\USERS\ANTONINO\DESKTOP\VULKAN_ENGINE\BULLET3-2.86.1\EXAMPLES\IMPORTERS\IMPORTOBJDEMO\WAVEFRONT2GLINSTANCEGRAPHICSSHAPE.CPP
^C:\USERS\ANTONINO\DESKTOP\VULKAN_ENGINE\BULLET3-2.86.1\EXAMPLES\IMPORTERS\IMPORTOBJDEMO\LOADMESHFROMOBJ.CPP
/c /I..\..\EXAMPLES\SHAREDMEMORY /I..\..\SRC /I..\..\EXAMPLES\THIRDPARTYLIBS /I..\..\EXAMPLES\THIRDPARTYLIBS\ENET\INCLUDE /Zi /nologo /W3 /WX- /Od /Oy- /D _DEBUG=1 /D NO_SHARED_MEMORY /D WIN32 /D _MBCS /Gm- /EHsc /RTC1 /MTd /GS /Gy /fp:fast /Zc:wchar_t /Zc:forScope /Zc:inline /Fo"OBJ\X32\DEBUG\APP_PHYSICSSERVERUDP\\" /Fd"..\..\BIN\APP_PHYSICSSERVERUDP_VS2010_DEBUG.PDB" /Gd /TP /analyze- /wd4244 /wd4267  C:\USERS\ANTONINO\DESKTOP\VULKAN_ENGINE\BULLET3-2.86.1\EXAMPLES\IMPORTERS\IMPORTOBJDEMO\LOADMESHFROMOBJ.CPP
^C:\USERS\ANTONINO\DESKTOP\VULKAN_ENGINE\BULLET3-2.86.1\EXAMPLES\IMPORTERS\IMPORTCOLLADADEMO\LOADMESHFROMCOLLADA.CPP
/c /I..\..\EXAMPLES\SHAREDMEMORY /I..\..\SRC /I..\..\EXAMPLES\THIRDPARTYLIBS /I..\..\EXAMPLES\THIRDPARTYLIBS\ENET\INCLUDE /Zi /nologo /W3 /WX- /Od /Oy- /D _DEBUG=1 /D NO_SHARED_MEMORY /D WIN32 /D _MBCS /Gm- /EHsc /RTC1 /MTd /GS /Gy /fp:fast /Zc:wchar_t /Zc:forScope /Zc:inline /Fo"OBJ\X32\DEBUG\APP_PHYSICSSERVERUDP\\" /Fd"..\..\BIN\APP_PHYSICSSERVERUDP_VS2010_DEBUG.PDB" /Gd /TP /analyze- /wd4244 /wd4267  C:\USERS\ANTONINO\DESKTOP\VULKAN_ENGINE\BULLET3-2.86.1\EXAMPLES\IMPORTERS\IMPORTCOLLADADEMO\LOADMESHFROMCOLLADA.CPP
^C:\USERS\ANTONINO\DESKTOP\VULKAN_ENGINE\BULLET3-2.86.1\EXAMPLES\THIRDPARTYLIBS\WAVEFRONT\TINY_OBJ_LOADER.CPP
/c /I..\..\EXAMPLES\SHAREDMEMORY /I..\..\SRC /I..\..\EXAMPLES\THIRDPARTYLIBS /I..\..\EXAMPLES\THIRDPARTYLIBS\ENET\INCLUDE /Zi /nologo /W3 /WX- /Od /Oy- /D _DEBUG=1 /D NO_SHARED_MEMORY /D WIN32 /D _MBCS /Gm- /EHsc /RTC1 /MTd /GS /Gy /fp:fast /Zc:wchar_t /Zc:forScope /Zc:inline /Fo"OBJ\X32\DEBUG\APP_PHYSICSSERVERUDP\\" /Fd"..\..\BIN\APP_PHYSICSSERVERUDP_VS2010_DEBUG.PDB" /Gd /TP /analyze- /wd4244 /wd4267  C:\USERS\ANTONINO\DESKTOP\VULKAN_ENGINE\BULLET3-2.86.1\EXAMPLES\THIRDPARTYLIBS\WAVEFRONT\TINY_OBJ_LOADER.CPP
^C:\USERS\ANTONINO\DESKTOP\VULKAN_ENGINE\BULLET3-2.86.1\EXAMPLES\THIRDPARTYLIBS\TINYXML\TINYSTR.CPP
/c /I..\..\EXAMPLES\SHAREDMEMORY /I..\..\SRC /I..\..\EXAMPLES\THIRDPARTYLIBS /I..\..\EXAMPLES\THIRDPARTYLIBS\ENET\INCLUDE /Zi /nologo /W3 /WX- /Od /Oy- /D _DEBUG=1 /D NO_SHARED_MEMORY /D WIN32 /D _MBCS /Gm- /EHsc /RTC1 /MTd /GS /Gy /fp:fast /Zc:wchar_t /Zc:forScope /Zc:inline /Fo"OBJ\X32\DEBUG\APP_PHYSICSSERVERUDP\\" /Fd"..\..\BIN\APP_PHYSICSSERVERUDP_VS2010_DEBUG.PDB" /Gd /TP /analyze- /wd4244 /wd4267  C:\USERS\ANTONINO\DESKTOP\VULKAN_ENGINE\BULLET3-2.86.1\EXAMPLES\THIRDPARTYLIBS\TINYXML\TINYSTR.CPP
^C:\USERS\ANTONINO\DESKTOP\VULKAN_ENGINE\BULLET3-2.86.1\EXAMPLES\THIRDPARTYLIBS\TINYXML\TINYXML.CPP
/c /I..\..\EXAMPLES\SHAREDMEMORY /I..\..\SRC /I..\..\EXAMPLES\THIRDPARTYLIBS /I..\..\EXAMPLES\THIRDPARTYLIBS\ENET\INCLUDE /Zi /nologo /W3 /WX- /Od /Oy- /D _DEBUG=1 /D NO_SHARED_MEMORY /D WIN32 /D _MBCS /Gm- /EHsc /RTC1 /MTd /GS /Gy /fp:fast /Zc:wchar_t /Zc:forScope /Zc:inline /Fo"OBJ\X32\DEBUG\APP_PHYSICSSERVERUDP\\" /Fd"..\..\BIN\APP_PHYSICSSERVERUDP_VS2010_DEBUG.PDB" /Gd /TP /analyze- /wd4244 /wd4267  C:\USERS\ANTONINO\DESKTOP\VULKAN_ENGINE\BULLET3-2.86.1\EXAMPLES\THIRDPARTYLIBS\TINYXML\TINYXML.CPP
^C:\USERS\ANTONINO\DESKTOP\VULKAN_ENGINE\BULLET3-2.86.1\EXAMPLES\THIRDPARTYLIBS\TINYXML\TINYXMLERROR.CPP
/c /I..\..\EXAMPLES\SHAREDMEMORY /I..\..\SRC /I..\..\EXAMPLES\THIRDPARTYLIBS /I..\..\EXAMPLES\THIRDPARTYLIBS\ENET\INCLUDE /Zi /nologo /W3 /WX- /Od /Oy- /D _DEBUG=1 /D NO_SHARED_MEMORY /D WIN32 /D _MBCS /Gm- /EHsc /RTC1 /MTd /GS /Gy /fp:fast /Zc:wchar_t /Zc:forScope /Zc:inline /Fo"OBJ\X32\DEBUG\APP_PHYSICSSERVERUDP\\" /Fd"..\..\BIN\APP_PHYSICSSERVERUDP_VS2010_DEBUG.PDB" /Gd /TP /analyze- /wd4244 /wd4267  C:\USERS\ANTONINO\DESKTOP\VULKAN_ENGINE\BULLET3-2.86.1\EXAMPLES\THIRDPARTYLIBS\TINYXML\TINYXMLERROR.CPP
^C:\USERS\ANTONINO\DESKTOP\VULKAN_ENGINE\BULLET3-2.86.1\EXAMPLES\THIRDPARTYLIBS\TINYXML\TINYXMLPARSER.CPP
/c /I..\..\EXAMPLES\SHAREDMEMORY /I..\..\SRC /I..\..\EXAMPLES\THIRDPARTYLIBS /I..\..\EXAMPLES\THIRDPARTYLIBS\ENET\INCLUDE /Zi /nologo /W3 /WX- /Od /Oy- /D _DEBUG=1 /D NO_SHARED_MEMORY /D WIN32 /D _MBCS /Gm- /EHsc /RTC1 /MTd /GS /Gy /fp:fast /Zc:wchar_t /Zc:forScope /Zc:inline /Fo"OBJ\X32\DEBUG\APP_PHYSICSSERVERUDP\\" /Fd"..\..\BIN\APP_PHYSICSSERVERUDP_VS2010_DEBUG.PDB" /Gd /TP /analyze- /wd4244 /wd4267  C:\USERS\ANTONINO\DESKTOP\VULKAN_ENGINE\BULLET3-2.86.1\EXAMPLES\THIRDPARTYLIBS\TINYXML\TINYXMLPARSER.CPP
^C:\USERS\ANTONINO\DESKTOP\VULKAN_ENGINE\BULLET3-2.86.1\EXAMPLES\IMPORTERS\IMPORTMESHUTILITY\B3IMPORTMESHUTILITY.CPP
/c /I..\..\EXAMPLES\SHAREDMEMORY /I..\..\SRC /I..\..\EXAMPLES\THIRDPARTYLIBS /I..\..\EXAMPLES\THIRDPARTYLIBS\ENET\INCLUDE /Zi /nologo /W3 /WX- /Od /Oy- /D _DEBUG=1 /D NO_SHARED_MEMORY /D WIN32 /D _MBCS /Gm- /EHsc /RTC1 /MTd /GS /Gy /fp:fast /Zc:wchar_t /Zc:forScope /Zc:inline /Fo"OBJ\X32\DEBUG\APP_PHYSICSSERVERUDP\\" /Fd"..\..\BIN\APP_PHYSICSSERVERUDP_VS2010_DEBUG.PDB" /Gd /TP /analyze- /wd4244 /wd4267  C:\USERS\ANTONINO\DESKTOP\VULKAN_ENGINE\BULLET3-2.86.1\EXAMPLES\IMPORTERS\IMPORTMESHUTILITY\B3IMPORTMESHUTILITY.CPP
^C:\USERS\ANTONINO\DESKTOP\VULKAN_ENGINE\BULLET3-2.86.1\EXAMPLES\THIRDPARTYLIBS\STB_IMAGE\STB_IMAGE.CPP
/c /I..\..\EXAMPLES\SHAREDMEMORY /I..\..\SRC /I..\..\EXAMPLES\THIRDPARTYLIBS /I..\..\EXAMPLES\THIRDPARTYLIBS\ENET\INCLUDE /Zi /nologo /W3 /WX- /Od /Oy- /D _DEBUG=1 /D NO_SHARED_MEMORY /D WIN32 /D _MBCS /Gm- /EHsc /RTC1 /MTd /GS /Gy /fp:fast /Zc:wchar_t /Zc:forScope /Zc:inline /Fo"OBJ\X32\DEBUG\APP_PHYSICSSERVERUDP\\" /Fd"..\..\BIN\APP_PHYSICSSERVERUDP_VS2010_DEBUG.PDB" /Gd /TP /analyze- /wd4244 /wd4267  C:\USERS\ANTONINO\DESKTOP\VULKAN_ENGINE\BULLET3-2.86.1\EXAMPLES\THIRDPARTYLIBS\STB_IMAGE\STB_IMAGE.CPP
^C:\USERS\ANTONINO\DESKTOP\VULKAN_ENGINE\BULLET3-2.86.1\EXAMPLES\SHAREDMEMORY\UDP\MAIN.CPP
/c /I..\..\EXAMPLES\SHAREDMEMORY /I..\..\SRC /I..\..\EXAMPLES\THIRDPARTYLIBS /I..\..\EXAMPLES\THIRDPARTYLIBS\ENET\INCLUDE /Zi /nologo /W3 /WX- /Od /Oy- /D _DEBUG=1 /D NO_SHARED_MEMORY /D WIN32 /D _MBCS /Gm- /EHsc /RTC1 /MTd /GS /Gy /fp:fast /Zc:wchar_t /Zc:forScope /Zc:inline /Fo"OBJ\X32\DEBUG\APP_PHYSICSSERVERUDP\\" /Fd"..\..\BIN\APP_PHYSICSSERVERUDP_VS2010_DEBUG.PDB" /Gd /TP /analyze- /wd4244 /wd4267  C:\USERS\ANTONINO\DESKTOP\VULKAN_ENGINE\BULLET3-2.86.1\EXAMPLES\SHAREDMEMORY\UDP\MAIN.CPP
