﻿Compilazione avviata 15/04/2017 21.05.59.
     1>Progetto "C:\Users\antonino\Desktop\vulkan_engine\bullet3-2.86.1\build3\vs2010\Test_SharedMemoryPhysicsClient.vcxproj" sul nodo 9 (destinazioni: Build).
     1>ClCompile:
         C:\Program Files (x86)\Microsoft Visual Studio 14.0\VC\bin\CL.exe /c /I..\..\src /I..\..\examples /Zi /nologo /W3 /WX- /Od /Oy- /D _DEBUG=1 /D PHYSICS_SHARED_MEMORY /D _MBCS /Gm- /EHsc /RTC1 /MTd /GS /Gy /fp:fast /Zc:wchar_t /Zc:forScope /Zc:inline /Fo"obj\x32\Debug\Test_SharedMemoryPhysicsClient\\" /Fd"..\..\bin\Test_SharedMemoryPhysicsClient_vs2010_debug.pdb" /Gd /TC /analyze- /errorReport:prompt /MP /wd4244 /wd4267 ..\..\test\SharedMemory\test.c
         test.c
         C:\Program Files (x86)\Microsoft Visual Studio 14.0\VC\bin\CL.exe /c /I..\..\src /I..\..\examples /Zi /nologo /W3 /WX- /Od /Oy- /D _DEBUG=1 /D PHYSICS_SHARED_MEMORY /D _MBCS /Gm- /EHsc /RTC1 /MTd /GS /Gy /fp:fast /Zc:wchar_t /Zc:forScope /Zc:inline /Fo"obj\x32\Debug\Test_SharedMemoryPhysicsClient\\" /Fd"..\..\bin\Test_SharedMemoryPhysicsClient_vs2010_debug.pdb" /Gd /TP /analyze- /errorReport:prompt /MP /wd4244 /wd4267 ..\..\examples\SharedMemory\PhysicsClient.cpp ..\..\examples\SharedMemory\PhysicsClientSharedMemory.cpp ..\..\examples\SharedMemory\PhysicsClientSharedMemory_C_API.cpp ..\..\examples\SharedMemory\PhysicsClientC_API.cpp ..\..\examples\SharedMemory\Win32SharedMemory.cpp ..\..\examples\SharedMemory\PosixSharedMemory.cpp ..\..\examples\Utils\b3ResourcePath.cpp
         PhysicsClient.cpp
         PhysicsClientSharedMemory.cpp
         PhysicsClientSharedMemory_C_API.cpp
         PhysicsClientC_API.cpp
         Win32SharedMemory.cpp
         PosixSharedMemory.cpp
         b3ResourcePath.cpp
     1>..\..\examples\SharedMemory\PhysicsClientC_API.cpp(554): warning C4800: 'int': imposto valore booleano 'true' o 'false' (avviso di prestazioni)
       Link:
         C:\Program Files (x86)\Microsoft Visual Studio 14.0\VC\bin\link.exe /ERRORREPORT:PROMPT /OUT:"..\..\bin\Test_SharedMemoryPhysicsClient_vs2010_debug.exe" /INCREMENTAL /NOLOGO ..\..\bin\BulletFileLoader_vs2010_debug.lib ..\..\bin\Bullet3Common_vs2010_debug.lib ..\..\bin\LinearMath_vs2010_debug.lib kernel32.lib user32.lib gdi32.lib winspool.lib comdlg32.lib advapi32.lib shell32.lib ole32.lib oleaut32.lib uuid.lib odbc32.lib odbccp32.lib /MANIFEST /MANIFESTUAC:"level='asInvoker' uiAccess='false'" /manifest:embed /Debug /PDB:"..\..\bin\Test_SharedMemoryPhysicsClient_vs2010_debug.pdb" /SUBSYSTEM:CONSOLE /TLBID:1 /ENTRY:"mainCRTStartup" /DYNAMICBASE /NXCOMPAT /IMPLIB:"..\..\bin\Test_SharedMemoryPhysicsClient_vs2010_debug.lib" /MACHINE:X86 obj\x32\Debug\Test_SharedMemoryPhysicsClient\test.obj
         obj\x32\Debug\Test_SharedMemoryPhysicsClient\PhysicsClient.obj
         obj\x32\Debug\Test_SharedMemoryPhysicsClient\PhysicsClientSharedMemory.obj
         obj\x32\Debug\Test_SharedMemoryPhysicsClient\PhysicsClientSharedMemory_C_API.obj
         obj\x32\Debug\Test_SharedMemoryPhysicsClient\PhysicsClientC_API.obj
         obj\x32\Debug\Test_SharedMemoryPhysicsClient\Win32SharedMemory.obj
         obj\x32\Debug\Test_SharedMemoryPhysicsClient\PosixSharedMemory.obj
         obj\x32\Debug\Test_SharedMemoryPhysicsClient\b3ResourcePath.obj
         Test_SharedMemoryPhysicsClient.vcxproj -> C:\Users\antonino\Desktop\vulkan_engine\bullet3-2.86.1\build3\vs2010\..\..\bin\Test_SharedMemoryPhysicsClient_vs2010_debug.exe
     1>Compilazione progetto "C:\Users\antonino\Desktop\vulkan_engine\bullet3-2.86.1\build3\vs2010\Test_SharedMemoryPhysicsClient.vcxproj" (destinazioni: Build) completata.

Compilazione completata.

Tempo trascorso 00:00:08.95
