^C:\USERS\ANTONINO\DESKTOP\VULKAN_ENGINE\BULLET3-2.86.1\TEST\SHAREDMEMORY\TEST.C
C:\USERS\ANTONINO\DESKTOP\VULKAN_ENGINE\BULLET3-2.86.1\BIN\TEST_PHYSICSSERVERLOOPBACK_VS2010_DEBUG.PDB
C:\USERS\ANTONINO\DESKTOP\VULKAN_ENGINE\BULLET3-2.86.1\BUILD3\VS2010\OBJ\X32\DEBUG\TEST_PHYSICSSERVERLOOPBACK\TEST.OBJ
^C:\USERS\ANTONINO\DESKTOP\VULKAN_ENGINE\BULLET3-2.86.1\EXAMPLES\IMPORTERS\IMPORTCOLLADADEMO\LOADMESHFROMCOLLADA.CPP|C:\USERS\ANTONINO\DESKTOP\VULKAN_ENGINE\BULLET3-2.86.1\EXAMPLES\IMPORTERS\IMPORTMESHUTILITY\B3IMPORTMESHUTILITY.CPP|C:\USERS\ANTONINO\DESKTOP\VULKAN_ENGINE\BULLET3-2.86.1\EXAMPLES\IMPORTERS\IMPORTMJCFDEMO\BULLETMJCFIMPORTER.CPP|C:\USERS\ANTONINO\DESKTOP\VULKAN_ENGINE\BULLET3-2.86.1\EXAMPLES\IMPORTERS\IMPORTOBJDEMO\LOADMESHFROMOBJ.CPP|C:\USERS\ANTONINO\DESKTOP\VULKAN_ENGINE\BULLET3-2.86.1\EXAMPLES\IMPORTERS\IMPORTOBJDEMO\WAVEFRONT2GLINSTANCEGRAPHICSSHAPE.CPP|C:\USERS\ANTONINO\DESKTOP\VULKAN_ENGINE\BULLET3-2.86.1\EXAMPLES\IMPORTERS\IMPORTURDFDEMO\BULLETURDFIMPORTER.CPP|C:\USERS\ANTONINO\DESKTOP\VULKAN_ENGINE\BULLET3-2.86.1\EXAMPLES\IMPORTERS\IMPORTURDFDEMO\MYMULTIBODYCREATOR.CPP|C:\USERS\ANTONINO\DESKTOP\VULKAN_ENGINE\BULLET3-2.86.1\EXAMPLES\IMPORTERS\IMPORTURDFDEMO\URDF2BULLET.CPP|C:\USERS\ANTONINO\DESKTOP\VULKAN_ENGINE\BULLET3-2.86.1\EXAMPLES\IMPORTERS\IMPORTURDFDEMO\URDFPARSER.CPP|C:\USERS\ANTONINO\DESKTOP\VULKAN_ENGINE\BULLET3-2.86.1\EXAMPLES\IMPORTERS\IMPORTURDFDEMO\URDFSTRINGSPLIT.CPP|C:\USERS\ANTONINO\DESKTOP\VULKAN_ENGINE\BULLET3-2.86.1\EXAMPLES\OPENGLWINDOW\SIMPLECAMERA.CPP|C:\USERS\ANTONINO\DESKTOP\VULKAN_ENGINE\BULLET3-2.86.1\EXAMPLES\SHAREDMEMORY\IKTRAJECTORYHELPER.CPP|C:\USERS\ANTONINO\DESKTOP\VULKAN_ENGINE\BULLET3-2.86.1\EXAMPLES\SHAREDMEMORY\PHYSICSCLIENT.CPP|C:\USERS\ANTONINO\DESKTOP\VULKAN_ENGINE\BULLET3-2.86.1\EXAMPLES\SHAREDMEMORY\PHYSICSCLIENTC_API.CPP|C:\USERS\ANTONINO\DESKTOP\VULKAN_ENGINE\BULLET3-2.86.1\EXAMPLES\SHAREDMEMORY\PHYSICSCLIENTSHAREDMEMORY.CPP|C:\USERS\ANTONINO\DESKTOP\VULKAN_ENGINE\BULLET3-2.86.1\EXAMPLES\SHAREDMEMORY\PHYSICSLOOPBACK.CPP|C:\USERS\ANTONINO\DESKTOP\VULKAN_ENGINE\BULLET3-2.86.1\EXAMPLES\SHAREDMEMORY\PHYSICSLOOPBACKC_API.CPP|C:\USERS\ANTONINO\DESKTOP\VULKAN_ENGINE\BULLET3-2.86.1\EXAMPLES\SHAREDMEMORY\PHYSICSSERVER.CPP|C:\USERS\ANTONINO\DESKTOP\VULKAN_ENGINE\BULLET3-2.86.1\EXAMPLES\SHAREDMEMORY\PHYSICSSERVERCOMMANDPROCESSOR.CPP|C:\USERS\ANTONINO\DESKTOP\VULKAN_ENGINE\BULLET3-2.86.1\EXAMPLES\SHAREDMEMORY\PHYSICSSERVERSHAREDMEMORY.CPP|C:\USERS\ANTONINO\DESKTOP\VULKAN_ENGINE\BULLET3-2.86.1\EXAMPLES\SHAREDMEMORY\POSIXSHAREDMEMORY.CPP|C:\USERS\ANTONINO\DESKTOP\VULKAN_ENGINE\BULLET3-2.86.1\EXAMPLES\SHAREDMEMORY\TINYRENDERERVISUALSHAPECONVERTER.CPP|C:\USERS\ANTONINO\DESKTOP\VULKAN_ENGINE\BULLET3-2.86.1\EXAMPLES\SHAREDMEMORY\WIN32SHAREDMEMORY.CPP|C:\USERS\ANTONINO\DESKTOP\VULKAN_ENGINE\BULLET3-2.86.1\EXAMPLES\THIRDPARTYLIBS\STB_IMAGE\STB_IMAGE.CPP|C:\USERS\ANTONINO\DESKTOP\VULKAN_ENGINE\BULLET3-2.86.1\EXAMPLES\THIRDPARTYLIBS\TINYXML\TINYSTR.CPP|C:\USERS\ANTONINO\DESKTOP\VULKAN_ENGINE\BULLET3-2.86.1\EXAMPLES\THIRDPARTYLIBS\TINYXML\TINYXML.CPP|C:\USERS\ANTONINO\DESKTOP\VULKAN_ENGINE\BULLET3-2.86.1\EXAMPLES\THIRDPARTYLIBS\TINYXML\TINYXMLERROR.CPP|C:\USERS\ANTONINO\DESKTOP\VULKAN_ENGINE\BULLET3-2.86.1\EXAMPLES\THIRDPARTYLIBS\TINYXML\TINYXMLPARSER.CPP|C:\USERS\ANTONINO\DESKTOP\VULKAN_ENGINE\BULLET3-2.86.1\EXAMPLES\THIRDPARTYLIBS\WAVEFRONT\TINY_OBJ_LOADER.CPP|C:\USERS\ANTONINO\DESKTOP\VULKAN_ENGINE\BULLET3-2.86.1\EXAMPLES\TINYRENDERER\GEOMETRY.CPP|C:\USERS\ANTONINO\DESKTOP\VULKAN_ENGINE\BULLET3-2.86.1\EXAMPLES\TINYRENDERER\MODEL.CPP|C:\USERS\ANTONINO\DESKTOP\VULKAN_ENGINE\BULLET3-2.86.1\EXAMPLES\TINYRENDERER\OUR_GL.CPP|C:\USERS\ANTONINO\DESKTOP\VULKAN_ENGINE\BULLET3-2.86.1\EXAMPLES\TINYRENDERER\TGAIMAGE.CPP|C:\USERS\ANTONINO\DESKTOP\VULKAN_ENGINE\BULLET3-2.86.1\EXAMPLES\TINYRENDERER\TINYRENDERER.CPP|C:\USERS\ANTONINO\DESKTOP\VULKAN_ENGINE\BULLET3-2.86.1\EXAMPLES\UTILS\B3RESOURCEPATH.CPP|C:\USERS\ANTONINO\DESKTOP\VULKAN_ENGINE\BULLET3-2.86.1\EXAMPLES\UTILS\ROBOTLOGGINGUTIL.CPP
C:\USERS\ANTONINO\DESKTOP\VULKAN_ENGINE\BULLET3-2.86.1\BUILD3\VS2010\OBJ\X32\DEBUG\TEST_PHYSICSSERVERLOOPBACK\PHYSICSSERVERSHAREDMEMORY.OBJ
C:\USERS\ANTONINO\DESKTOP\VULKAN_ENGINE\BULLET3-2.86.1\BUILD3\VS2010\OBJ\X32\DEBUG\TEST_PHYSICSSERVERLOOPBACK\TINYXMLERROR.OBJ
C:\USERS\ANTONINO\DESKTOP\VULKAN_ENGINE\BULLET3-2.86.1\BUILD3\VS2010\OBJ\X32\DEBUG\TEST_PHYSICSSERVERLOOPBACK\TINY_OBJ_LOADER.OBJ
C:\USERS\ANTONINO\DESKTOP\VULKAN_ENGINE\BULLET3-2.86.1\BUILD3\VS2010\OBJ\X32\DEBUG\TEST_PHYSICSSERVERLOOPBACK\B3IMPORTMESHUTILITY.OBJ
C:\USERS\ANTONINO\DESKTOP\VULKAN_ENGINE\BULLET3-2.86.1\BUILD3\VS2010\OBJ\X32\DEBUG\TEST_PHYSICSSERVERLOOPBACK\PHYSICSCLIENT.OBJ
C:\USERS\ANTONINO\DESKTOP\VULKAN_ENGINE\BULLET3-2.86.1\BUILD3\VS2010\OBJ\X32\DEBUG\TEST_PHYSICSSERVERLOOPBACK\WIN32SHAREDMEMORY.OBJ
C:\USERS\ANTONINO\DESKTOP\VULKAN_ENGINE\BULLET3-2.86.1\BUILD3\VS2010\OBJ\X32\DEBUG\TEST_PHYSICSSERVERLOOPBACK\TGAIMAGE.OBJ
C:\USERS\ANTONINO\DESKTOP\VULKAN_ENGINE\BULLET3-2.86.1\BUILD3\VS2010\OBJ\X32\DEBUG\TEST_PHYSICSSERVERLOOPBACK\ROBOTLOGGINGUTIL.OBJ
C:\USERS\ANTONINO\DESKTOP\VULKAN_ENGINE\BULLET3-2.86.1\BUILD3\VS2010\OBJ\X32\DEBUG\TEST_PHYSICSSERVERLOOPBACK\WAVEFRONT2GLINSTANCEGRAPHICSSHAPE.OBJ
C:\USERS\ANTONINO\DESKTOP\VULKAN_ENGINE\BULLET3-2.86.1\BUILD3\VS2010\OBJ\X32\DEBUG\TEST_PHYSICSSERVERLOOPBACK\PHYSICSSERVER.OBJ
C:\USERS\ANTONINO\DESKTOP\VULKAN_ENGINE\BULLET3-2.86.1\BUILD3\VS2010\OBJ\X32\DEBUG\TEST_PHYSICSSERVERLOOPBACK\PHYSICSCLIENTC_API.OBJ
C:\USERS\ANTONINO\DESKTOP\VULKAN_ENGINE\BULLET3-2.86.1\BUILD3\VS2010\OBJ\X32\DEBUG\TEST_PHYSICSSERVERLOOPBACK\GEOMETRY.OBJ
C:\USERS\ANTONINO\DESKTOP\VULKAN_ENGINE\BULLET3-2.86.1\BUILD3\VS2010\OBJ\X32\DEBUG\TEST_PHYSICSSERVERLOOPBACK\OUR_GL.OBJ
C:\USERS\ANTONINO\DESKTOP\VULKAN_ENGINE\BULLET3-2.86.1\BUILD3\VS2010\OBJ\X32\DEBUG\TEST_PHYSICSSERVERLOOPBACK\B3RESOURCEPATH.OBJ
C:\USERS\ANTONINO\DESKTOP\VULKAN_ENGINE\BULLET3-2.86.1\BUILD3\VS2010\OBJ\X32\DEBUG\TEST_PHYSICSSERVERLOOPBACK\BULLETURDFIMPORTER.OBJ
C:\USERS\ANTONINO\DESKTOP\VULKAN_ENGINE\BULLET3-2.86.1\BUILD3\VS2010\OBJ\X32\DEBUG\TEST_PHYSICSSERVERLOOPBACK\PHYSICSLOOPBACK.OBJ
C:\USERS\ANTONINO\DESKTOP\VULKAN_ENGINE\BULLET3-2.86.1\BUILD3\VS2010\OBJ\X32\DEBUG\TEST_PHYSICSSERVERLOOPBACK\TINYRENDERERVISUALSHAPECONVERTER.OBJ
C:\USERS\ANTONINO\DESKTOP\VULKAN_ENGINE\BULLET3-2.86.1\BUILD3\VS2010\OBJ\X32\DEBUG\TEST_PHYSICSSERVERLOOPBACK\MYMULTIBODYCREATOR.OBJ
C:\USERS\ANTONINO\DESKTOP\VULKAN_ENGINE\BULLET3-2.86.1\BUILD3\VS2010\OBJ\X32\DEBUG\TEST_PHYSICSSERVERLOOPBACK\PHYSICSCLIENTSHAREDMEMORY.OBJ
C:\USERS\ANTONINO\DESKTOP\VULKAN_ENGINE\BULLET3-2.86.1\BUILD3\VS2010\OBJ\X32\DEBUG\TEST_PHYSICSSERVERLOOPBACK\TINYSTR.OBJ
C:\USERS\ANTONINO\DESKTOP\VULKAN_ENGINE\BULLET3-2.86.1\BUILD3\VS2010\OBJ\X32\DEBUG\TEST_PHYSICSSERVERLOOPBACK\TINYXML.OBJ
C:\USERS\ANTONINO\DESKTOP\VULKAN_ENGINE\BULLET3-2.86.1\BUILD3\VS2010\OBJ\X32\DEBUG\TEST_PHYSICSSERVERLOOPBACK\TINYXMLPARSER.OBJ
C:\USERS\ANTONINO\DESKTOP\VULKAN_ENGINE\BULLET3-2.86.1\BUILD3\VS2010\OBJ\X32\DEBUG\TEST_PHYSICSSERVERLOOPBACK\LOADMESHFROMCOLLADA.OBJ
C:\USERS\ANTONINO\DESKTOP\VULKAN_ENGINE\BULLET3-2.86.1\BUILD3\VS2010\OBJ\X32\DEBUG\TEST_PHYSICSSERVERLOOPBACK\URDFSTRINGSPLIT.OBJ
C:\USERS\ANTONINO\DESKTOP\VULKAN_ENGINE\BULLET3-2.86.1\BUILD3\VS2010\OBJ\X32\DEBUG\TEST_PHYSICSSERVERLOOPBACK\PHYSICSLOOPBACKC_API.OBJ
C:\USERS\ANTONINO\DESKTOP\VULKAN_ENGINE\BULLET3-2.86.1\BUILD3\VS2010\OBJ\X32\DEBUG\TEST_PHYSICSSERVERLOOPBACK\POSIXSHAREDMEMORY.OBJ
C:\USERS\ANTONINO\DESKTOP\VULKAN_ENGINE\BULLET3-2.86.1\BUILD3\VS2010\OBJ\X32\DEBUG\TEST_PHYSICSSERVERLOOPBACK\SIMPLECAMERA.OBJ
C:\USERS\ANTONINO\DESKTOP\VULKAN_ENGINE\BULLET3-2.86.1\BUILD3\VS2010\OBJ\X32\DEBUG\TEST_PHYSICSSERVERLOOPBACK\MODEL.OBJ
C:\USERS\ANTONINO\DESKTOP\VULKAN_ENGINE\BULLET3-2.86.1\BUILD3\VS2010\OBJ\X32\DEBUG\TEST_PHYSICSSERVERLOOPBACK\LOADMESHFROMOBJ.OBJ
C:\USERS\ANTONINO\DESKTOP\VULKAN_ENGINE\BULLET3-2.86.1\BUILD3\VS2010\OBJ\X32\DEBUG\TEST_PHYSICSSERVERLOOPBACK\URDFPARSER.OBJ
C:\USERS\ANTONINO\DESKTOP\VULKAN_ENGINE\BULLET3-2.86.1\BUILD3\VS2010\OBJ\X32\DEBUG\TEST_PHYSICSSERVERLOOPBACK\PHYSICSSERVERCOMMANDPROCESSOR.OBJ
C:\USERS\ANTONINO\DESKTOP\VULKAN_ENGINE\BULLET3-2.86.1\BUILD3\VS2010\OBJ\X32\DEBUG\TEST_PHYSICSSERVERLOOPBACK\URDF2BULLET.OBJ
C:\USERS\ANTONINO\DESKTOP\VULKAN_ENGINE\BULLET3-2.86.1\BUILD3\VS2010\OBJ\X32\DEBUG\TEST_PHYSICSSERVERLOOPBACK\IKTRAJECTORYHELPER.OBJ
C:\USERS\ANTONINO\DESKTOP\VULKAN_ENGINE\BULLET3-2.86.1\BUILD3\VS2010\OBJ\X32\DEBUG\TEST_PHYSICSSERVERLOOPBACK\TINYRENDERER.OBJ
C:\USERS\ANTONINO\DESKTOP\VULKAN_ENGINE\BULLET3-2.86.1\BUILD3\VS2010\OBJ\X32\DEBUG\TEST_PHYSICSSERVERLOOPBACK\BULLETMJCFIMPORTER.OBJ
C:\USERS\ANTONINO\DESKTOP\VULKAN_ENGINE\BULLET3-2.86.1\BUILD3\VS2010\OBJ\X32\DEBUG\TEST_PHYSICSSERVERLOOPBACK\STB_IMAGE.OBJ
^C:\USERS\ANTONINO\DESKTOP\VULKAN_ENGINE\BULLET3-2.86.1\EXAMPLES\SHAREDMEMORY\IKTRAJECTORYHELPER.CPP
C:\USERS\ANTONINO\DESKTOP\VULKAN_ENGINE\BULLET3-2.86.1\BIN\TEST_PHYSICSSERVERLOOPBACK_VS2010_DEBUG.PDB
^C:\USERS\ANTONINO\DESKTOP\VULKAN_ENGINE\BULLET3-2.86.1\EXAMPLES\SHAREDMEMORY\PHYSICSCLIENT.CPP
C:\USERS\ANTONINO\DESKTOP\VULKAN_ENGINE\BULLET3-2.86.1\BIN\TEST_PHYSICSSERVERLOOPBACK_VS2010_DEBUG.PDB
^C:\USERS\ANTONINO\DESKTOP\VULKAN_ENGINE\BULLET3-2.86.1\EXAMPLES\SHAREDMEMORY\PHYSICSSERVER.CPP
C:\USERS\ANTONINO\DESKTOP\VULKAN_ENGINE\BULLET3-2.86.1\BIN\TEST_PHYSICSSERVERLOOPBACK_VS2010_DEBUG.PDB
^C:\USERS\ANTONINO\DESKTOP\VULKAN_ENGINE\BULLET3-2.86.1\EXAMPLES\SHAREDMEMORY\PHYSICSSERVERSHAREDMEMORY.CPP
C:\USERS\ANTONINO\DESKTOP\VULKAN_ENGINE\BULLET3-2.86.1\BIN\TEST_PHYSICSSERVERLOOPBACK_VS2010_DEBUG.PDB
^C:\USERS\ANTONINO\DESKTOP\VULKAN_ENGINE\BULLET3-2.86.1\EXAMPLES\SHAREDMEMORY\PHYSICSSERVERCOMMANDPROCESSOR.CPP
C:\USERS\ANTONINO\DESKTOP\VULKAN_ENGINE\BULLET3-2.86.1\BIN\TEST_PHYSICSSERVERLOOPBACK_VS2010_DEBUG.PDB
^C:\USERS\ANTONINO\DESKTOP\VULKAN_ENGINE\BULLET3-2.86.1\EXAMPLES\SHAREDMEMORY\PHYSICSLOOPBACK.CPP
C:\USERS\ANTONINO\DESKTOP\VULKAN_ENGINE\BULLET3-2.86.1\BIN\TEST_PHYSICSSERVERLOOPBACK_VS2010_DEBUG.PDB
^C:\USERS\ANTONINO\DESKTOP\VULKAN_ENGINE\BULLET3-2.86.1\EXAMPLES\SHAREDMEMORY\PHYSICSLOOPBACKC_API.CPP
C:\USERS\ANTONINO\DESKTOP\VULKAN_ENGINE\BULLET3-2.86.1\BIN\TEST_PHYSICSSERVERLOOPBACK_VS2010_DEBUG.PDB
^C:\USERS\ANTONINO\DESKTOP\VULKAN_ENGINE\BULLET3-2.86.1\EXAMPLES\SHAREDMEMORY\PHYSICSCLIENTSHAREDMEMORY.CPP
C:\USERS\ANTONINO\DESKTOP\VULKAN_ENGINE\BULLET3-2.86.1\BIN\TEST_PHYSICSSERVERLOOPBACK_VS2010_DEBUG.PDB
^C:\USERS\ANTONINO\DESKTOP\VULKAN_ENGINE\BULLET3-2.86.1\EXAMPLES\SHAREDMEMORY\PHYSICSCLIENTC_API.CPP
C:\USERS\ANTONINO\DESKTOP\VULKAN_ENGINE\BULLET3-2.86.1\BIN\TEST_PHYSICSSERVERLOOPBACK_VS2010_DEBUG.PDB
^C:\USERS\ANTONINO\DESKTOP\VULKAN_ENGINE\BULLET3-2.86.1\EXAMPLES\SHAREDMEMORY\WIN32SHAREDMEMORY.CPP
C:\USERS\ANTONINO\DESKTOP\VULKAN_ENGINE\BULLET3-2.86.1\BIN\TEST_PHYSICSSERVERLOOPBACK_VS2010_DEBUG.PDB
^C:\USERS\ANTONINO\DESKTOP\VULKAN_ENGINE\BULLET3-2.86.1\EXAMPLES\SHAREDMEMORY\POSIXSHAREDMEMORY.CPP
C:\USERS\ANTONINO\DESKTOP\VULKAN_ENGINE\BULLET3-2.86.1\BIN\TEST_PHYSICSSERVERLOOPBACK_VS2010_DEBUG.PDB
^C:\USERS\ANTONINO\DESKTOP\VULKAN_ENGINE\BULLET3-2.86.1\EXAMPLES\SHAREDMEMORY\TINYRENDERERVISUALSHAPECONVERTER.CPP
C:\USERS\ANTONINO\DESKTOP\VULKAN_ENGINE\BULLET3-2.86.1\BIN\TEST_PHYSICSSERVERLOOPBACK_VS2010_DEBUG.PDB
^C:\USERS\ANTONINO\DESKTOP\VULKAN_ENGINE\BULLET3-2.86.1\EXAMPLES\OPENGLWINDOW\SIMPLECAMERA.CPP
C:\USERS\ANTONINO\DESKTOP\VULKAN_ENGINE\BULLET3-2.86.1\BIN\TEST_PHYSICSSERVERLOOPBACK_VS2010_DEBUG.PDB
^C:\USERS\ANTONINO\DESKTOP\VULKAN_ENGINE\BULLET3-2.86.1\EXAMPLES\TINYRENDERER\GEOMETRY.CPP
C:\USERS\ANTONINO\DESKTOP\VULKAN_ENGINE\BULLET3-2.86.1\BIN\TEST_PHYSICSSERVERLOOPBACK_VS2010_DEBUG.PDB
^C:\USERS\ANTONINO\DESKTOP\VULKAN_ENGINE\BULLET3-2.86.1\EXAMPLES\TINYRENDERER\MODEL.CPP
C:\USERS\ANTONINO\DESKTOP\VULKAN_ENGINE\BULLET3-2.86.1\BIN\TEST_PHYSICSSERVERLOOPBACK_VS2010_DEBUG.PDB
^C:\USERS\ANTONINO\DESKTOP\VULKAN_ENGINE\BULLET3-2.86.1\EXAMPLES\TINYRENDERER\TGAIMAGE.CPP
C:\USERS\ANTONINO\DESKTOP\VULKAN_ENGINE\BULLET3-2.86.1\BIN\TEST_PHYSICSSERVERLOOPBACK_VS2010_DEBUG.PDB
^C:\USERS\ANTONINO\DESKTOP\VULKAN_ENGINE\BULLET3-2.86.1\EXAMPLES\TINYRENDERER\OUR_GL.CPP
C:\USERS\ANTONINO\DESKTOP\VULKAN_ENGINE\BULLET3-2.86.1\BIN\TEST_PHYSICSSERVERLOOPBACK_VS2010_DEBUG.PDB
^C:\USERS\ANTONINO\DESKTOP\VULKAN_ENGINE\BULLET3-2.86.1\EXAMPLES\TINYRENDERER\TINYRENDERER.CPP
C:\USERS\ANTONINO\DESKTOP\VULKAN_ENGINE\BULLET3-2.86.1\BIN\TEST_PHYSICSSERVERLOOPBACK_VS2010_DEBUG.PDB
^C:\USERS\ANTONINO\DESKTOP\VULKAN_ENGINE\BULLET3-2.86.1\EXAMPLES\UTILS\B3RESOURCEPATH.CPP
C:\USERS\ANTONINO\DESKTOP\VULKAN_ENGINE\BULLET3-2.86.1\BIN\TEST_PHYSICSSERVERLOOPBACK_VS2010_DEBUG.PDB
^C:\USERS\ANTONINO\DESKTOP\VULKAN_ENGINE\BULLET3-2.86.1\EXAMPLES\UTILS\ROBOTLOGGINGUTIL.CPP
C:\USERS\ANTONINO\DESKTOP\VULKAN_ENGINE\BULLET3-2.86.1\BIN\TEST_PHYSICSSERVERLOOPBACK_VS2010_DEBUG.PDB
^C:\USERS\ANTONINO\DESKTOP\VULKAN_ENGINE\BULLET3-2.86.1\EXAMPLES\THIRDPARTYLIBS\TINYXML\TINYSTR.CPP
C:\USERS\ANTONINO\DESKTOP\VULKAN_ENGINE\BULLET3-2.86.1\BIN\TEST_PHYSICSSERVERLOOPBACK_VS2010_DEBUG.PDB
^C:\USERS\ANTONINO\DESKTOP\VULKAN_ENGINE\BULLET3-2.86.1\EXAMPLES\THIRDPARTYLIBS\TINYXML\TINYXML.CPP
C:\USERS\ANTONINO\DESKTOP\VULKAN_ENGINE\BULLET3-2.86.1\BIN\TEST_PHYSICSSERVERLOOPBACK_VS2010_DEBUG.PDB
^C:\USERS\ANTONINO\DESKTOP\VULKAN_ENGINE\BULLET3-2.86.1\EXAMPLES\THIRDPARTYLIBS\TINYXML\TINYXMLERROR.CPP
C:\USERS\ANTONINO\DESKTOP\VULKAN_ENGINE\BULLET3-2.86.1\BIN\TEST_PHYSICSSERVERLOOPBACK_VS2010_DEBUG.PDB
^C:\USERS\ANTONINO\DESKTOP\VULKAN_ENGINE\BULLET3-2.86.1\EXAMPLES\THIRDPARTYLIBS\TINYXML\TINYXMLPARSER.CPP
C:\USERS\ANTONINO\DESKTOP\VULKAN_ENGINE\BULLET3-2.86.1\BIN\TEST_PHYSICSSERVERLOOPBACK_VS2010_DEBUG.PDB
^C:\USERS\ANTONINO\DESKTOP\VULKAN_ENGINE\BULLET3-2.86.1\EXAMPLES\THIRDPARTYLIBS\WAVEFRONT\TINY_OBJ_LOADER.CPP
C:\USERS\ANTONINO\DESKTOP\VULKAN_ENGINE\BULLET3-2.86.1\BIN\TEST_PHYSICSSERVERLOOPBACK_VS2010_DEBUG.PDB
^C:\USERS\ANTONINO\DESKTOP\VULKAN_ENGINE\BULLET3-2.86.1\EXAMPLES\IMPORTERS\IMPORTCOLLADADEMO\LOADMESHFROMCOLLADA.CPP
C:\USERS\ANTONINO\DESKTOP\VULKAN_ENGINE\BULLET3-2.86.1\BIN\TEST_PHYSICSSERVERLOOPBACK_VS2010_DEBUG.PDB
^C:\USERS\ANTONINO\DESKTOP\VULKAN_ENGINE\BULLET3-2.86.1\EXAMPLES\IMPORTERS\IMPORTOBJDEMO\LOADMESHFROMOBJ.CPP
C:\USERS\ANTONINO\DESKTOP\VULKAN_ENGINE\BULLET3-2.86.1\BIN\TEST_PHYSICSSERVERLOOPBACK_VS2010_DEBUG.PDB
^C:\USERS\ANTONINO\DESKTOP\VULKAN_ENGINE\BULLET3-2.86.1\EXAMPLES\IMPORTERS\IMPORTOBJDEMO\WAVEFRONT2GLINSTANCEGRAPHICSSHAPE.CPP
C:\USERS\ANTONINO\DESKTOP\VULKAN_ENGINE\BULLET3-2.86.1\BIN\TEST_PHYSICSSERVERLOOPBACK_VS2010_DEBUG.PDB
^C:\USERS\ANTONINO\DESKTOP\VULKAN_ENGINE\BULLET3-2.86.1\EXAMPLES\IMPORTERS\IMPORTMJCFDEMO\BULLETMJCFIMPORTER.CPP
C:\USERS\ANTONINO\DESKTOP\VULKAN_ENGINE\BULLET3-2.86.1\BIN\TEST_PHYSICSSERVERLOOPBACK_VS2010_DEBUG.PDB
^C:\USERS\ANTONINO\DESKTOP\VULKAN_ENGINE\BULLET3-2.86.1\EXAMPLES\IMPORTERS\IMPORTURDFDEMO\BULLETURDFIMPORTER.CPP
C:\USERS\ANTONINO\DESKTOP\VULKAN_ENGINE\BULLET3-2.86.1\BIN\TEST_PHYSICSSERVERLOOPBACK_VS2010_DEBUG.PDB
^C:\USERS\ANTONINO\DESKTOP\VULKAN_ENGINE\BULLET3-2.86.1\EXAMPLES\IMPORTERS\IMPORTURDFDEMO\MYMULTIBODYCREATOR.CPP
C:\USERS\ANTONINO\DESKTOP\VULKAN_ENGINE\BULLET3-2.86.1\BIN\TEST_PHYSICSSERVERLOOPBACK_VS2010_DEBUG.PDB
^C:\USERS\ANTONINO\DESKTOP\VULKAN_ENGINE\BULLET3-2.86.1\EXAMPLES\IMPORTERS\IMPORTURDFDEMO\URDF2BULLET.CPP
C:\USERS\ANTONINO\DESKTOP\VULKAN_ENGINE\BULLET3-2.86.1\BIN\TEST_PHYSICSSERVERLOOPBACK_VS2010_DEBUG.PDB
^C:\USERS\ANTONINO\DESKTOP\VULKAN_ENGINE\BULLET3-2.86.1\EXAMPLES\IMPORTERS\IMPORTURDFDEMO\URDFPARSER.CPP
C:\USERS\ANTONINO\DESKTOP\VULKAN_ENGINE\BULLET3-2.86.1\BIN\TEST_PHYSICSSERVERLOOPBACK_VS2010_DEBUG.PDB
^C:\USERS\ANTONINO\DESKTOP\VULKAN_ENGINE\BULLET3-2.86.1\EXAMPLES\IMPORTERS\IMPORTURDFDEMO\URDFSTRINGSPLIT.CPP
C:\USERS\ANTONINO\DESKTOP\VULKAN_ENGINE\BULLET3-2.86.1\BIN\TEST_PHYSICSSERVERLOOPBACK_VS2010_DEBUG.PDB
^C:\USERS\ANTONINO\DESKTOP\VULKAN_ENGINE\BULLET3-2.86.1\EXAMPLES\IMPORTERS\IMPORTMESHUTILITY\B3IMPORTMESHUTILITY.CPP
C:\USERS\ANTONINO\DESKTOP\VULKAN_ENGINE\BULLET3-2.86.1\BIN\TEST_PHYSICSSERVERLOOPBACK_VS2010_DEBUG.PDB
^C:\USERS\ANTONINO\DESKTOP\VULKAN_ENGINE\BULLET3-2.86.1\EXAMPLES\THIRDPARTYLIBS\STB_IMAGE\STB_IMAGE.CPP
C:\USERS\ANTONINO\DESKTOP\VULKAN_ENGINE\BULLET3-2.86.1\BIN\TEST_PHYSICSSERVERLOOPBACK_VS2010_DEBUG.PDB
