^C:\USERS\ANTONINO\DESKTOP\VULKAN_ENGINE\BULLET3-2.86.1\TEST\SHAREDMEMORY\TEST.C
/c /I..\..\SRC /I..\..\EXAMPLES /I..\..\EXAMPLES\THIRDPARTYLIBS /Zi /nologo /W3 /WX- /Od /Oy- /D _DEBUG=1 /D PHYSICS_SERVER_DIRECT /D _MBCS /Gm- /EHsc /RTC1 /MTd /GS /Gy /fp:fast /Zc:wchar_t /Zc:forScope /Zc:inline /Fo"OBJ\X32\DEBUG\TEST_PHYSICSSERVERDIRECT\\" /Fd"..\..\BIN\TEST_PHYSICSSERVERDIRECT_VS2010_DEBUG.PDB" /Gd /TC /analyze- /wd4244 /wd4267  C:\USERS\ANTONINO\DESKTOP\VULKAN_ENGINE\BULLET3-2.86.1\TEST\SHAREDMEMORY\TEST.C
^C:\USERS\ANTONINO\DESKTOP\VULKAN_ENGINE\BULLET3-2.86.1\EXAMPLES\SHAREDMEMORY\IKTRAJECTORYHELPER.CPP
/c /I..\..\SRC /I..\..\EXAMPLES /I..\..\EXAMPLES\THIRDPARTYLIBS /Zi /nologo /W3 /WX- /Od /Oy- /D _DEBUG=1 /D PHYSICS_SERVER_DIRECT /D _MBCS /Gm- /EHsc /RTC1 /MTd /GS /Gy /fp:fast /Zc:wchar_t /Zc:forScope /Zc:inline /Fo"OBJ\X32\DEBUG\TEST_PHYSICSSERVERDIRECT\\" /Fd"..\..\BIN\TEST_PHYSICSSERVERDIRECT_VS2010_DEBUG.PDB" /Gd /TP /analyze- /wd4244 /wd4267  C:\USERS\ANTONINO\DESKTOP\VULKAN_ENGINE\BULLET3-2.86.1\EXAMPLES\SHAREDMEMORY\IKTRAJECTORYHELPER.CPP
^C:\USERS\ANTONINO\DESKTOP\VULKAN_ENGINE\BULLET3-2.86.1\EXAMPLES\SHAREDMEMORY\PHYSICSCLIENT.CPP
/c /I..\..\SRC /I..\..\EXAMPLES /I..\..\EXAMPLES\THIRDPARTYLIBS /Zi /nologo /W3 /WX- /Od /Oy- /D _DEBUG=1 /D PHYSICS_SERVER_DIRECT /D _MBCS /Gm- /EHsc /RTC1 /MTd /GS /Gy /fp:fast /Zc:wchar_t /Zc:forScope /Zc:inline /Fo"OBJ\X32\DEBUG\TEST_PHYSICSSERVERDIRECT\\" /Fd"..\..\BIN\TEST_PHYSICSSERVERDIRECT_VS2010_DEBUG.PDB" /Gd /TP /analyze- /wd4244 /wd4267  C:\USERS\ANTONINO\DESKTOP\VULKAN_ENGINE\BULLET3-2.86.1\EXAMPLES\SHAREDMEMORY\PHYSICSCLIENT.CPP
^C:\USERS\ANTONINO\DESKTOP\VULKAN_ENGINE\BULLET3-2.86.1\EXAMPLES\SHAREDMEMORY\PHYSICSSERVER.CPP
/c /I..\..\SRC /I..\..\EXAMPLES /I..\..\EXAMPLES\THIRDPARTYLIBS /Zi /nologo /W3 /WX- /Od /Oy- /D _DEBUG=1 /D PHYSICS_SERVER_DIRECT /D _MBCS /Gm- /EHsc /RTC1 /MTd /GS /Gy /fp:fast /Zc:wchar_t /Zc:forScope /Zc:inline /Fo"OBJ\X32\DEBUG\TEST_PHYSICSSERVERDIRECT\\" /Fd"..\..\BIN\TEST_PHYSICSSERVERDIRECT_VS2010_DEBUG.PDB" /Gd /TP /analyze- /wd4244 /wd4267  C:\USERS\ANTONINO\DESKTOP\VULKAN_ENGINE\BULLET3-2.86.1\EXAMPLES\SHAREDMEMORY\PHYSICSSERVER.CPP
^C:\USERS\ANTONINO\DESKTOP\VULKAN_ENGINE\BULLET3-2.86.1\EXAMPLES\SHAREDMEMORY\PHYSICSSERVERSHAREDMEMORY.CPP
/c /I..\..\SRC /I..\..\EXAMPLES /I..\..\EXAMPLES\THIRDPARTYLIBS /Zi /nologo /W3 /WX- /Od /Oy- /D _DEBUG=1 /D PHYSICS_SERVER_DIRECT /D _MBCS /Gm- /EHsc /RTC1 /MTd /GS /Gy /fp:fast /Zc:wchar_t /Zc:forScope /Zc:inline /Fo"OBJ\X32\DEBUG\TEST_PHYSICSSERVERDIRECT\\" /Fd"..\..\BIN\TEST_PHYSICSSERVERDIRECT_VS2010_DEBUG.PDB" /Gd /TP /analyze- /wd4244 /wd4267  C:\USERS\ANTONINO\DESKTOP\VULKAN_ENGINE\BULLET3-2.86.1\EXAMPLES\SHAREDMEMORY\PHYSICSSERVERSHAREDMEMORY.CPP
^C:\USERS\ANTONINO\DESKTOP\VULKAN_ENGINE\BULLET3-2.86.1\EXAMPLES\SHAREDMEMORY\PHYSICSDIRECT.CPP
/c /I..\..\SRC /I..\..\EXAMPLES /I..\..\EXAMPLES\THIRDPARTYLIBS /Zi /nologo /W3 /WX- /Od /Oy- /D _DEBUG=1 /D PHYSICS_SERVER_DIRECT /D _MBCS /Gm- /EHsc /RTC1 /MTd /GS /Gy /fp:fast /Zc:wchar_t /Zc:forScope /Zc:inline /Fo"OBJ\X32\DEBUG\TEST_PHYSICSSERVERDIRECT\\" /Fd"..\..\BIN\TEST_PHYSICSSERVERDIRECT_VS2010_DEBUG.PDB" /Gd /TP /analyze- /wd4244 /wd4267  C:\USERS\ANTONINO\DESKTOP\VULKAN_ENGINE\BULLET3-2.86.1\EXAMPLES\SHAREDMEMORY\PHYSICSDIRECT.CPP
^C:\USERS\ANTONINO\DESKTOP\VULKAN_ENGINE\BULLET3-2.86.1\EXAMPLES\SHAREDMEMORY\PHYSICSDIRECTC_API.CPP
/c /I..\..\SRC /I..\..\EXAMPLES /I..\..\EXAMPLES\THIRDPARTYLIBS /Zi /nologo /W3 /WX- /Od /Oy- /D _DEBUG=1 /D PHYSICS_SERVER_DIRECT /D _MBCS /Gm- /EHsc /RTC1 /MTd /GS /Gy /fp:fast /Zc:wchar_t /Zc:forScope /Zc:inline /Fo"OBJ\X32\DEBUG\TEST_PHYSICSSERVERDIRECT\\" /Fd"..\..\BIN\TEST_PHYSICSSERVERDIRECT_VS2010_DEBUG.PDB" /Gd /TP /analyze- /wd4244 /wd4267  C:\USERS\ANTONINO\DESKTOP\VULKAN_ENGINE\BULLET3-2.86.1\EXAMPLES\SHAREDMEMORY\PHYSICSDIRECTC_API.CPP
^C:\USERS\ANTONINO\DESKTOP\VULKAN_ENGINE\BULLET3-2.86.1\EXAMPLES\SHAREDMEMORY\PHYSICSSERVERCOMMANDPROCESSOR.CPP
/c /I..\..\SRC /I..\..\EXAMPLES /I..\..\EXAMPLES\THIRDPARTYLIBS /Zi /nologo /W3 /WX- /Od /Oy- /D _DEBUG=1 /D PHYSICS_SERVER_DIRECT /D _MBCS /Gm- /EHsc /RTC1 /MTd /GS /Gy /fp:fast /Zc:wchar_t /Zc:forScope /Zc:inline /Fo"OBJ\X32\DEBUG\TEST_PHYSICSSERVERDIRECT\\" /Fd"..\..\BIN\TEST_PHYSICSSERVERDIRECT_VS2010_DEBUG.PDB" /Gd /TP /analyze- /wd4244 /wd4267  C:\USERS\ANTONINO\DESKTOP\VULKAN_ENGINE\BULLET3-2.86.1\EXAMPLES\SHAREDMEMORY\PHYSICSSERVERCOMMANDPROCESSOR.CPP
^C:\USERS\ANTONINO\DESKTOP\VULKAN_ENGINE\BULLET3-2.86.1\EXAMPLES\SHAREDMEMORY\PHYSICSCLIENTSHAREDMEMORY.CPP
/c /I..\..\SRC /I..\..\EXAMPLES /I..\..\EXAMPLES\THIRDPARTYLIBS /Zi /nologo /W3 /WX- /Od /Oy- /D _DEBUG=1 /D PHYSICS_SERVER_DIRECT /D _MBCS /Gm- /EHsc /RTC1 /MTd /GS /Gy /fp:fast /Zc:wchar_t /Zc:forScope /Zc:inline /Fo"OBJ\X32\DEBUG\TEST_PHYSICSSERVERDIRECT\\" /Fd"..\..\BIN\TEST_PHYSICSSERVERDIRECT_VS2010_DEBUG.PDB" /Gd /TP /analyze- /wd4244 /wd4267  C:\USERS\ANTONINO\DESKTOP\VULKAN_ENGINE\BULLET3-2.86.1\EXAMPLES\SHAREDMEMORY\PHYSICSCLIENTSHAREDMEMORY.CPP
^C:\USERS\ANTONINO\DESKTOP\VULKAN_ENGINE\BULLET3-2.86.1\EXAMPLES\SHAREDMEMORY\PHYSICSCLIENTC_API.CPP
/c /I..\..\SRC /I..\..\EXAMPLES /I..\..\EXAMPLES\THIRDPARTYLIBS /Zi /nologo /W3 /WX- /Od /Oy- /D _DEBUG=1 /D PHYSICS_SERVER_DIRECT /D _MBCS /Gm- /EHsc /RTC1 /MTd /GS /Gy /fp:fast /Zc:wchar_t /Zc:forScope /Zc:inline /Fo"OBJ\X32\DEBUG\TEST_PHYSICSSERVERDIRECT\\" /Fd"..\..\BIN\TEST_PHYSICSSERVERDIRECT_VS2010_DEBUG.PDB" /Gd /TP /analyze- /wd4244 /wd4267  C:\USERS\ANTONINO\DESKTOP\VULKAN_ENGINE\BULLET3-2.86.1\EXAMPLES\SHAREDMEMORY\PHYSICSCLIENTC_API.CPP
^C:\USERS\ANTONINO\DESKTOP\VULKAN_ENGINE\BULLET3-2.86.1\EXAMPLES\SHAREDMEMORY\WIN32SHAREDMEMORY.CPP
/c /I..\..\SRC /I..\..\EXAMPLES /I..\..\EXAMPLES\THIRDPARTYLIBS /Zi /nologo /W3 /WX- /Od /Oy- /D _DEBUG=1 /D PHYSICS_SERVER_DIRECT /D _MBCS /Gm- /EHsc /RTC1 /MTd /GS /Gy /fp:fast /Zc:wchar_t /Zc:forScope /Zc:inline /Fo"OBJ\X32\DEBUG\TEST_PHYSICSSERVERDIRECT\\" /Fd"..\..\BIN\TEST_PHYSICSSERVERDIRECT_VS2010_DEBUG.PDB" /Gd /TP /analyze- /wd4244 /wd4267  C:\USERS\ANTONINO\DESKTOP\VULKAN_ENGINE\BULLET3-2.86.1\EXAMPLES\SHAREDMEMORY\WIN32SHAREDMEMORY.CPP
^C:\USERS\ANTONINO\DESKTOP\VULKAN_ENGINE\BULLET3-2.86.1\EXAMPLES\SHAREDMEMORY\POSIXSHAREDMEMORY.CPP
/c /I..\..\SRC /I..\..\EXAMPLES /I..\..\EXAMPLES\THIRDPARTYLIBS /Zi /nologo /W3 /WX- /Od /Oy- /D _DEBUG=1 /D PHYSICS_SERVER_DIRECT /D _MBCS /Gm- /EHsc /RTC1 /MTd /GS /Gy /fp:fast /Zc:wchar_t /Zc:forScope /Zc:inline /Fo"OBJ\X32\DEBUG\TEST_PHYSICSSERVERDIRECT\\" /Fd"..\..\BIN\TEST_PHYSICSSERVERDIRECT_VS2010_DEBUG.PDB" /Gd /TP /analyze- /wd4244 /wd4267  C:\USERS\ANTONINO\DESKTOP\VULKAN_ENGINE\BULLET3-2.86.1\EXAMPLES\SHAREDMEMORY\POSIXSHAREDMEMORY.CPP
^C:\USERS\ANTONINO\DESKTOP\VULKAN_ENGINE\BULLET3-2.86.1\EXAMPLES\SHAREDMEMORY\TINYRENDERERVISUALSHAPECONVERTER.CPP
/c /I..\..\SRC /I..\..\EXAMPLES /I..\..\EXAMPLES\THIRDPARTYLIBS /Zi /nologo /W3 /WX- /Od /Oy- /D _DEBUG=1 /D PHYSICS_SERVER_DIRECT /D _MBCS /Gm- /EHsc /RTC1 /MTd /GS /Gy /fp:fast /Zc:wchar_t /Zc:forScope /Zc:inline /Fo"OBJ\X32\DEBUG\TEST_PHYSICSSERVERDIRECT\\" /Fd"..\..\BIN\TEST_PHYSICSSERVERDIRECT_VS2010_DEBUG.PDB" /Gd /TP /analyze- /wd4244 /wd4267  C:\USERS\ANTONINO\DESKTOP\VULKAN_ENGINE\BULLET3-2.86.1\EXAMPLES\SHAREDMEMORY\TINYRENDERERVISUALSHAPECONVERTER.CPP
^C:\USERS\ANTONINO\DESKTOP\VULKAN_ENGINE\BULLET3-2.86.1\EXAMPLES\TINYRENDERER\GEOMETRY.CPP
/c /I..\..\SRC /I..\..\EXAMPLES /I..\..\EXAMPLES\THIRDPARTYLIBS /Zi /nologo /W3 /WX- /Od /Oy- /D _DEBUG=1 /D PHYSICS_SERVER_DIRECT /D _MBCS /Gm- /EHsc /RTC1 /MTd /GS /Gy /fp:fast /Zc:wchar_t /Zc:forScope /Zc:inline /Fo"OBJ\X32\DEBUG\TEST_PHYSICSSERVERDIRECT\\" /Fd"..\..\BIN\TEST_PHYSICSSERVERDIRECT_VS2010_DEBUG.PDB" /Gd /TP /analyze- /wd4244 /wd4267  C:\USERS\ANTONINO\DESKTOP\VULKAN_ENGINE\BULLET3-2.86.1\EXAMPLES\TINYRENDERER\GEOMETRY.CPP
^C:\USERS\ANTONINO\DESKTOP\VULKAN_ENGINE\BULLET3-2.86.1\EXAMPLES\TINYRENDERER\MODEL.CPP
/c /I..\..\SRC /I..\..\EXAMPLES /I..\..\EXAMPLES\THIRDPARTYLIBS /Zi /nologo /W3 /WX- /Od /Oy- /D _DEBUG=1 /D PHYSICS_SERVER_DIRECT /D _MBCS /Gm- /EHsc /RTC1 /MTd /GS /Gy /fp:fast /Zc:wchar_t /Zc:forScope /Zc:inline /Fo"OBJ\X32\DEBUG\TEST_PHYSICSSERVERDIRECT\\" /Fd"..\..\BIN\TEST_PHYSICSSERVERDIRECT_VS2010_DEBUG.PDB" /Gd /TP /analyze- /wd4244 /wd4267  C:\USERS\ANTONINO\DESKTOP\VULKAN_ENGINE\BULLET3-2.86.1\EXAMPLES\TINYRENDERER\MODEL.CPP
^C:\USERS\ANTONINO\DESKTOP\VULKAN_ENGINE\BULLET3-2.86.1\EXAMPLES\TINYRENDERER\TGAIMAGE.CPP
/c /I..\..\SRC /I..\..\EXAMPLES /I..\..\EXAMPLES\THIRDPARTYLIBS /Zi /nologo /W3 /WX- /Od /Oy- /D _DEBUG=1 /D PHYSICS_SERVER_DIRECT /D _MBCS /Gm- /EHsc /RTC1 /MTd /GS /Gy /fp:fast /Zc:wchar_t /Zc:forScope /Zc:inline /Fo"OBJ\X32\DEBUG\TEST_PHYSICSSERVERDIRECT\\" /Fd"..\..\BIN\TEST_PHYSICSSERVERDIRECT_VS2010_DEBUG.PDB" /Gd /TP /analyze- /wd4244 /wd4267  C:\USERS\ANTONINO\DESKTOP\VULKAN_ENGINE\BULLET3-2.86.1\EXAMPLES\TINYRENDERER\TGAIMAGE.CPP
^C:\USERS\ANTONINO\DESKTOP\VULKAN_ENGINE\BULLET3-2.86.1\EXAMPLES\TINYRENDERER\OUR_GL.CPP
/c /I..\..\SRC /I..\..\EXAMPLES /I..\..\EXAMPLES\THIRDPARTYLIBS /Zi /nologo /W3 /WX- /Od /Oy- /D _DEBUG=1 /D PHYSICS_SERVER_DIRECT /D _MBCS /Gm- /EHsc /RTC1 /MTd /GS /Gy /fp:fast /Zc:wchar_t /Zc:forScope /Zc:inline /Fo"OBJ\X32\DEBUG\TEST_PHYSICSSERVERDIRECT\\" /Fd"..\..\BIN\TEST_PHYSICSSERVERDIRECT_VS2010_DEBUG.PDB" /Gd /TP /analyze- /wd4244 /wd4267  C:\USERS\ANTONINO\DESKTOP\VULKAN_ENGINE\BULLET3-2.86.1\EXAMPLES\TINYRENDERER\OUR_GL.CPP
^C:\USERS\ANTONINO\DESKTOP\VULKAN_ENGINE\BULLET3-2.86.1\EXAMPLES\TINYRENDERER\TINYRENDERER.CPP
/c /I..\..\SRC /I..\..\EXAMPLES /I..\..\EXAMPLES\THIRDPARTYLIBS /Zi /nologo /W3 /WX- /Od /Oy- /D _DEBUG=1 /D PHYSICS_SERVER_DIRECT /D _MBCS /Gm- /EHsc /RTC1 /MTd /GS /Gy /fp:fast /Zc:wchar_t /Zc:forScope /Zc:inline /Fo"OBJ\X32\DEBUG\TEST_PHYSICSSERVERDIRECT\\" /Fd"..\..\BIN\TEST_PHYSICSSERVERDIRECT_VS2010_DEBUG.PDB" /Gd /TP /analyze- /wd4244 /wd4267  C:\USERS\ANTONINO\DESKTOP\VULKAN_ENGINE\BULLET3-2.86.1\EXAMPLES\TINYRENDERER\TINYRENDERER.CPP
^C:\USERS\ANTONINO\DESKTOP\VULKAN_ENGINE\BULLET3-2.86.1\EXAMPLES\OPENGLWINDOW\SIMPLECAMERA.CPP
/c /I..\..\SRC /I..\..\EXAMPLES /I..\..\EXAMPLES\THIRDPARTYLIBS /Zi /nologo /W3 /WX- /Od /Oy- /D _DEBUG=1 /D PHYSICS_SERVER_DIRECT /D _MBCS /Gm- /EHsc /RTC1 /MTd /GS /Gy /fp:fast /Zc:wchar_t /Zc:forScope /Zc:inline /Fo"OBJ\X32\DEBUG\TEST_PHYSICSSERVERDIRECT\\" /Fd"..\..\BIN\TEST_PHYSICSSERVERDIRECT_VS2010_DEBUG.PDB" /Gd /TP /analyze- /wd4244 /wd4267  C:\USERS\ANTONINO\DESKTOP\VULKAN_ENGINE\BULLET3-2.86.1\EXAMPLES\OPENGLWINDOW\SIMPLECAMERA.CPP
^C:\USERS\ANTONINO\DESKTOP\VULKAN_ENGINE\BULLET3-2.86.1\EXAMPLES\UTILS\B3RESOURCEPATH.CPP
/c /I..\..\SRC /I..\..\EXAMPLES /I..\..\EXAMPLES\THIRDPARTYLIBS /Zi /nologo /W3 /WX- /Od /Oy- /D _DEBUG=1 /D PHYSICS_SERVER_DIRECT /D _MBCS /Gm- /EHsc /RTC1 /MTd /GS /Gy /fp:fast /Zc:wchar_t /Zc:forScope /Zc:inline /Fo"OBJ\X32\DEBUG\TEST_PHYSICSSERVERDIRECT\\" /Fd"..\..\BIN\TEST_PHYSICSSERVERDIRECT_VS2010_DEBUG.PDB" /Gd /TP /analyze- /wd4244 /wd4267  C:\USERS\ANTONINO\DESKTOP\VULKAN_ENGINE\BULLET3-2.86.1\EXAMPLES\UTILS\B3RESOURCEPATH.CPP
^C:\USERS\ANTONINO\DESKTOP\VULKAN_ENGINE\BULLET3-2.86.1\EXAMPLES\UTILS\ROBOTLOGGINGUTIL.CPP
/c /I..\..\SRC /I..\..\EXAMPLES /I..\..\EXAMPLES\THIRDPARTYLIBS /Zi /nologo /W3 /WX- /Od /Oy- /D _DEBUG=1 /D PHYSICS_SERVER_DIRECT /D _MBCS /Gm- /EHsc /RTC1 /MTd /GS /Gy /fp:fast /Zc:wchar_t /Zc:forScope /Zc:inline /Fo"OBJ\X32\DEBUG\TEST_PHYSICSSERVERDIRECT\\" /Fd"..\..\BIN\TEST_PHYSICSSERVERDIRECT_VS2010_DEBUG.PDB" /Gd /TP /analyze- /wd4244 /wd4267  C:\USERS\ANTONINO\DESKTOP\VULKAN_ENGINE\BULLET3-2.86.1\EXAMPLES\UTILS\ROBOTLOGGINGUTIL.CPP
^C:\USERS\ANTONINO\DESKTOP\VULKAN_ENGINE\BULLET3-2.86.1\EXAMPLES\THIRDPARTYLIBS\TINYXML\TINYSTR.CPP
/c /I..\..\SRC /I..\..\EXAMPLES /I..\..\EXAMPLES\THIRDPARTYLIBS /Zi /nologo /W3 /WX- /Od /Oy- /D _DEBUG=1 /D PHYSICS_SERVER_DIRECT /D _MBCS /Gm- /EHsc /RTC1 /MTd /GS /Gy /fp:fast /Zc:wchar_t /Zc:forScope /Zc:inline /Fo"OBJ\X32\DEBUG\TEST_PHYSICSSERVERDIRECT\\" /Fd"..\..\BIN\TEST_PHYSICSSERVERDIRECT_VS2010_DEBUG.PDB" /Gd /TP /analyze- /wd4244 /wd4267  C:\USERS\ANTONINO\DESKTOP\VULKAN_ENGINE\BULLET3-2.86.1\EXAMPLES\THIRDPARTYLIBS\TINYXML\TINYSTR.CPP
^C:\USERS\ANTONINO\DESKTOP\VULKAN_ENGINE\BULLET3-2.86.1\EXAMPLES\THIRDPARTYLIBS\TINYXML\TINYXML.CPP
/c /I..\..\SRC /I..\..\EXAMPLES /I..\..\EXAMPLES\THIRDPARTYLIBS /Zi /nologo /W3 /WX- /Od /Oy- /D _DEBUG=1 /D PHYSICS_SERVER_DIRECT /D _MBCS /Gm- /EHsc /RTC1 /MTd /GS /Gy /fp:fast /Zc:wchar_t /Zc:forScope /Zc:inline /Fo"OBJ\X32\DEBUG\TEST_PHYSICSSERVERDIRECT\\" /Fd"..\..\BIN\TEST_PHYSICSSERVERDIRECT_VS2010_DEBUG.PDB" /Gd /TP /analyze- /wd4244 /wd4267  C:\USERS\ANTONINO\DESKTOP\VULKAN_ENGINE\BULLET3-2.86.1\EXAMPLES\THIRDPARTYLIBS\TINYXML\TINYXML.CPP
^C:\USERS\ANTONINO\DESKTOP\VULKAN_ENGINE\BULLET3-2.86.1\EXAMPLES\THIRDPARTYLIBS\TINYXML\TINYXMLERROR.CPP
/c /I..\..\SRC /I..\..\EXAMPLES /I..\..\EXAMPLES\THIRDPARTYLIBS /Zi /nologo /W3 /WX- /Od /Oy- /D _DEBUG=1 /D PHYSICS_SERVER_DIRECT /D _MBCS /Gm- /EHsc /RTC1 /MTd /GS /Gy /fp:fast /Zc:wchar_t /Zc:forScope /Zc:inline /Fo"OBJ\X32\DEBUG\TEST_PHYSICSSERVERDIRECT\\" /Fd"..\..\BIN\TEST_PHYSICSSERVERDIRECT_VS2010_DEBUG.PDB" /Gd /TP /analyze- /wd4244 /wd4267  C:\USERS\ANTONINO\DESKTOP\VULKAN_ENGINE\BULLET3-2.86.1\EXAMPLES\THIRDPARTYLIBS\TINYXML\TINYXMLERROR.CPP
^C:\USERS\ANTONINO\DESKTOP\VULKAN_ENGINE\BULLET3-2.86.1\EXAMPLES\THIRDPARTYLIBS\TINYXML\TINYXMLPARSER.CPP
/c /I..\..\SRC /I..\..\EXAMPLES /I..\..\EXAMPLES\THIRDPARTYLIBS /Zi /nologo /W3 /WX- /Od /Oy- /D _DEBUG=1 /D PHYSICS_SERVER_DIRECT /D _MBCS /Gm- /EHsc /RTC1 /MTd /GS /Gy /fp:fast /Zc:wchar_t /Zc:forScope /Zc:inline /Fo"OBJ\X32\DEBUG\TEST_PHYSICSSERVERDIRECT\\" /Fd"..\..\BIN\TEST_PHYSICSSERVERDIRECT_VS2010_DEBUG.PDB" /Gd /TP /analyze- /wd4244 /wd4267  C:\USERS\ANTONINO\DESKTOP\VULKAN_ENGINE\BULLET3-2.86.1\EXAMPLES\THIRDPARTYLIBS\TINYXML\TINYXMLPARSER.CPP
^C:\USERS\ANTONINO\DESKTOP\VULKAN_ENGINE\BULLET3-2.86.1\EXAMPLES\THIRDPARTYLIBS\WAVEFRONT\TINY_OBJ_LOADER.CPP
/c /I..\..\SRC /I..\..\EXAMPLES /I..\..\EXAMPLES\THIRDPARTYLIBS /Zi /nologo /W3 /WX- /Od /Oy- /D _DEBUG=1 /D PHYSICS_SERVER_DIRECT /D _MBCS /Gm- /EHsc /RTC1 /MTd /GS /Gy /fp:fast /Zc:wchar_t /Zc:forScope /Zc:inline /Fo"OBJ\X32\DEBUG\TEST_PHYSICSSERVERDIRECT\\" /Fd"..\..\BIN\TEST_PHYSICSSERVERDIRECT_VS2010_DEBUG.PDB" /Gd /TP /analyze- /wd4244 /wd4267  C:\USERS\ANTONINO\DESKTOP\VULKAN_ENGINE\BULLET3-2.86.1\EXAMPLES\THIRDPARTYLIBS\WAVEFRONT\TINY_OBJ_LOADER.CPP
^C:\USERS\ANTONINO\DESKTOP\VULKAN_ENGINE\BULLET3-2.86.1\EXAMPLES\IMPORTERS\IMPORTCOLLADADEMO\LOADMESHFROMCOLLADA.CPP
/c /I..\..\SRC /I..\..\EXAMPLES /I..\..\EXAMPLES\THIRDPARTYLIBS /Zi /nologo /W3 /WX- /Od /Oy- /D _DEBUG=1 /D PHYSICS_SERVER_DIRECT /D _MBCS /Gm- /EHsc /RTC1 /MTd /GS /Gy /fp:fast /Zc:wchar_t /Zc:forScope /Zc:inline /Fo"OBJ\X32\DEBUG\TEST_PHYSICSSERVERDIRECT\\" /Fd"..\..\BIN\TEST_PHYSICSSERVERDIRECT_VS2010_DEBUG.PDB" /Gd /TP /analyze- /wd4244 /wd4267  C:\USERS\ANTONINO\DESKTOP\VULKAN_ENGINE\BULLET3-2.86.1\EXAMPLES\IMPORTERS\IMPORTCOLLADADEMO\LOADMESHFROMCOLLADA.CPP
^C:\USERS\ANTONINO\DESKTOP\VULKAN_ENGINE\BULLET3-2.86.1\EXAMPLES\IMPORTERS\IMPORTOBJDEMO\LOADMESHFROMOBJ.CPP
/c /I..\..\SRC /I..\..\EXAMPLES /I..\..\EXAMPLES\THIRDPARTYLIBS /Zi /nologo /W3 /WX- /Od /Oy- /D _DEBUG=1 /D PHYSICS_SERVER_DIRECT /D _MBCS /Gm- /EHsc /RTC1 /MTd /GS /Gy /fp:fast /Zc:wchar_t /Zc:forScope /Zc:inline /Fo"OBJ\X32\DEBUG\TEST_PHYSICSSERVERDIRECT\\" /Fd"..\..\BIN\TEST_PHYSICSSERVERDIRECT_VS2010_DEBUG.PDB" /Gd /TP /analyze- /wd4244 /wd4267  C:\USERS\ANTONINO\DESKTOP\VULKAN_ENGINE\BULLET3-2.86.1\EXAMPLES\IMPORTERS\IMPORTOBJDEMO\LOADMESHFROMOBJ.CPP
^C:\USERS\ANTONINO\DESKTOP\VULKAN_ENGINE\BULLET3-2.86.1\EXAMPLES\IMPORTERS\IMPORTOBJDEMO\WAVEFRONT2GLINSTANCEGRAPHICSSHAPE.CPP
/c /I..\..\SRC /I..\..\EXAMPLES /I..\..\EXAMPLES\THIRDPARTYLIBS /Zi /nologo /W3 /WX- /Od /Oy- /D _DEBUG=1 /D PHYSICS_SERVER_DIRECT /D _MBCS /Gm- /EHsc /RTC1 /MTd /GS /Gy /fp:fast /Zc:wchar_t /Zc:forScope /Zc:inline /Fo"OBJ\X32\DEBUG\TEST_PHYSICSSERVERDIRECT\\" /Fd"..\..\BIN\TEST_PHYSICSSERVERDIRECT_VS2010_DEBUG.PDB" /Gd /TP /analyze- /wd4244 /wd4267  C:\USERS\ANTONINO\DESKTOP\VULKAN_ENGINE\BULLET3-2.86.1\EXAMPLES\IMPORTERS\IMPORTOBJDEMO\WAVEFRONT2GLINSTANCEGRAPHICSSHAPE.CPP
^C:\USERS\ANTONINO\DESKTOP\VULKAN_ENGINE\BULLET3-2.86.1\EXAMPLES\IMPORTERS\IMPORTMJCFDEMO\BULLETMJCFIMPORTER.CPP
/c /I..\..\SRC /I..\..\EXAMPLES /I..\..\EXAMPLES\THIRDPARTYLIBS /Zi /nologo /W3 /WX- /Od /Oy- /D _DEBUG=1 /D PHYSICS_SERVER_DIRECT /D _MBCS /Gm- /EHsc /RTC1 /MTd /GS /Gy /fp:fast /Zc:wchar_t /Zc:forScope /Zc:inline /Fo"OBJ\X32\DEBUG\TEST_PHYSICSSERVERDIRECT\\" /Fd"..\..\BIN\TEST_PHYSICSSERVERDIRECT_VS2010_DEBUG.PDB" /Gd /TP /analyze- /wd4244 /wd4267  C:\USERS\ANTONINO\DESKTOP\VULKAN_ENGINE\BULLET3-2.86.1\EXAMPLES\IMPORTERS\IMPORTMJCFDEMO\BULLETMJCFIMPORTER.CPP
^C:\USERS\ANTONINO\DESKTOP\VULKAN_ENGINE\BULLET3-2.86.1\EXAMPLES\IMPORTERS\IMPORTURDFDEMO\BULLETURDFIMPORTER.CPP
/c /I..\..\SRC /I..\..\EXAMPLES /I..\..\EXAMPLES\THIRDPARTYLIBS /Zi /nologo /W3 /WX- /Od /Oy- /D _DEBUG=1 /D PHYSICS_SERVER_DIRECT /D _MBCS /Gm- /EHsc /RTC1 /MTd /GS /Gy /fp:fast /Zc:wchar_t /Zc:forScope /Zc:inline /Fo"OBJ\X32\DEBUG\TEST_PHYSICSSERVERDIRECT\\" /Fd"..\..\BIN\TEST_PHYSICSSERVERDIRECT_VS2010_DEBUG.PDB" /Gd /TP /analyze- /wd4244 /wd4267  C:\USERS\ANTONINO\DESKTOP\VULKAN_ENGINE\BULLET3-2.86.1\EXAMPLES\IMPORTERS\IMPORTURDFDEMO\BULLETURDFIMPORTER.CPP
^C:\USERS\ANTONINO\DESKTOP\VULKAN_ENGINE\BULLET3-2.86.1\EXAMPLES\IMPORTERS\IMPORTURDFDEMO\MYMULTIBODYCREATOR.CPP
/c /I..\..\SRC /I..\..\EXAMPLES /I..\..\EXAMPLES\THIRDPARTYLIBS /Zi /nologo /W3 /WX- /Od /Oy- /D _DEBUG=1 /D PHYSICS_SERVER_DIRECT /D _MBCS /Gm- /EHsc /RTC1 /MTd /GS /Gy /fp:fast /Zc:wchar_t /Zc:forScope /Zc:inline /Fo"OBJ\X32\DEBUG\TEST_PHYSICSSERVERDIRECT\\" /Fd"..\..\BIN\TEST_PHYSICSSERVERDIRECT_VS2010_DEBUG.PDB" /Gd /TP /analyze- /wd4244 /wd4267  C:\USERS\ANTONINO\DESKTOP\VULKAN_ENGINE\BULLET3-2.86.1\EXAMPLES\IMPORTERS\IMPORTURDFDEMO\MYMULTIBODYCREATOR.CPP
^C:\USERS\ANTONINO\DESKTOP\VULKAN_ENGINE\BULLET3-2.86.1\EXAMPLES\IMPORTERS\IMPORTURDFDEMO\URDF2BULLET.CPP
/c /I..\..\SRC /I..\..\EXAMPLES /I..\..\EXAMPLES\THIRDPARTYLIBS /Zi /nologo /W3 /WX- /Od /Oy- /D _DEBUG=1 /D PHYSICS_SERVER_DIRECT /D _MBCS /Gm- /EHsc /RTC1 /MTd /GS /Gy /fp:fast /Zc:wchar_t /Zc:forScope /Zc:inline /Fo"OBJ\X32\DEBUG\TEST_PHYSICSSERVERDIRECT\\" /Fd"..\..\BIN\TEST_PHYSICSSERVERDIRECT_VS2010_DEBUG.PDB" /Gd /TP /analyze- /wd4244 /wd4267  C:\USERS\ANTONINO\DESKTOP\VULKAN_ENGINE\BULLET3-2.86.1\EXAMPLES\IMPORTERS\IMPORTURDFDEMO\URDF2BULLET.CPP
^C:\USERS\ANTONINO\DESKTOP\VULKAN_ENGINE\BULLET3-2.86.1\EXAMPLES\IMPORTERS\IMPORTURDFDEMO\URDFPARSER.CPP
/c /I..\..\SRC /I..\..\EXAMPLES /I..\..\EXAMPLES\THIRDPARTYLIBS /Zi /nologo /W3 /WX- /Od /Oy- /D _DEBUG=1 /D PHYSICS_SERVER_DIRECT /D _MBCS /Gm- /EHsc /RTC1 /MTd /GS /Gy /fp:fast /Zc:wchar_t /Zc:forScope /Zc:inline /Fo"OBJ\X32\DEBUG\TEST_PHYSICSSERVERDIRECT\\" /Fd"..\..\BIN\TEST_PHYSICSSERVERDIRECT_VS2010_DEBUG.PDB" /Gd /TP /analyze- /wd4244 /wd4267  C:\USERS\ANTONINO\DESKTOP\VULKAN_ENGINE\BULLET3-2.86.1\EXAMPLES\IMPORTERS\IMPORTURDFDEMO\URDFPARSER.CPP
^C:\USERS\ANTONINO\DESKTOP\VULKAN_ENGINE\BULLET3-2.86.1\EXAMPLES\IMPORTERS\IMPORTURDFDEMO\URDFSTRINGSPLIT.CPP
/c /I..\..\SRC /I..\..\EXAMPLES /I..\..\EXAMPLES\THIRDPARTYLIBS /Zi /nologo /W3 /WX- /Od /Oy- /D _DEBUG=1 /D PHYSICS_SERVER_DIRECT /D _MBCS /Gm- /EHsc /RTC1 /MTd /GS /Gy /fp:fast /Zc:wchar_t /Zc:forScope /Zc:inline /Fo"OBJ\X32\DEBUG\TEST_PHYSICSSERVERDIRECT\\" /Fd"..\..\BIN\TEST_PHYSICSSERVERDIRECT_VS2010_DEBUG.PDB" /Gd /TP /analyze- /wd4244 /wd4267  C:\USERS\ANTONINO\DESKTOP\VULKAN_ENGINE\BULLET3-2.86.1\EXAMPLES\IMPORTERS\IMPORTURDFDEMO\URDFSTRINGSPLIT.CPP
^C:\USERS\ANTONINO\DESKTOP\VULKAN_ENGINE\BULLET3-2.86.1\EXAMPLES\IMPORTERS\IMPORTMESHUTILITY\B3IMPORTMESHUTILITY.CPP
/c /I..\..\SRC /I..\..\EXAMPLES /I..\..\EXAMPLES\THIRDPARTYLIBS /Zi /nologo /W3 /WX- /Od /Oy- /D _DEBUG=1 /D PHYSICS_SERVER_DIRECT /D _MBCS /Gm- /EHsc /RTC1 /MTd /GS /Gy /fp:fast /Zc:wchar_t /Zc:forScope /Zc:inline /Fo"OBJ\X32\DEBUG\TEST_PHYSICSSERVERDIRECT\\" /Fd"..\..\BIN\TEST_PHYSICSSERVERDIRECT_VS2010_DEBUG.PDB" /Gd /TP /analyze- /wd4244 /wd4267  C:\USERS\ANTONINO\DESKTOP\VULKAN_ENGINE\BULLET3-2.86.1\EXAMPLES\IMPORTERS\IMPORTMESHUTILITY\B3IMPORTMESHUTILITY.CPP
^C:\USERS\ANTONINO\DESKTOP\VULKAN_ENGINE\BULLET3-2.86.1\EXAMPLES\THIRDPARTYLIBS\STB_IMAGE\STB_IMAGE.CPP
/c /I..\..\SRC /I..\..\EXAMPLES /I..\..\EXAMPLES\THIRDPARTYLIBS /Zi /nologo /W3 /WX- /Od /Oy- /D _DEBUG=1 /D PHYSICS_SERVER_DIRECT /D _MBCS /Gm- /EHsc /RTC1 /MTd /GS /Gy /fp:fast /Zc:wchar_t /Zc:forScope /Zc:inline /Fo"OBJ\X32\DEBUG\TEST_PHYSICSSERVERDIRECT\\" /Fd"..\..\BIN\TEST_PHYSICSSERVERDIRECT_VS2010_DEBUG.PDB" /Gd /TP /analyze- /wd4244 /wd4267  C:\USERS\ANTONINO\DESKTOP\VULKAN_ENGINE\BULLET3-2.86.1\EXAMPLES\THIRDPARTYLIBS\STB_IMAGE\STB_IMAGE.CPP
