^C:\USERS\ANTONINO\DESKTOP\VULKAN_ENGINE\BULLET3-2.86.1\BUILD3\VS2010\OBJ\X32\DEBUG\BULLET3DYNAMICS\B3CPURIGIDBODYPIPELINE.OBJ|C:\USERS\ANTONINO\DESKTOP\VULKAN_ENGINE\BULLET3-2.86.1\BUILD3\VS2010\OBJ\X32\DEBUG\BULLET3DYNAMICS\B3FIXEDCONSTRAINT.OBJ|C:\USERS\ANTONINO\DESKTOP\VULKAN_ENGINE\BULLET3-2.86.1\BUILD3\VS2010\OBJ\X32\DEBUG\BULLET3DYNAMICS\B3GENERIC6DOFCONSTRAINT.OBJ|C:\USERS\ANTONINO\DESKTOP\VULKAN_ENGINE\BULLET3-2.86.1\BUILD3\VS2010\OBJ\X32\DEBUG\BULLET3DYNAMICS\B3PGSJACOBISOLVER.OBJ|C:\USERS\ANTONINO\DESKTOP\VULKAN_ENGINE\BULLET3-2.86.1\BUILD3\VS2010\OBJ\X32\DEBUG\BULLET3DYNAMICS\B3POINT2POINTCONSTRAINT.OBJ|C:\USERS\ANTONINO\DESKTOP\VULKAN_ENGINE\BULLET3-2.86.1\BUILD3\VS2010\OBJ\X32\DEBUG\BULLET3DYNAMICS\B3TYPEDCONSTRAINT.OBJ
C:\WINDOWS\GLOBALIZATION\SORTING\SORTDEFAULT.NLS
C:\USERS\ANTONINO\DESKTOP\VULKAN_ENGINE\BULLET3-2.86.1\BUILD3\VS2010\OBJ\X32\DEBUG\BULLET3DYNAMICS\B3CPURIGIDBODYPIPELINE.OBJ
C:\WINDOWS\SYSTEM32\TZRES.DLL
C:\USERS\ANTONINO\DESKTOP\VULKAN_ENGINE\BULLET3-2.86.1\BUILD3\VS2010\OBJ\X32\DEBUG\BULLET3DYNAMICS\B3FIXEDCONSTRAINT.OBJ
C:\USERS\ANTONINO\DESKTOP\VULKAN_ENGINE\BULLET3-2.86.1\BUILD3\VS2010\OBJ\X32\DEBUG\BULLET3DYNAMICS\B3GENERIC6DOFCONSTRAINT.OBJ
C:\USERS\ANTONINO\DESKTOP\VULKAN_ENGINE\BULLET3-2.86.1\BUILD3\VS2010\OBJ\X32\DEBUG\BULLET3DYNAMICS\B3PGSJACOBISOLVER.OBJ
C:\USERS\ANTONINO\DESKTOP\VULKAN_ENGINE\BULLET3-2.86.1\BUILD3\VS2010\OBJ\X32\DEBUG\BULLET3DYNAMICS\B3POINT2POINTCONSTRAINT.OBJ
C:\USERS\ANTONINO\DESKTOP\VULKAN_ENGINE\BULLET3-2.86.1\BUILD3\VS2010\OBJ\X32\DEBUG\BULLET3DYNAMICS\B3TYPEDCONSTRAINT.OBJ
