^C:\USERS\ANTONINO\DESKTOP\VULKAN_ENGINE\BULLET3-2.86.1\EXTRAS\SERIALIZE\BULLETWORLDIMPORTER\BTBULLETWORLDIMPORTER.CPP
/c /I..\..\EXTRAS\SERIALIZE\BULLETFILELOADER /I..\..\SRC /Zi /nologo /W3 /WX- /Od /Oy- /D _DEBUG=1 /D _MBCS /Gm- /EHsc /RTC1 /MTd /GS /Gy /fp:fast /Zc:wchar_t /Zc:forScope /Zc:inline /Fo"OBJ\X32\DEBUG\BULLETWORLDIMPORTER\\" /Fd"..\..\BIN\BULLETWORLDIMPORTER_VS2010_DEBUG.PDB" /Gd /TP /analyze- /wd4244 /wd4267  C:\USERS\ANTONINO\DESKTOP\VULKAN_ENGINE\BULLET3-2.86.1\EXTRAS\SERIALIZE\BULLETWORLDIMPORTER\BTBULLETWORLDIMPORTER.CPP
^C:\USERS\ANTONINO\DESKTOP\VULKAN_ENGINE\BULLET3-2.86.1\EXTRAS\SERIALIZE\BULLETWORLDIMPORTER\BTWORLDIMPORTER.CPP
/c /I..\..\EXTRAS\SERIALIZE\BULLETFILELOADER /I..\..\SRC /Zi /nologo /W3 /WX- /Od /Oy- /D _DEBUG=1 /D _MBCS /Gm- /EHsc /RTC1 /MTd /GS /Gy /fp:fast /Zc:wchar_t /Zc:forScope /Zc:inline /Fo"OBJ\X32\DEBUG\BULLETWORLDIMPORTER\\" /Fd"..\..\BIN\BULLETWORLDIMPORTER_VS2010_DEBUG.PDB" /Gd /TP /analyze- /wd4244 /wd4267  C:\USERS\ANTONINO\DESKTOP\VULKAN_ENGINE\BULLET3-2.86.1\EXTRAS\SERIALIZE\BULLETWORLDIMPORTER\BTWORLDIMPORTER.CPP
