^C:\USERS\ANTONINO\DESKTOP\VULKAN_ENGINE\BULLET3-2.86.1\EXAMPLES\MULTIBODY\PENDULUM.CPP
C:\WINDOWS\GLOBALIZATION\SORTING\SORTDEFAULT.NLS
C:\PROGRAM FILES (X86)\MICROSOFT VISUAL STUDIO 14.0\VC\BIN\1040\CLUI.DLL
C:\WINDOWS\SYSTEM32\TZRES.DLL
C:\USERS\ANTONINO\DESKTOP\VULKAN_ENGINE\BULLET3-2.86.1\TEST\GTEST-1.7.0\INCLUDE\GTEST\GTEST.H
C:\PROGRAM FILES (X86)\MICROSOFT VISUAL STUDIO 14.0\VC\INCLUDE\LIMITS
C:\PROGRAM FILES (X86)\MICROSOFT VISUAL STUDIO 14.0\VC\INCLUDE\YMATH.H
C:\PROGRAM FILES (X86)\MICROSOFT VISUAL STUDIO 14.0\VC\INCLUDE\YVALS.H
C:\PROGRAM FILES (X86)\MICROSOFT VISUAL STUDIO 14.0\VC\INCLUDE\XKEYCHECK.H
C:\PROGRAM FILES (X86)\MICROSOFT VISUAL STUDIO 14.0\VC\INCLUDE\CRTDEFS.H
C:\PROGRAM FILES (X86)\MICROSOFT VISUAL STUDIO 14.0\VC\INCLUDE\VCRUNTIME.H
C:\PROGRAM FILES (X86)\MICROSOFT VISUAL STUDIO 14.0\VC\INCLUDE\SAL.H
C:\PROGRAM FILES (X86)\MICROSOFT VISUAL STUDIO 14.0\VC\INCLUDE\CONCURRENCYSAL.H
C:\PROGRAM FILES (X86)\MICROSOFT VISUAL STUDIO 14.0\VC\INCLUDE\VADEFS.H
C:\PROGRAM FILES (X86)\WINDOWS KITS\10\INCLUDE\10.0.10150.0\UCRT\CORECRT.H
C:\PROGRAM FILES (X86)\MICROSOFT VISUAL STUDIO 14.0\VC\INCLUDE\USE_ANSI.H
C:\PROGRAM FILES (X86)\MICROSOFT VISUAL STUDIO 14.0\VC\INCLUDE\CFLOAT
C:\PROGRAM FILES (X86)\WINDOWS KITS\10\INCLUDE\10.0.10150.0\UCRT\FLOAT.H
C:\PROGRAM FILES (X86)\MICROSOFT VISUAL STUDIO 14.0\VC\INCLUDE\CLIMITS
C:\PROGRAM FILES (X86)\MICROSOFT VISUAL STUDIO 14.0\VC\INCLUDE\LIMITS.H
C:\PROGRAM FILES (X86)\MICROSOFT VISUAL STUDIO 14.0\VC\INCLUDE\CMATH
C:\PROGRAM FILES (X86)\WINDOWS KITS\10\INCLUDE\10.0.10150.0\UCRT\MATH.H
C:\PROGRAM FILES (X86)\MICROSOFT VISUAL STUDIO 14.0\VC\INCLUDE\XTGMATH.H
C:\PROGRAM FILES (X86)\MICROSOFT VISUAL STUDIO 14.0\VC\INCLUDE\XTR1COMMON
C:\PROGRAM FILES (X86)\MICROSOFT VISUAL STUDIO 14.0\VC\INCLUDE\CSTDLIB
C:\PROGRAM FILES (X86)\WINDOWS KITS\10\INCLUDE\10.0.10150.0\UCRT\STDLIB.H
C:\PROGRAM FILES (X86)\WINDOWS KITS\10\INCLUDE\10.0.10150.0\UCRT\CORECRT_MALLOC.H
C:\PROGRAM FILES (X86)\WINDOWS KITS\10\INCLUDE\10.0.10150.0\UCRT\CORECRT_SEARCH.H
C:\PROGRAM FILES (X86)\WINDOWS KITS\10\INCLUDE\10.0.10150.0\UCRT\STDDEF.H
C:\PROGRAM FILES (X86)\WINDOWS KITS\10\INCLUDE\10.0.10150.0\UCRT\CORECRT_WSTDLIB.H
C:\PROGRAM FILES (X86)\MICROSOFT VISUAL STUDIO 14.0\VC\INCLUDE\CWCHAR
C:\PROGRAM FILES (X86)\WINDOWS KITS\10\INCLUDE\10.0.10150.0\UCRT\WCHAR.H
C:\PROGRAM FILES (X86)\WINDOWS KITS\10\INCLUDE\10.0.10150.0\UCRT\CORECRT_MEMCPY_S.H
C:\PROGRAM FILES (X86)\WINDOWS KITS\10\INCLUDE\10.0.10150.0\UCRT\ERRNO.H
C:\PROGRAM FILES (X86)\MICROSOFT VISUAL STUDIO 14.0\VC\INCLUDE\VCRUNTIME_STRING.H
C:\PROGRAM FILES (X86)\WINDOWS KITS\10\INCLUDE\10.0.10150.0\UCRT\CORECRT_WCONIO.H
C:\PROGRAM FILES (X86)\WINDOWS KITS\10\INCLUDE\10.0.10150.0\UCRT\CORECRT_STDIO_CONFIG.H
C:\PROGRAM FILES (X86)\WINDOWS KITS\10\INCLUDE\10.0.10150.0\UCRT\CORECRT_WCTYPE.H
C:\PROGRAM FILES (X86)\WINDOWS KITS\10\INCLUDE\10.0.10150.0\UCRT\CORECRT_WDIRECT.H
C:\PROGRAM FILES (X86)\WINDOWS KITS\10\INCLUDE\10.0.10150.0\UCRT\CORECRT_WIO.H
C:\PROGRAM FILES (X86)\WINDOWS KITS\10\INCLUDE\10.0.10150.0\UCRT\CORECRT_SHARE.H
C:\PROGRAM FILES (X86)\WINDOWS KITS\10\INCLUDE\10.0.10150.0\UCRT\CORECRT_WPROCESS.H
C:\PROGRAM FILES (X86)\WINDOWS KITS\10\INCLUDE\10.0.10150.0\UCRT\CORECRT_WSTDIO.H
C:\PROGRAM FILES (X86)\WINDOWS KITS\10\INCLUDE\10.0.10150.0\UCRT\CORECRT_WSTRING.H
C:\PROGRAM FILES (X86)\WINDOWS KITS\10\INCLUDE\10.0.10150.0\UCRT\CORECRT_WTIME.H
C:\PROGRAM FILES (X86)\WINDOWS KITS\10\INCLUDE\10.0.10150.0\UCRT\SYS\STAT.H
C:\PROGRAM FILES (X86)\WINDOWS KITS\10\INCLUDE\10.0.10150.0\UCRT\SYS\TYPES.H
C:\PROGRAM FILES (X86)\MICROSOFT VISUAL STUDIO 14.0\VC\INCLUDE\XSTDDEF
C:\PROGRAM FILES (X86)\MICROSOFT VISUAL STUDIO 14.0\VC\INCLUDE\CSTDDEF
C:\PROGRAM FILES (X86)\MICROSOFT VISUAL STUDIO 14.0\VC\INCLUDE\INITIALIZER_LIST
C:\PROGRAM FILES (X86)\MICROSOFT VISUAL STUDIO 14.0\VC\INCLUDE\OSTREAM
C:\PROGRAM FILES (X86)\MICROSOFT VISUAL STUDIO 14.0\VC\INCLUDE\IOS
C:\PROGRAM FILES (X86)\MICROSOFT VISUAL STUDIO 14.0\VC\INCLUDE\XLOCNUM
C:\PROGRAM FILES (X86)\MICROSOFT VISUAL STUDIO 14.0\VC\INCLUDE\CSTDIO
C:\PROGRAM FILES (X86)\WINDOWS KITS\10\INCLUDE\10.0.10150.0\UCRT\STDIO.H
C:\PROGRAM FILES (X86)\MICROSOFT VISUAL STUDIO 14.0\VC\INCLUDE\STREAMBUF
C:\PROGRAM FILES (X86)\MICROSOFT VISUAL STUDIO 14.0\VC\INCLUDE\XIOSBASE
C:\PROGRAM FILES (X86)\MICROSOFT VISUAL STUDIO 14.0\VC\INCLUDE\XLOCALE
C:\PROGRAM FILES (X86)\MICROSOFT VISUAL STUDIO 14.0\VC\INCLUDE\CSTRING
C:\PROGRAM FILES (X86)\WINDOWS KITS\10\INCLUDE\10.0.10150.0\UCRT\STRING.H
C:\PROGRAM FILES (X86)\WINDOWS KITS\10\INCLUDE\10.0.10150.0\UCRT\CORECRT_MEMORY.H
C:\PROGRAM FILES (X86)\MICROSOFT VISUAL STUDIO 14.0\VC\INCLUDE\STDEXCEPT
C:\PROGRAM FILES (X86)\MICROSOFT VISUAL STUDIO 14.0\VC\INCLUDE\EXCEPTION
C:\PROGRAM FILES (X86)\MICROSOFT VISUAL STUDIO 14.0\VC\INCLUDE\TYPE_TRAITS
C:\PROGRAM FILES (X86)\WINDOWS KITS\10\INCLUDE\10.0.10150.0\UCRT\MALLOC.H
C:\PROGRAM FILES (X86)\MICROSOFT VISUAL STUDIO 14.0\VC\INCLUDE\VCRUNTIME_EXCEPTION.H
C:\PROGRAM FILES (X86)\MICROSOFT VISUAL STUDIO 14.0\VC\INCLUDE\EH.H
C:\PROGRAM FILES (X86)\WINDOWS KITS\10\INCLUDE\10.0.10150.0\UCRT\CORECRT_TERMINATE.H
C:\PROGRAM FILES (X86)\MICROSOFT VISUAL STUDIO 14.0\VC\INCLUDE\XSTRING
C:\PROGRAM FILES (X86)\MICROSOFT VISUAL STUDIO 14.0\VC\INCLUDE\XMEMORY0
C:\PROGRAM FILES (X86)\MICROSOFT VISUAL STUDIO 14.0\VC\INCLUDE\CSTDINT
C:\PROGRAM FILES (X86)\MICROSOFT VISUAL STUDIO 14.0\VC\INCLUDE\STDINT.H
C:\PROGRAM FILES (X86)\MICROSOFT VISUAL STUDIO 14.0\VC\INCLUDE\NEW
C:\PROGRAM FILES (X86)\MICROSOFT VISUAL STUDIO 14.0\VC\INCLUDE\VCRUNTIME_NEW.H
C:\PROGRAM FILES (X86)\MICROSOFT VISUAL STUDIO 14.0\VC\INCLUDE\XUTILITY
C:\PROGRAM FILES (X86)\MICROSOFT VISUAL STUDIO 14.0\VC\INCLUDE\UTILITY
C:\PROGRAM FILES (X86)\MICROSOFT VISUAL STUDIO 14.0\VC\INCLUDE\IOSFWD
C:\PROGRAM FILES (X86)\WINDOWS KITS\10\INCLUDE\10.0.10150.0\UCRT\CRTDBG.H
C:\PROGRAM FILES (X86)\MICROSOFT VISUAL STUDIO 14.0\VC\INCLUDE\VCRUNTIME_NEW_DEBUG.H
C:\PROGRAM FILES (X86)\MICROSOFT VISUAL STUDIO 14.0\VC\INCLUDE\XATOMIC0.H
C:\PROGRAM FILES (X86)\MICROSOFT VISUAL STUDIO 14.0\VC\INCLUDE\INTRIN.H
C:\PROGRAM FILES (X86)\MICROSOFT VISUAL STUDIO 14.0\VC\INCLUDE\SETJMP.H
C:\PROGRAM FILES (X86)\MICROSOFT VISUAL STUDIO 14.0\VC\INCLUDE\IMMINTRIN.H
C:\PROGRAM FILES (X86)\MICROSOFT VISUAL STUDIO 14.0\VC\INCLUDE\WMMINTRIN.H
C:\PROGRAM FILES (X86)\MICROSOFT VISUAL STUDIO 14.0\VC\INCLUDE\NMMINTRIN.H
C:\PROGRAM FILES (X86)\MICROSOFT VISUAL STUDIO 14.0\VC\INCLUDE\SMMINTRIN.H
C:\PROGRAM FILES (X86)\MICROSOFT VISUAL STUDIO 14.0\VC\INCLUDE\TMMINTRIN.H
C:\PROGRAM FILES (X86)\MICROSOFT VISUAL STUDIO 14.0\VC\INCLUDE\PMMINTRIN.H
C:\PROGRAM FILES (X86)\MICROSOFT VISUAL STUDIO 14.0\VC\INCLUDE\EMMINTRIN.H
C:\PROGRAM FILES (X86)\MICROSOFT VISUAL STUDIO 14.0\VC\INCLUDE\XMMINTRIN.H
C:\PROGRAM FILES (X86)\MICROSOFT VISUAL STUDIO 14.0\VC\INCLUDE\MMINTRIN.H
C:\PROGRAM FILES (X86)\MICROSOFT VISUAL STUDIO 14.0\VC\INCLUDE\AMMINTRIN.H
C:\PROGRAM FILES (X86)\MICROSOFT VISUAL STUDIO 14.0\VC\INCLUDE\MM3DNOW.H
C:\PROGRAM FILES (X86)\MICROSOFT VISUAL STUDIO 14.0\VC\INCLUDE\TYPEINFO
C:\PROGRAM FILES (X86)\MICROSOFT VISUAL STUDIO 14.0\VC\INCLUDE\VCRUNTIME_TYPEINFO.H
C:\PROGRAM FILES (X86)\MICROSOFT VISUAL STUDIO 14.0\VC\INCLUDE\XLOCINFO
C:\PROGRAM FILES (X86)\MICROSOFT VISUAL STUDIO 14.0\VC\INCLUDE\XLOCINFO.H
C:\PROGRAM FILES (X86)\WINDOWS KITS\10\INCLUDE\10.0.10150.0\UCRT\CTYPE.H
C:\PROGRAM FILES (X86)\WINDOWS KITS\10\INCLUDE\10.0.10150.0\UCRT\LOCALE.H
C:\PROGRAM FILES (X86)\MICROSOFT VISUAL STUDIO 14.0\VC\INCLUDE\XFACET
C:\PROGRAM FILES (X86)\MICROSOFT VISUAL STUDIO 14.0\VC\INCLUDE\SYSTEM_ERROR
C:\PROGRAM FILES (X86)\MICROSOFT VISUAL STUDIO 14.0\VC\INCLUDE\CERRNO
C:\PROGRAM FILES (X86)\WINDOWS KITS\10\INCLUDE\10.0.10150.0\UCRT\SHARE.H
C:\PROGRAM FILES (X86)\MICROSOFT VISUAL STUDIO 14.0\VC\INCLUDE\VECTOR
C:\PROGRAM FILES (X86)\MICROSOFT VISUAL STUDIO 14.0\VC\INCLUDE\XMEMORY
C:\USERS\ANTONINO\DESKTOP\VULKAN_ENGINE\BULLET3-2.86.1\TEST\GTEST-1.7.0\INCLUDE\GTEST\INTERNAL\GTEST-INTERNAL.H
C:\USERS\ANTONINO\DESKTOP\VULKAN_ENGINE\BULLET3-2.86.1\TEST\GTEST-1.7.0\INCLUDE\GTEST\INTERNAL\GTEST-PORT.H
C:\PROGRAM FILES (X86)\MICROSOFT VISUAL STUDIO 14.0\VC\INCLUDE\IOSTREAM
C:\PROGRAM FILES (X86)\MICROSOFT VISUAL STUDIO 14.0\VC\INCLUDE\ISTREAM
C:\PROGRAM FILES (X86)\MICROSOFT VISUAL STUDIO 14.0\VC\INCLUDE\SSTREAM
C:\PROGRAM FILES (X86)\MICROSOFT VISUAL STUDIO 14.0\VC\INCLUDE\STRING
C:\PROGRAM FILES (X86)\WINDOWS KITS\10\INCLUDE\10.0.10150.0\UCRT\DIRECT.H
C:\PROGRAM FILES (X86)\WINDOWS KITS\10\INCLUDE\10.0.10150.0\UCRT\IO.H
C:\PROGRAM FILES (X86)\WINDOWS KITS\10\INCLUDE\10.0.10150.0\UCRT\CORECRT_IO.H
C:\PROGRAM FILES (X86)\MICROSOFT VISUAL STUDIO 14.0\VC\INCLUDE\TUPLE
C:\PROGRAM FILES (X86)\MICROSOFT VISUAL STUDIO 14.0\VC\INCLUDE\IOMANIP
C:\PROGRAM FILES (X86)\MICROSOFT VISUAL STUDIO 14.0\VC\INCLUDE\XLOCMON
C:\PROGRAM FILES (X86)\MICROSOFT VISUAL STUDIO 14.0\VC\INCLUDE\XLOCTIME
C:\PROGRAM FILES (X86)\MICROSOFT VISUAL STUDIO 14.0\VC\INCLUDE\CTIME
C:\PROGRAM FILES (X86)\WINDOWS KITS\10\INCLUDE\10.0.10150.0\UCRT\TIME.H
C:\PROGRAM FILES (X86)\MICROSOFT VISUAL STUDIO 14.0\VC\INCLUDE\SET
C:\PROGRAM FILES (X86)\MICROSOFT VISUAL STUDIO 14.0\VC\INCLUDE\XTREE
C:\USERS\ANTONINO\DESKTOP\VULKAN_ENGINE\BULLET3-2.86.1\TEST\GTEST-1.7.0\INCLUDE\GTEST\GTEST-MESSAGE.H
C:\USERS\ANTONINO\DESKTOP\VULKAN_ENGINE\BULLET3-2.86.1\TEST\GTEST-1.7.0\INCLUDE\GTEST\INTERNAL\GTEST-STRING.H
C:\USERS\ANTONINO\DESKTOP\VULKAN_ENGINE\BULLET3-2.86.1\TEST\GTEST-1.7.0\INCLUDE\GTEST\INTERNAL\GTEST-FILEPATH.H
C:\USERS\ANTONINO\DESKTOP\VULKAN_ENGINE\BULLET3-2.86.1\TEST\GTEST-1.7.0\INCLUDE\GTEST\INTERNAL\GTEST-TYPE-UTIL.H
C:\USERS\ANTONINO\DESKTOP\VULKAN_ENGINE\BULLET3-2.86.1\TEST\GTEST-1.7.0\INCLUDE\GTEST\GTEST-DEATH-TEST.H
C:\USERS\ANTONINO\DESKTOP\VULKAN_ENGINE\BULLET3-2.86.1\TEST\GTEST-1.7.0\INCLUDE\GTEST\INTERNAL\GTEST-DEATH-TEST-INTERNAL.H
C:\USERS\ANTONINO\DESKTOP\VULKAN_ENGINE\BULLET3-2.86.1\TEST\GTEST-1.7.0\INCLUDE\GTEST\GTEST-PARAM-TEST.H
C:\USERS\ANTONINO\DESKTOP\VULKAN_ENGINE\BULLET3-2.86.1\TEST\GTEST-1.7.0\INCLUDE\GTEST\INTERNAL\GTEST-PARAM-UTIL.H
C:\PROGRAM FILES (X86)\MICROSOFT VISUAL STUDIO 14.0\VC\INCLUDE\ITERATOR
C:\USERS\ANTONINO\DESKTOP\VULKAN_ENGINE\BULLET3-2.86.1\TEST\GTEST-1.7.0\INCLUDE\GTEST\INTERNAL\GTEST-LINKED_PTR.H
C:\PROGRAM FILES (X86)\WINDOWS KITS\10\INCLUDE\10.0.10150.0\UCRT\ASSERT.H
C:\USERS\ANTONINO\DESKTOP\VULKAN_ENGINE\BULLET3-2.86.1\TEST\GTEST-1.7.0\INCLUDE\GTEST\GTEST-PRINTERS.H
C:\USERS\ANTONINO\DESKTOP\VULKAN_ENGINE\BULLET3-2.86.1\TEST\GTEST-1.7.0\INCLUDE\GTEST\INTERNAL\GTEST-PARAM-UTIL-GENERATED.H
C:\USERS\ANTONINO\DESKTOP\VULKAN_ENGINE\BULLET3-2.86.1\TEST\GTEST-1.7.0\INCLUDE\GTEST\GTEST_PROD.H
C:\USERS\ANTONINO\DESKTOP\VULKAN_ENGINE\BULLET3-2.86.1\TEST\GTEST-1.7.0\INCLUDE\GTEST\GTEST-TEST-PART.H
C:\USERS\ANTONINO\DESKTOP\VULKAN_ENGINE\BULLET3-2.86.1\TEST\GTEST-1.7.0\INCLUDE\GTEST\GTEST-TYPED-TEST.H
C:\USERS\ANTONINO\DESKTOP\VULKAN_ENGINE\BULLET3-2.86.1\TEST\GTEST-1.7.0\INCLUDE\GTEST\GTEST_PRED_IMPL.H
C:\USERS\ANTONINO\DESKTOP\VULKAN_ENGINE\BULLET3-2.86.1\EXAMPLES\MULTIBODY\PENDULUM_GOLD.H
C:\USERS\ANTONINO\DESKTOP\VULKAN_ENGINE\BULLET3-2.86.1\SRC\LINEARMATH\BTSCALAR.H
C:\USERS\ANTONINO\DESKTOP\VULKAN_ENGINE\BULLET3-2.86.1\EXAMPLES\COMMONINTERFACES\COMMONMULTIBODYBASE.H
C:\USERS\ANTONINO\DESKTOP\VULKAN_ENGINE\BULLET3-2.86.1\SRC\BTBULLETDYNAMICSCOMMON.H
C:\USERS\ANTONINO\DESKTOP\VULKAN_ENGINE\BULLET3-2.86.1\SRC\BTBULLETCOLLISIONCOMMON.H
C:\USERS\ANTONINO\DESKTOP\VULKAN_ENGINE\BULLET3-2.86.1\SRC\BULLETCOLLISION\COLLISIONDISPATCH\BTCOLLISIONWORLD.H
C:\USERS\ANTONINO\DESKTOP\VULKAN_ENGINE\BULLET3-2.86.1\SRC\LINEARMATH\BTVECTOR3.H
C:\USERS\ANTONINO\DESKTOP\VULKAN_ENGINE\BULLET3-2.86.1\SRC\LINEARMATH\BTMINMAX.H
C:\USERS\ANTONINO\DESKTOP\VULKAN_ENGINE\BULLET3-2.86.1\SRC\LINEARMATH\BTALIGNEDALLOCATOR.H
C:\USERS\ANTONINO\DESKTOP\VULKAN_ENGINE\BULLET3-2.86.1\SRC\LINEARMATH\BTTRANSFORM.H
C:\USERS\ANTONINO\DESKTOP\VULKAN_ENGINE\BULLET3-2.86.1\SRC\LINEARMATH\BTMATRIX3X3.H
C:\USERS\ANTONINO\DESKTOP\VULKAN_ENGINE\BULLET3-2.86.1\SRC\LINEARMATH\BTQUATERNION.H
C:\USERS\ANTONINO\DESKTOP\VULKAN_ENGINE\BULLET3-2.86.1\SRC\LINEARMATH\BTQUADWORD.H
C:\USERS\ANTONINO\DESKTOP\VULKAN_ENGINE\BULLET3-2.86.1\SRC\BULLETCOLLISION\COLLISIONDISPATCH\BTCOLLISIONOBJECT.H
C:\USERS\ANTONINO\DESKTOP\VULKAN_ENGINE\BULLET3-2.86.1\SRC\LINEARMATH\BTMOTIONSTATE.H
C:\USERS\ANTONINO\DESKTOP\VULKAN_ENGINE\BULLET3-2.86.1\SRC\LINEARMATH\BTALIGNEDOBJECTARRAY.H
C:\USERS\ANTONINO\DESKTOP\VULKAN_ENGINE\BULLET3-2.86.1\SRC\BULLETCOLLISION\COLLISIONDISPATCH\BTCOLLISIONDISPATCHER.H
C:\USERS\ANTONINO\DESKTOP\VULKAN_ENGINE\BULLET3-2.86.1\SRC\BULLETCOLLISION\BROADPHASECOLLISION\BTDISPATCHER.H
C:\USERS\ANTONINO\DESKTOP\VULKAN_ENGINE\BULLET3-2.86.1\SRC\BULLETCOLLISION\NARROWPHASECOLLISION\BTPERSISTENTMANIFOLD.H
C:\USERS\ANTONINO\DESKTOP\VULKAN_ENGINE\BULLET3-2.86.1\SRC\BULLETCOLLISION\NARROWPHASECOLLISION\BTMANIFOLDPOINT.H
C:\USERS\ANTONINO\DESKTOP\VULKAN_ENGINE\BULLET3-2.86.1\SRC\LINEARMATH\BTTRANSFORMUTIL.H
C:\USERS\ANTONINO\DESKTOP\VULKAN_ENGINE\BULLET3-2.86.1\SRC\BULLETCOLLISION\COLLISIONDISPATCH\BTMANIFOLDRESULT.H
C:\USERS\ANTONINO\DESKTOP\VULKAN_ENGINE\BULLET3-2.86.1\SRC\BULLETCOLLISION\NARROWPHASECOLLISION\BTDISCRETECOLLISIONDETECTORINTERFACE.H
C:\USERS\ANTONINO\DESKTOP\VULKAN_ENGINE\BULLET3-2.86.1\SRC\BULLETCOLLISION\COLLISIONDISPATCH\BTCOLLISIONOBJECTWRAPPER.H
C:\USERS\ANTONINO\DESKTOP\VULKAN_ENGINE\BULLET3-2.86.1\SRC\BULLETCOLLISION\BROADPHASECOLLISION\BTBROADPHASEPROXY.H
C:\USERS\ANTONINO\DESKTOP\VULKAN_ENGINE\BULLET3-2.86.1\SRC\BULLETCOLLISION\COLLISIONDISPATCH\BTCOLLISIONCREATEFUNC.H
C:\USERS\ANTONINO\DESKTOP\VULKAN_ENGINE\BULLET3-2.86.1\SRC\BULLETCOLLISION\BROADPHASECOLLISION\BTOVERLAPPINGPAIRCACHE.H
C:\USERS\ANTONINO\DESKTOP\VULKAN_ENGINE\BULLET3-2.86.1\SRC\BULLETCOLLISION\BROADPHASECOLLISION\BTBROADPHASEINTERFACE.H
C:\USERS\ANTONINO\DESKTOP\VULKAN_ENGINE\BULLET3-2.86.1\SRC\BULLETCOLLISION\BROADPHASECOLLISION\BTOVERLAPPINGPAIRCALLBACK.H
C:\USERS\ANTONINO\DESKTOP\VULKAN_ENGINE\BULLET3-2.86.1\SRC\BULLETCOLLISION\COLLISIONSHAPES\BTBOXSHAPE.H
C:\USERS\ANTONINO\DESKTOP\VULKAN_ENGINE\BULLET3-2.86.1\SRC\BULLETCOLLISION\COLLISIONSHAPES\BTPOLYHEDRALCONVEXSHAPE.H
C:\USERS\ANTONINO\DESKTOP\VULKAN_ENGINE\BULLET3-2.86.1\SRC\BULLETCOLLISION\COLLISIONSHAPES\BTCONVEXINTERNALSHAPE.H
C:\USERS\ANTONINO\DESKTOP\VULKAN_ENGINE\BULLET3-2.86.1\SRC\BULLETCOLLISION\COLLISIONSHAPES\BTCONVEXSHAPE.H
C:\USERS\ANTONINO\DESKTOP\VULKAN_ENGINE\BULLET3-2.86.1\SRC\BULLETCOLLISION\COLLISIONSHAPES\BTCOLLISIONSHAPE.H
C:\USERS\ANTONINO\DESKTOP\VULKAN_ENGINE\BULLET3-2.86.1\SRC\BULLETCOLLISION\COLLISIONSHAPES\BTCOLLISIONMARGIN.H
C:\USERS\ANTONINO\DESKTOP\VULKAN_ENGINE\BULLET3-2.86.1\SRC\LINEARMATH\BTAABBUTIL2.H
C:\USERS\ANTONINO\DESKTOP\VULKAN_ENGINE\BULLET3-2.86.1\SRC\BULLETCOLLISION\COLLISIONSHAPES\BTSPHERESHAPE.H
C:\USERS\ANTONINO\DESKTOP\VULKAN_ENGINE\BULLET3-2.86.1\SRC\BULLETCOLLISION\COLLISIONSHAPES\BTCAPSULESHAPE.H
C:\USERS\ANTONINO\DESKTOP\VULKAN_ENGINE\BULLET3-2.86.1\SRC\BULLETCOLLISION\COLLISIONSHAPES\BTCYLINDERSHAPE.H
C:\USERS\ANTONINO\DESKTOP\VULKAN_ENGINE\BULLET3-2.86.1\SRC\BULLETCOLLISION\COLLISIONSHAPES\BTCONESHAPE.H
C:\USERS\ANTONINO\DESKTOP\VULKAN_ENGINE\BULLET3-2.86.1\SRC\BULLETCOLLISION\COLLISIONSHAPES\BTSTATICPLANESHAPE.H
C:\USERS\ANTONINO\DESKTOP\VULKAN_ENGINE\BULLET3-2.86.1\SRC\BULLETCOLLISION\COLLISIONSHAPES\BTCONCAVESHAPE.H
C:\USERS\ANTONINO\DESKTOP\VULKAN_ENGINE\BULLET3-2.86.1\SRC\BULLETCOLLISION\COLLISIONSHAPES\BTTRIANGLECALLBACK.H
C:\USERS\ANTONINO\DESKTOP\VULKAN_ENGINE\BULLET3-2.86.1\SRC\BULLETCOLLISION\COLLISIONSHAPES\BTCONVEXHULLSHAPE.H
C:\USERS\ANTONINO\DESKTOP\VULKAN_ENGINE\BULLET3-2.86.1\SRC\BULLETCOLLISION\COLLISIONSHAPES\BTTRIANGLEMESH.H
C:\USERS\ANTONINO\DESKTOP\VULKAN_ENGINE\BULLET3-2.86.1\SRC\BULLETCOLLISION\COLLISIONSHAPES\BTTRIANGLEINDEXVERTEXARRAY.H
C:\USERS\ANTONINO\DESKTOP\VULKAN_ENGINE\BULLET3-2.86.1\SRC\BULLETCOLLISION\COLLISIONSHAPES\BTSTRIDINGMESHINTERFACE.H
C:\USERS\ANTONINO\DESKTOP\VULKAN_ENGINE\BULLET3-2.86.1\SRC\BULLETCOLLISION\COLLISIONSHAPES\BTCONVEXTRIANGLEMESHSHAPE.H
C:\USERS\ANTONINO\DESKTOP\VULKAN_ENGINE\BULLET3-2.86.1\SRC\BULLETCOLLISION\COLLISIONSHAPES\BTBVHTRIANGLEMESHSHAPE.H
C:\USERS\ANTONINO\DESKTOP\VULKAN_ENGINE\BULLET3-2.86.1\SRC\BULLETCOLLISION\COLLISIONSHAPES\BTTRIANGLEMESHSHAPE.H
C:\USERS\ANTONINO\DESKTOP\VULKAN_ENGINE\BULLET3-2.86.1\SRC\BULLETCOLLISION\COLLISIONSHAPES\BTOPTIMIZEDBVH.H
C:\USERS\ANTONINO\DESKTOP\VULKAN_ENGINE\BULLET3-2.86.1\SRC\BULLETCOLLISION\BROADPHASECOLLISION\BTQUANTIZEDBVH.H
C:\USERS\ANTONINO\DESKTOP\VULKAN_ENGINE\BULLET3-2.86.1\SRC\BULLETCOLLISION\COLLISIONSHAPES\BTTRIANGLEINFOMAP.H
C:\USERS\ANTONINO\DESKTOP\VULKAN_ENGINE\BULLET3-2.86.1\SRC\LINEARMATH\BTHASHMAP.H
C:\USERS\ANTONINO\DESKTOP\VULKAN_ENGINE\BULLET3-2.86.1\SRC\LINEARMATH\BTSERIALIZER.H
C:\PROGRAM FILES (X86)\WINDOWS KITS\10\INCLUDE\10.0.10150.0\UCRT\MEMORY.H
C:\USERS\ANTONINO\DESKTOP\VULKAN_ENGINE\BULLET3-2.86.1\SRC\BULLETCOLLISION\COLLISIONSHAPES\BTSCALEDBVHTRIANGLEMESHSHAPE.H
C:\USERS\ANTONINO\DESKTOP\VULKAN_ENGINE\BULLET3-2.86.1\SRC\BULLETCOLLISION\COLLISIONSHAPES\BTCOMPOUNDSHAPE.H
C:\USERS\ANTONINO\DESKTOP\VULKAN_ENGINE\BULLET3-2.86.1\SRC\BULLETCOLLISION\COLLISIONSHAPES\BTTETRAHEDRONSHAPE.H
C:\USERS\ANTONINO\DESKTOP\VULKAN_ENGINE\BULLET3-2.86.1\SRC\BULLETCOLLISION\COLLISIONSHAPES\BTEMPTYSHAPE.H
C:\USERS\ANTONINO\DESKTOP\VULKAN_ENGINE\BULLET3-2.86.1\SRC\BULLETCOLLISION\COLLISIONSHAPES\BTMULTISPHERESHAPE.H
C:\USERS\ANTONINO\DESKTOP\VULKAN_ENGINE\BULLET3-2.86.1\SRC\BULLETCOLLISION\COLLISIONSHAPES\BTUNIFORMSCALINGSHAPE.H
C:\USERS\ANTONINO\DESKTOP\VULKAN_ENGINE\BULLET3-2.86.1\SRC\BULLETCOLLISION\COLLISIONDISPATCH\BTSPHERESPHERECOLLISIONALGORITHM.H
C:\USERS\ANTONINO\DESKTOP\VULKAN_ENGINE\BULLET3-2.86.1\SRC\BULLETCOLLISION\COLLISIONDISPATCH\BTACTIVATINGCOLLISIONALGORITHM.H
C:\USERS\ANTONINO\DESKTOP\VULKAN_ENGINE\BULLET3-2.86.1\SRC\BULLETCOLLISION\BROADPHASECOLLISION\BTCOLLISIONALGORITHM.H
C:\USERS\ANTONINO\DESKTOP\VULKAN_ENGINE\BULLET3-2.86.1\SRC\BULLETCOLLISION\COLLISIONDISPATCH\BTDEFAULTCOLLISIONCONFIGURATION.H
C:\USERS\ANTONINO\DESKTOP\VULKAN_ENGINE\BULLET3-2.86.1\SRC\BULLETCOLLISION\COLLISIONDISPATCH\BTCOLLISIONCONFIGURATION.H
C:\USERS\ANTONINO\DESKTOP\VULKAN_ENGINE\BULLET3-2.86.1\SRC\BULLETCOLLISION\BROADPHASECOLLISION\BTSIMPLEBROADPHASE.H
C:\USERS\ANTONINO\DESKTOP\VULKAN_ENGINE\BULLET3-2.86.1\SRC\BULLETCOLLISION\BROADPHASECOLLISION\BTAXISSWEEP3.H
C:\USERS\ANTONINO\DESKTOP\VULKAN_ENGINE\BULLET3-2.86.1\SRC\BULLETCOLLISION\BROADPHASECOLLISION\BTDBVTBROADPHASE.H
C:\USERS\ANTONINO\DESKTOP\VULKAN_ENGINE\BULLET3-2.86.1\SRC\BULLETCOLLISION\BROADPHASECOLLISION\BTDBVT.H
C:\USERS\ANTONINO\DESKTOP\VULKAN_ENGINE\BULLET3-2.86.1\SRC\LINEARMATH\BTDEFAULTMOTIONSTATE.H
C:\USERS\ANTONINO\DESKTOP\VULKAN_ENGINE\BULLET3-2.86.1\SRC\LINEARMATH\BTQUICKPROF.H
C:\USERS\ANTONINO\DESKTOP\VULKAN_ENGINE\BULLET3-2.86.1\SRC\LINEARMATH\BTIDEBUGDRAW.H
C:\USERS\ANTONINO\DESKTOP\VULKAN_ENGINE\BULLET3-2.86.1\SRC\BULLETDYNAMICS\DYNAMICS\BTDISCRETEDYNAMICSWORLD.H
C:\USERS\ANTONINO\DESKTOP\VULKAN_ENGINE\BULLET3-2.86.1\SRC\BULLETDYNAMICS\DYNAMICS\BTDYNAMICSWORLD.H
C:\USERS\ANTONINO\DESKTOP\VULKAN_ENGINE\BULLET3-2.86.1\SRC\BULLETDYNAMICS\CONSTRAINTSOLVER\BTCONTACTSOLVERINFO.H
C:\USERS\ANTONINO\DESKTOP\VULKAN_ENGINE\BULLET3-2.86.1\SRC\LINEARMATH\BTTHREADS.H
C:\USERS\ANTONINO\DESKTOP\VULKAN_ENGINE\BULLET3-2.86.1\SRC\BULLETDYNAMICS\DYNAMICS\BTSIMPLEDYNAMICSWORLD.H
C:\USERS\ANTONINO\DESKTOP\VULKAN_ENGINE\BULLET3-2.86.1\SRC\BULLETDYNAMICS\DYNAMICS\BTRIGIDBODY.H
C:\USERS\ANTONINO\DESKTOP\VULKAN_ENGINE\BULLET3-2.86.1\SRC\BULLETDYNAMICS\CONSTRAINTSOLVER\BTPOINT2POINTCONSTRAINT.H
C:\USERS\ANTONINO\DESKTOP\VULKAN_ENGINE\BULLET3-2.86.1\SRC\BULLETDYNAMICS\CONSTRAINTSOLVER\BTJACOBIANENTRY.H
C:\USERS\ANTONINO\DESKTOP\VULKAN_ENGINE\BULLET3-2.86.1\SRC\BULLETDYNAMICS\CONSTRAINTSOLVER\BTTYPEDCONSTRAINT.H
C:\USERS\ANTONINO\DESKTOP\VULKAN_ENGINE\BULLET3-2.86.1\SRC\BULLETDYNAMICS\CONSTRAINTSOLVER\BTSOLVERCONSTRAINT.H
C:\USERS\ANTONINO\DESKTOP\VULKAN_ENGINE\BULLET3-2.86.1\SRC\BULLETDYNAMICS\CONSTRAINTSOLVER\BTSOLVERBODY.H
C:\USERS\ANTONINO\DESKTOP\VULKAN_ENGINE\BULLET3-2.86.1\SRC\BULLETDYNAMICS\CONSTRAINTSOLVER\BTHINGECONSTRAINT.H
C:\USERS\ANTONINO\DESKTOP\VULKAN_ENGINE\BULLET3-2.86.1\SRC\BULLETDYNAMICS\CONSTRAINTSOLVER\BTCONETWISTCONSTRAINT.H
C:\USERS\ANTONINO\DESKTOP\VULKAN_ENGINE\BULLET3-2.86.1\SRC\BULLETDYNAMICS\CONSTRAINTSOLVER\BTGENERIC6DOFCONSTRAINT.H
C:\USERS\ANTONINO\DESKTOP\VULKAN_ENGINE\BULLET3-2.86.1\SRC\BULLETDYNAMICS\CONSTRAINTSOLVER\BTSLIDERCONSTRAINT.H
C:\USERS\ANTONINO\DESKTOP\VULKAN_ENGINE\BULLET3-2.86.1\SRC\BULLETDYNAMICS\CONSTRAINTSOLVER\BTGENERIC6DOFSPRINGCONSTRAINT.H
C:\USERS\ANTONINO\DESKTOP\VULKAN_ENGINE\BULLET3-2.86.1\SRC\BULLETDYNAMICS\CONSTRAINTSOLVER\BTUNIVERSALCONSTRAINT.H
C:\USERS\ANTONINO\DESKTOP\VULKAN_ENGINE\BULLET3-2.86.1\SRC\BULLETDYNAMICS\CONSTRAINTSOLVER\BTHINGE2CONSTRAINT.H
C:\USERS\ANTONINO\DESKTOP\VULKAN_ENGINE\BULLET3-2.86.1\SRC\BULLETDYNAMICS\CONSTRAINTSOLVER\BTGENERIC6DOFSPRING2CONSTRAINT.H
C:\USERS\ANTONINO\DESKTOP\VULKAN_ENGINE\BULLET3-2.86.1\SRC\BULLETDYNAMICS\CONSTRAINTSOLVER\BTGEARCONSTRAINT.H
C:\USERS\ANTONINO\DESKTOP\VULKAN_ENGINE\BULLET3-2.86.1\SRC\BULLETDYNAMICS\CONSTRAINTSOLVER\BTFIXEDCONSTRAINT.H
C:\USERS\ANTONINO\DESKTOP\VULKAN_ENGINE\BULLET3-2.86.1\SRC\BULLETDYNAMICS\CONSTRAINTSOLVER\BTSEQUENTIALIMPULSECONSTRAINTSOLVER.H
C:\USERS\ANTONINO\DESKTOP\VULKAN_ENGINE\BULLET3-2.86.1\SRC\BULLETDYNAMICS\CONSTRAINTSOLVER\BTCONSTRAINTSOLVER.H
C:\USERS\ANTONINO\DESKTOP\VULKAN_ENGINE\BULLET3-2.86.1\SRC\BULLETDYNAMICS\VEHICLE\BTRAYCASTVEHICLE.H
C:\USERS\ANTONINO\DESKTOP\VULKAN_ENGINE\BULLET3-2.86.1\SRC\BULLETDYNAMICS\VEHICLE\BTVEHICLERAYCASTER.H
C:\USERS\ANTONINO\DESKTOP\VULKAN_ENGINE\BULLET3-2.86.1\SRC\BULLETDYNAMICS\VEHICLE\BTWHEELINFO.H
C:\USERS\ANTONINO\DESKTOP\VULKAN_ENGINE\BULLET3-2.86.1\SRC\BULLETDYNAMICS\DYNAMICS\BTACTIONINTERFACE.H
C:\USERS\ANTONINO\DESKTOP\VULKAN_ENGINE\BULLET3-2.86.1\SRC\BULLETDYNAMICS\FEATHERSTONE\BTMULTIBODYDYNAMICSWORLD.H
C:\USERS\ANTONINO\DESKTOP\VULKAN_ENGINE\BULLET3-2.86.1\SRC\BULLETDYNAMICS\FEATHERSTONE\BTMULTIBODYCONSTRAINTSOLVER.H
C:\USERS\ANTONINO\DESKTOP\VULKAN_ENGINE\BULLET3-2.86.1\SRC\BULLETDYNAMICS\FEATHERSTONE\BTMULTIBODYSOLVERCONSTRAINT.H
C:\USERS\ANTONINO\DESKTOP\VULKAN_ENGINE\BULLET3-2.86.1\SRC\BULLETDYNAMICS\FEATHERSTONE\BTMULTIBODYCONSTRAINT.H
C:\USERS\ANTONINO\DESKTOP\VULKAN_ENGINE\BULLET3-2.86.1\SRC\BULLETDYNAMICS\FEATHERSTONE\BTMULTIBODY.H
C:\USERS\ANTONINO\DESKTOP\VULKAN_ENGINE\BULLET3-2.86.1\SRC\BULLETDYNAMICS\FEATHERSTONE\BTMULTIBODYLINK.H
C:\USERS\ANTONINO\DESKTOP\VULKAN_ENGINE\BULLET3-2.86.1\SRC\LINEARMATH\BTSPATIALALGEBRA.H
C:\USERS\ANTONINO\DESKTOP\VULKAN_ENGINE\BULLET3-2.86.1\SRC\BULLETDYNAMICS\FEATHERSTONE\BTMULTIBODYPOINT2POINT.H
C:\USERS\ANTONINO\DESKTOP\VULKAN_ENGINE\BULLET3-2.86.1\SRC\BULLETDYNAMICS\FEATHERSTONE\BTMULTIBODYLINKCOLLIDER.H
C:\USERS\ANTONINO\DESKTOP\VULKAN_ENGINE\BULLET3-2.86.1\EXAMPLES\COMMONINTERFACES\COMMONEXAMPLEINTERFACE.H
C:\USERS\ANTONINO\DESKTOP\VULKAN_ENGINE\BULLET3-2.86.1\EXAMPLES\COMMONINTERFACES\COMMONGUIHELPERINTERFACE.H
C:\USERS\ANTONINO\DESKTOP\VULKAN_ENGINE\BULLET3-2.86.1\EXAMPLES\COMMONINTERFACES\COMMONRENDERINTERFACE.H
C:\USERS\ANTONINO\DESKTOP\VULKAN_ENGINE\BULLET3-2.86.1\EXAMPLES\COMMONINTERFACES\COMMONGRAPHICSAPPINTERFACE.H
C:\USERS\ANTONINO\DESKTOP\VULKAN_ENGINE\BULLET3-2.86.1\SRC\BULLET3COMMON\B3VECTOR3.H
C:\USERS\ANTONINO\DESKTOP\VULKAN_ENGINE\BULLET3-2.86.1\SRC\BULLET3COMMON\B3SCALAR.H
C:\USERS\ANTONINO\DESKTOP\VULKAN_ENGINE\BULLET3-2.86.1\SRC\BULLET3COMMON\B3LOGGING.H
C:\USERS\ANTONINO\DESKTOP\VULKAN_ENGINE\BULLET3-2.86.1\SRC\BULLET3COMMON\B3MINMAX.H
C:\USERS\ANTONINO\DESKTOP\VULKAN_ENGINE\BULLET3-2.86.1\SRC\BULLET3COMMON\B3ALIGNEDALLOCATOR.H
C:\USERS\ANTONINO\DESKTOP\VULKAN_ENGINE\BULLET3-2.86.1\EXAMPLES\COMMONINTERFACES\COMMONWINDOWINTERFACE.H
C:\USERS\ANTONINO\DESKTOP\VULKAN_ENGINE\BULLET3-2.86.1\EXAMPLES\COMMONINTERFACES\COMMONCAMERAINTERFACE.H
