^C:\USERS\ANTONINO\DESKTOP\VULKAN_ENGINE\BULLET3-2.86.1\BUILD3\VS2010\OBJ\X32\DEBUG\TEST_BULLETDYNAMICS\PENDULUM.OBJ
C:\USERS\ANTONINO\DESKTOP\VULKAN_ENGINE\BULLET3-2.86.1\BIN\TEST_BULLETDYNAMICS_VS2010_DEBUG.ILK
C:\USERS\ANTONINO\DESKTOP\VULKAN_ENGINE\BULLET3-2.86.1\BIN\TEST_BULLETDYNAMICS_VS2010_DEBUG.EXE
C:\USERS\ANTONINO\DESKTOP\VULKAN_ENGINE\BULLET3-2.86.1\BIN\TEST_BULLETDYNAMICS_VS2010_DEBUG.PDB
