^C:\USERS\ANTONINO\DESKTOP\VULKAN_ENGINE\BULLET3-2.86.1\EXAMPLES\THIRDPARTYLIBS\GLEW\GLEW.C
/c /I..\..\EXAMPLES\SHAREDMEMORY /I..\..\SRC /I..\..\EXAMPLES\THIRDPARTYLIBS /I..\..\EXAMPLES\THIRDPARTYLIBS\OPENVR\HEADERS /I..\..\EXAMPLES\THIRDPARTYLIBS\OPENVR\SAMPLES\SHARED /I..\..\EXAMPLES\THIRDPARTYLIBS\GLEW /Zi /nologo /W3 /WX- /Od /Oy- /D _DEBUG=1 /D B3_USE_STANDALONE_EXAMPLE /D BT_ENABLE_VR /D GLEW_STATIC /D _MBCS /Gm- /EHsc /RTC1 /MTd /GS /Gy /fp:fast /Zc:wchar_t /Zc:forScope /Zc:inline /Fo"OBJ\X32\DEBUG\APP_SHAREDMEMORYPHYSICS_VR\\" /Fd"..\..\BIN\APP_SHAREDMEMORYPHYSICS_VR_VS2010_DEBUG.PDB" /Gd /TC /analyze- /wd4244 /wd4267  C:\USERS\ANTONINO\DESKTOP\VULKAN_ENGINE\BULLET3-2.86.1\EXAMPLES\THIRDPARTYLIBS\GLEW\GLEW.C
^C:\USERS\ANTONINO\DESKTOP\VULKAN_ENGINE\BULLET3-2.86.1\EXAMPLES\SHAREDMEMORY\IKTRAJECTORYHELPER.CPP
/c /I..\..\EXAMPLES\SHAREDMEMORY /I..\..\SRC /I..\..\EXAMPLES\THIRDPARTYLIBS /I..\..\EXAMPLES\THIRDPARTYLIBS\OPENVR\HEADERS /I..\..\EXAMPLES\THIRDPARTYLIBS\OPENVR\SAMPLES\SHARED /I..\..\EXAMPLES\THIRDPARTYLIBS\GLEW /Zi /nologo /W3 /WX- /Od /Oy- /D _DEBUG=1 /D B3_USE_STANDALONE_EXAMPLE /D BT_ENABLE_VR /D GLEW_STATIC /D _MBCS /Gm- /EHsc /RTC1 /MTd /GS /Gy /fp:fast /Zc:wchar_t /Zc:forScope /Zc:inline /Fo"OBJ\X32\DEBUG\APP_SHAREDMEMORYPHYSICS_VR\\" /Fd"..\..\BIN\APP_SHAREDMEMORYPHYSICS_VR_VS2010_DEBUG.PDB" /Gd /TP /analyze- /wd4244 /wd4267  C:\USERS\ANTONINO\DESKTOP\VULKAN_ENGINE\BULLET3-2.86.1\EXAMPLES\SHAREDMEMORY\IKTRAJECTORYHELPER.CPP
^C:\USERS\ANTONINO\DESKTOP\VULKAN_ENGINE\BULLET3-2.86.1\EXAMPLES\SHAREDMEMORY\PHYSICSCLIENT.CPP
/c /I..\..\EXAMPLES\SHAREDMEMORY /I..\..\SRC /I..\..\EXAMPLES\THIRDPARTYLIBS /I..\..\EXAMPLES\THIRDPARTYLIBS\OPENVR\HEADERS /I..\..\EXAMPLES\THIRDPARTYLIBS\OPENVR\SAMPLES\SHARED /I..\..\EXAMPLES\THIRDPARTYLIBS\GLEW /Zi /nologo /W3 /WX- /Od /Oy- /D _DEBUG=1 /D B3_USE_STANDALONE_EXAMPLE /D BT_ENABLE_VR /D GLEW_STATIC /D _MBCS /Gm- /EHsc /RTC1 /MTd /GS /Gy /fp:fast /Zc:wchar_t /Zc:forScope /Zc:inline /Fo"OBJ\X32\DEBUG\APP_SHAREDMEMORYPHYSICS_VR\\" /Fd"..\..\BIN\APP_SHAREDMEMORYPHYSICS_VR_VS2010_DEBUG.PDB" /Gd /TP /analyze- /wd4244 /wd4267  C:\USERS\ANTONINO\DESKTOP\VULKAN_ENGINE\BULLET3-2.86.1\EXAMPLES\SHAREDMEMORY\PHYSICSCLIENT.CPP
^C:\USERS\ANTONINO\DESKTOP\VULKAN_ENGINE\BULLET3-2.86.1\EXAMPLES\SHAREDMEMORY\PHYSICSCLIENTSHAREDMEMORY.CPP
/c /I..\..\EXAMPLES\SHAREDMEMORY /I..\..\SRC /I..\..\EXAMPLES\THIRDPARTYLIBS /I..\..\EXAMPLES\THIRDPARTYLIBS\OPENVR\HEADERS /I..\..\EXAMPLES\THIRDPARTYLIBS\OPENVR\SAMPLES\SHARED /I..\..\EXAMPLES\THIRDPARTYLIBS\GLEW /Zi /nologo /W3 /WX- /Od /Oy- /D _DEBUG=1 /D B3_USE_STANDALONE_EXAMPLE /D BT_ENABLE_VR /D GLEW_STATIC /D _MBCS /Gm- /EHsc /RTC1 /MTd /GS /Gy /fp:fast /Zc:wchar_t /Zc:forScope /Zc:inline /Fo"OBJ\X32\DEBUG\APP_SHAREDMEMORYPHYSICS_VR\\" /Fd"..\..\BIN\APP_SHAREDMEMORYPHYSICS_VR_VS2010_DEBUG.PDB" /Gd /TP /analyze- /wd4244 /wd4267  C:\USERS\ANTONINO\DESKTOP\VULKAN_ENGINE\BULLET3-2.86.1\EXAMPLES\SHAREDMEMORY\PHYSICSCLIENTSHAREDMEMORY.CPP
^C:\USERS\ANTONINO\DESKTOP\VULKAN_ENGINE\BULLET3-2.86.1\EXAMPLES\SHAREDMEMORY\PHYSICSCLIENTEXAMPLE.CPP
/c /I..\..\EXAMPLES\SHAREDMEMORY /I..\..\SRC /I..\..\EXAMPLES\THIRDPARTYLIBS /I..\..\EXAMPLES\THIRDPARTYLIBS\OPENVR\HEADERS /I..\..\EXAMPLES\THIRDPARTYLIBS\OPENVR\SAMPLES\SHARED /I..\..\EXAMPLES\THIRDPARTYLIBS\GLEW /Zi /nologo /W3 /WX- /Od /Oy- /D _DEBUG=1 /D B3_USE_STANDALONE_EXAMPLE /D BT_ENABLE_VR /D GLEW_STATIC /D _MBCS /Gm- /EHsc /RTC1 /MTd /GS /Gy /fp:fast /Zc:wchar_t /Zc:forScope /Zc:inline /Fo"OBJ\X32\DEBUG\APP_SHAREDMEMORYPHYSICS_VR\\" /Fd"..\..\BIN\APP_SHAREDMEMORYPHYSICS_VR_VS2010_DEBUG.PDB" /Gd /TP /analyze- /wd4244 /wd4267  C:\USERS\ANTONINO\DESKTOP\VULKAN_ENGINE\BULLET3-2.86.1\EXAMPLES\SHAREDMEMORY\PHYSICSCLIENTEXAMPLE.CPP
^C:\USERS\ANTONINO\DESKTOP\VULKAN_ENGINE\BULLET3-2.86.1\EXAMPLES\SHAREDMEMORY\PHYSICSSERVEREXAMPLE.CPP
/c /I..\..\EXAMPLES\SHAREDMEMORY /I..\..\SRC /I..\..\EXAMPLES\THIRDPARTYLIBS /I..\..\EXAMPLES\THIRDPARTYLIBS\OPENVR\HEADERS /I..\..\EXAMPLES\THIRDPARTYLIBS\OPENVR\SAMPLES\SHARED /I..\..\EXAMPLES\THIRDPARTYLIBS\GLEW /Zi /nologo /W3 /WX- /Od /Oy- /D _DEBUG=1 /D B3_USE_STANDALONE_EXAMPLE /D BT_ENABLE_VR /D GLEW_STATIC /D _MBCS /Gm- /EHsc /RTC1 /MTd /GS /Gy /fp:fast /Zc:wchar_t /Zc:forScope /Zc:inline /Fo"OBJ\X32\DEBUG\APP_SHAREDMEMORYPHYSICS_VR\\" /Fd"..\..\BIN\APP_SHAREDMEMORYPHYSICS_VR_VS2010_DEBUG.PDB" /Gd /TP /analyze- /wd4244 /wd4267  C:\USERS\ANTONINO\DESKTOP\VULKAN_ENGINE\BULLET3-2.86.1\EXAMPLES\SHAREDMEMORY\PHYSICSSERVEREXAMPLE.CPP
^C:\USERS\ANTONINO\DESKTOP\VULKAN_ENGINE\BULLET3-2.86.1\EXAMPLES\SHAREDMEMORY\PHYSICSSERVERSHAREDMEMORY.CPP
/c /I..\..\EXAMPLES\SHAREDMEMORY /I..\..\SRC /I..\..\EXAMPLES\THIRDPARTYLIBS /I..\..\EXAMPLES\THIRDPARTYLIBS\OPENVR\HEADERS /I..\..\EXAMPLES\THIRDPARTYLIBS\OPENVR\SAMPLES\SHARED /I..\..\EXAMPLES\THIRDPARTYLIBS\GLEW /Zi /nologo /W3 /WX- /Od /Oy- /D _DEBUG=1 /D B3_USE_STANDALONE_EXAMPLE /D BT_ENABLE_VR /D GLEW_STATIC /D _MBCS /Gm- /EHsc /RTC1 /MTd /GS /Gy /fp:fast /Zc:wchar_t /Zc:forScope /Zc:inline /Fo"OBJ\X32\DEBUG\APP_SHAREDMEMORYPHYSICS_VR\\" /Fd"..\..\BIN\APP_SHAREDMEMORYPHYSICS_VR_VS2010_DEBUG.PDB" /Gd /TP /analyze- /wd4244 /wd4267  C:\USERS\ANTONINO\DESKTOP\VULKAN_ENGINE\BULLET3-2.86.1\EXAMPLES\SHAREDMEMORY\PHYSICSSERVERSHAREDMEMORY.CPP
^C:\USERS\ANTONINO\DESKTOP\VULKAN_ENGINE\BULLET3-2.86.1\EXAMPLES\SHAREDMEMORY\PHYSICSSERVER.CPP
/c /I..\..\EXAMPLES\SHAREDMEMORY /I..\..\SRC /I..\..\EXAMPLES\THIRDPARTYLIBS /I..\..\EXAMPLES\THIRDPARTYLIBS\OPENVR\HEADERS /I..\..\EXAMPLES\THIRDPARTYLIBS\OPENVR\SAMPLES\SHARED /I..\..\EXAMPLES\THIRDPARTYLIBS\GLEW /Zi /nologo /W3 /WX- /Od /Oy- /D _DEBUG=1 /D B3_USE_STANDALONE_EXAMPLE /D BT_ENABLE_VR /D GLEW_STATIC /D _MBCS /Gm- /EHsc /RTC1 /MTd /GS /Gy /fp:fast /Zc:wchar_t /Zc:forScope /Zc:inline /Fo"OBJ\X32\DEBUG\APP_SHAREDMEMORYPHYSICS_VR\\" /Fd"..\..\BIN\APP_SHAREDMEMORYPHYSICS_VR_VS2010_DEBUG.PDB" /Gd /TP /analyze- /wd4244 /wd4267  C:\USERS\ANTONINO\DESKTOP\VULKAN_ENGINE\BULLET3-2.86.1\EXAMPLES\SHAREDMEMORY\PHYSICSSERVER.CPP
^C:\USERS\ANTONINO\DESKTOP\VULKAN_ENGINE\BULLET3-2.86.1\EXAMPLES\SHAREDMEMORY\PHYSICSCLIENTC_API.CPP
/c /I..\..\EXAMPLES\SHAREDMEMORY /I..\..\SRC /I..\..\EXAMPLES\THIRDPARTYLIBS /I..\..\EXAMPLES\THIRDPARTYLIBS\OPENVR\HEADERS /I..\..\EXAMPLES\THIRDPARTYLIBS\OPENVR\SAMPLES\SHARED /I..\..\EXAMPLES\THIRDPARTYLIBS\GLEW /Zi /nologo /W3 /WX- /Od /Oy- /D _DEBUG=1 /D B3_USE_STANDALONE_EXAMPLE /D BT_ENABLE_VR /D GLEW_STATIC /D _MBCS /Gm- /EHsc /RTC1 /MTd /GS /Gy /fp:fast /Zc:wchar_t /Zc:forScope /Zc:inline /Fo"OBJ\X32\DEBUG\APP_SHAREDMEMORYPHYSICS_VR\\" /Fd"..\..\BIN\APP_SHAREDMEMORYPHYSICS_VR_VS2010_DEBUG.PDB" /Gd /TP /analyze- /wd4244 /wd4267  C:\USERS\ANTONINO\DESKTOP\VULKAN_ENGINE\BULLET3-2.86.1\EXAMPLES\SHAREDMEMORY\PHYSICSCLIENTC_API.CPP
^C:\USERS\ANTONINO\DESKTOP\VULKAN_ENGINE\BULLET3-2.86.1\EXAMPLES\SHAREDMEMORY\POSIXSHAREDMEMORY.CPP
/c /I..\..\EXAMPLES\SHAREDMEMORY /I..\..\SRC /I..\..\EXAMPLES\THIRDPARTYLIBS /I..\..\EXAMPLES\THIRDPARTYLIBS\OPENVR\HEADERS /I..\..\EXAMPLES\THIRDPARTYLIBS\OPENVR\SAMPLES\SHARED /I..\..\EXAMPLES\THIRDPARTYLIBS\GLEW /Zi /nologo /W3 /WX- /Od /Oy- /D _DEBUG=1 /D B3_USE_STANDALONE_EXAMPLE /D BT_ENABLE_VR /D GLEW_STATIC /D _MBCS /Gm- /EHsc /RTC1 /MTd /GS /Gy /fp:fast /Zc:wchar_t /Zc:forScope /Zc:inline /Fo"OBJ\X32\DEBUG\APP_SHAREDMEMORYPHYSICS_VR\\" /Fd"..\..\BIN\APP_SHAREDMEMORYPHYSICS_VR_VS2010_DEBUG.PDB" /Gd /TP /analyze- /wd4244 /wd4267  C:\USERS\ANTONINO\DESKTOP\VULKAN_ENGINE\BULLET3-2.86.1\EXAMPLES\SHAREDMEMORY\POSIXSHAREDMEMORY.CPP
^C:\USERS\ANTONINO\DESKTOP\VULKAN_ENGINE\BULLET3-2.86.1\EXAMPLES\SHAREDMEMORY\WIN32SHAREDMEMORY.CPP
/c /I..\..\EXAMPLES\SHAREDMEMORY /I..\..\SRC /I..\..\EXAMPLES\THIRDPARTYLIBS /I..\..\EXAMPLES\THIRDPARTYLIBS\OPENVR\HEADERS /I..\..\EXAMPLES\THIRDPARTYLIBS\OPENVR\SAMPLES\SHARED /I..\..\EXAMPLES\THIRDPARTYLIBS\GLEW /Zi /nologo /W3 /WX- /Od /Oy- /D _DEBUG=1 /D B3_USE_STANDALONE_EXAMPLE /D BT_ENABLE_VR /D GLEW_STATIC /D _MBCS /Gm- /EHsc /RTC1 /MTd /GS /Gy /fp:fast /Zc:wchar_t /Zc:forScope /Zc:inline /Fo"OBJ\X32\DEBUG\APP_SHAREDMEMORYPHYSICS_VR\\" /Fd"..\..\BIN\APP_SHAREDMEMORYPHYSICS_VR_VS2010_DEBUG.PDB" /Gd /TP /analyze- /wd4244 /wd4267  C:\USERS\ANTONINO\DESKTOP\VULKAN_ENGINE\BULLET3-2.86.1\EXAMPLES\SHAREDMEMORY\WIN32SHAREDMEMORY.CPP
^C:\USERS\ANTONINO\DESKTOP\VULKAN_ENGINE\BULLET3-2.86.1\EXAMPLES\SHAREDMEMORY\INPROCESSMEMORY.CPP
/c /I..\..\EXAMPLES\SHAREDMEMORY /I..\..\SRC /I..\..\EXAMPLES\THIRDPARTYLIBS /I..\..\EXAMPLES\THIRDPARTYLIBS\OPENVR\HEADERS /I..\..\EXAMPLES\THIRDPARTYLIBS\OPENVR\SAMPLES\SHARED /I..\..\EXAMPLES\THIRDPARTYLIBS\GLEW /Zi /nologo /W3 /WX- /Od /Oy- /D _DEBUG=1 /D B3_USE_STANDALONE_EXAMPLE /D BT_ENABLE_VR /D GLEW_STATIC /D _MBCS /Gm- /EHsc /RTC1 /MTd /GS /Gy /fp:fast /Zc:wchar_t /Zc:forScope /Zc:inline /Fo"OBJ\X32\DEBUG\APP_SHAREDMEMORYPHYSICS_VR\\" /Fd"..\..\BIN\APP_SHAREDMEMORYPHYSICS_VR_VS2010_DEBUG.PDB" /Gd /TP /analyze- /wd4244 /wd4267  C:\USERS\ANTONINO\DESKTOP\VULKAN_ENGINE\BULLET3-2.86.1\EXAMPLES\SHAREDMEMORY\INPROCESSMEMORY.CPP
^C:\USERS\ANTONINO\DESKTOP\VULKAN_ENGINE\BULLET3-2.86.1\EXAMPLES\SHAREDMEMORY\PHYSICSDIRECT.CPP
/c /I..\..\EXAMPLES\SHAREDMEMORY /I..\..\SRC /I..\..\EXAMPLES\THIRDPARTYLIBS /I..\..\EXAMPLES\THIRDPARTYLIBS\OPENVR\HEADERS /I..\..\EXAMPLES\THIRDPARTYLIBS\OPENVR\SAMPLES\SHARED /I..\..\EXAMPLES\THIRDPARTYLIBS\GLEW /Zi /nologo /W3 /WX- /Od /Oy- /D _DEBUG=1 /D B3_USE_STANDALONE_EXAMPLE /D BT_ENABLE_VR /D GLEW_STATIC /D _MBCS /Gm- /EHsc /RTC1 /MTd /GS /Gy /fp:fast /Zc:wchar_t /Zc:forScope /Zc:inline /Fo"OBJ\X32\DEBUG\APP_SHAREDMEMORYPHYSICS_VR\\" /Fd"..\..\BIN\APP_SHAREDMEMORYPHYSICS_VR_VS2010_DEBUG.PDB" /Gd /TP /analyze- /wd4244 /wd4267  C:\USERS\ANTONINO\DESKTOP\VULKAN_ENGINE\BULLET3-2.86.1\EXAMPLES\SHAREDMEMORY\PHYSICSDIRECT.CPP
^C:\USERS\ANTONINO\DESKTOP\VULKAN_ENGINE\BULLET3-2.86.1\EXAMPLES\SHAREDMEMORY\PHYSICSDIRECTC_API.CPP
/c /I..\..\EXAMPLES\SHAREDMEMORY /I..\..\SRC /I..\..\EXAMPLES\THIRDPARTYLIBS /I..\..\EXAMPLES\THIRDPARTYLIBS\OPENVR\HEADERS /I..\..\EXAMPLES\THIRDPARTYLIBS\OPENVR\SAMPLES\SHARED /I..\..\EXAMPLES\THIRDPARTYLIBS\GLEW /Zi /nologo /W3 /WX- /Od /Oy- /D _DEBUG=1 /D B3_USE_STANDALONE_EXAMPLE /D BT_ENABLE_VR /D GLEW_STATIC /D _MBCS /Gm- /EHsc /RTC1 /MTd /GS /Gy /fp:fast /Zc:wchar_t /Zc:forScope /Zc:inline /Fo"OBJ\X32\DEBUG\APP_SHAREDMEMORYPHYSICS_VR\\" /Fd"..\..\BIN\APP_SHAREDMEMORYPHYSICS_VR_VS2010_DEBUG.PDB" /Gd /TP /analyze- /wd4244 /wd4267  C:\USERS\ANTONINO\DESKTOP\VULKAN_ENGINE\BULLET3-2.86.1\EXAMPLES\SHAREDMEMORY\PHYSICSDIRECTC_API.CPP
^C:\USERS\ANTONINO\DESKTOP\VULKAN_ENGINE\BULLET3-2.86.1\EXAMPLES\SHAREDMEMORY\PHYSICSLOOPBACK.CPP
/c /I..\..\EXAMPLES\SHAREDMEMORY /I..\..\SRC /I..\..\EXAMPLES\THIRDPARTYLIBS /I..\..\EXAMPLES\THIRDPARTYLIBS\OPENVR\HEADERS /I..\..\EXAMPLES\THIRDPARTYLIBS\OPENVR\SAMPLES\SHARED /I..\..\EXAMPLES\THIRDPARTYLIBS\GLEW /Zi /nologo /W3 /WX- /Od /Oy- /D _DEBUG=1 /D B3_USE_STANDALONE_EXAMPLE /D BT_ENABLE_VR /D GLEW_STATIC /D _MBCS /Gm- /EHsc /RTC1 /MTd /GS /Gy /fp:fast /Zc:wchar_t /Zc:forScope /Zc:inline /Fo"OBJ\X32\DEBUG\APP_SHAREDMEMORYPHYSICS_VR\\" /Fd"..\..\BIN\APP_SHAREDMEMORYPHYSICS_VR_VS2010_DEBUG.PDB" /Gd /TP /analyze- /wd4244 /wd4267  C:\USERS\ANTONINO\DESKTOP\VULKAN_ENGINE\BULLET3-2.86.1\EXAMPLES\SHAREDMEMORY\PHYSICSLOOPBACK.CPP
^C:\USERS\ANTONINO\DESKTOP\VULKAN_ENGINE\BULLET3-2.86.1\EXAMPLES\SHAREDMEMORY\PHYSICSLOOPBACKC_API.CPP
/c /I..\..\EXAMPLES\SHAREDMEMORY /I..\..\SRC /I..\..\EXAMPLES\THIRDPARTYLIBS /I..\..\EXAMPLES\THIRDPARTYLIBS\OPENVR\HEADERS /I..\..\EXAMPLES\THIRDPARTYLIBS\OPENVR\SAMPLES\SHARED /I..\..\EXAMPLES\THIRDPARTYLIBS\GLEW /Zi /nologo /W3 /WX- /Od /Oy- /D _DEBUG=1 /D B3_USE_STANDALONE_EXAMPLE /D BT_ENABLE_VR /D GLEW_STATIC /D _MBCS /Gm- /EHsc /RTC1 /MTd /GS /Gy /fp:fast /Zc:wchar_t /Zc:forScope /Zc:inline /Fo"OBJ\X32\DEBUG\APP_SHAREDMEMORYPHYSICS_VR\\" /Fd"..\..\BIN\APP_SHAREDMEMORYPHYSICS_VR_VS2010_DEBUG.PDB" /Gd /TP /analyze- /wd4244 /wd4267  C:\USERS\ANTONINO\DESKTOP\VULKAN_ENGINE\BULLET3-2.86.1\EXAMPLES\SHAREDMEMORY\PHYSICSLOOPBACKC_API.CPP
^C:\USERS\ANTONINO\DESKTOP\VULKAN_ENGINE\BULLET3-2.86.1\EXAMPLES\SHAREDMEMORY\PHYSICSCLIENTSHAREDMEMORY_C_API.CPP
/c /I..\..\EXAMPLES\SHAREDMEMORY /I..\..\SRC /I..\..\EXAMPLES\THIRDPARTYLIBS /I..\..\EXAMPLES\THIRDPARTYLIBS\OPENVR\HEADERS /I..\..\EXAMPLES\THIRDPARTYLIBS\OPENVR\SAMPLES\SHARED /I..\..\EXAMPLES\THIRDPARTYLIBS\GLEW /Zi /nologo /W3 /WX- /Od /Oy- /D _DEBUG=1 /D B3_USE_STANDALONE_EXAMPLE /D BT_ENABLE_VR /D GLEW_STATIC /D _MBCS /Gm- /EHsc /RTC1 /MTd /GS /Gy /fp:fast /Zc:wchar_t /Zc:forScope /Zc:inline /Fo"OBJ\X32\DEBUG\APP_SHAREDMEMORYPHYSICS_VR\\" /Fd"..\..\BIN\APP_SHAREDMEMORYPHYSICS_VR_VS2010_DEBUG.PDB" /Gd /TP /analyze- /wd4244 /wd4267  C:\USERS\ANTONINO\DESKTOP\VULKAN_ENGINE\BULLET3-2.86.1\EXAMPLES\SHAREDMEMORY\PHYSICSCLIENTSHAREDMEMORY_C_API.CPP
^C:\USERS\ANTONINO\DESKTOP\VULKAN_ENGINE\BULLET3-2.86.1\EXAMPLES\SHAREDMEMORY\PHYSICSCLIENTSHAREDMEMORY2_C_API.CPP
/c /I..\..\EXAMPLES\SHAREDMEMORY /I..\..\SRC /I..\..\EXAMPLES\THIRDPARTYLIBS /I..\..\EXAMPLES\THIRDPARTYLIBS\OPENVR\HEADERS /I..\..\EXAMPLES\THIRDPARTYLIBS\OPENVR\SAMPLES\SHARED /I..\..\EXAMPLES\THIRDPARTYLIBS\GLEW /Zi /nologo /W3 /WX- /Od /Oy- /D _DEBUG=1 /D B3_USE_STANDALONE_EXAMPLE /D BT_ENABLE_VR /D GLEW_STATIC /D _MBCS /Gm- /EHsc /RTC1 /MTd /GS /Gy /fp:fast /Zc:wchar_t /Zc:forScope /Zc:inline /Fo"OBJ\X32\DEBUG\APP_SHAREDMEMORYPHYSICS_VR\\" /Fd"..\..\BIN\APP_SHAREDMEMORYPHYSICS_VR_VS2010_DEBUG.PDB" /Gd /TP /analyze- /wd4244 /wd4267  C:\USERS\ANTONINO\DESKTOP\VULKAN_ENGINE\BULLET3-2.86.1\EXAMPLES\SHAREDMEMORY\PHYSICSCLIENTSHAREDMEMORY2_C_API.CPP
^C:\USERS\ANTONINO\DESKTOP\VULKAN_ENGINE\BULLET3-2.86.1\EXAMPLES\SHAREDMEMORY\PHYSICSCLIENTSHAREDMEMORY2.CPP
/c /I..\..\EXAMPLES\SHAREDMEMORY /I..\..\SRC /I..\..\EXAMPLES\THIRDPARTYLIBS /I..\..\EXAMPLES\THIRDPARTYLIBS\OPENVR\HEADERS /I..\..\EXAMPLES\THIRDPARTYLIBS\OPENVR\SAMPLES\SHARED /I..\..\EXAMPLES\THIRDPARTYLIBS\GLEW /Zi /nologo /W3 /WX- /Od /Oy- /D _DEBUG=1 /D B3_USE_STANDALONE_EXAMPLE /D BT_ENABLE_VR /D GLEW_STATIC /D _MBCS /Gm- /EHsc /RTC1 /MTd /GS /Gy /fp:fast /Zc:wchar_t /Zc:forScope /Zc:inline /Fo"OBJ\X32\DEBUG\APP_SHAREDMEMORYPHYSICS_VR\\" /Fd"..\..\BIN\APP_SHAREDMEMORYPHYSICS_VR_VS2010_DEBUG.PDB" /Gd /TP /analyze- /wd4244 /wd4267  C:\USERS\ANTONINO\DESKTOP\VULKAN_ENGINE\BULLET3-2.86.1\EXAMPLES\SHAREDMEMORY\PHYSICSCLIENTSHAREDMEMORY2.CPP
^C:\USERS\ANTONINO\DESKTOP\VULKAN_ENGINE\BULLET3-2.86.1\EXAMPLES\SHAREDMEMORY\SHAREDMEMORYCOMMANDPROCESSOR.CPP
/c /I..\..\EXAMPLES\SHAREDMEMORY /I..\..\SRC /I..\..\EXAMPLES\THIRDPARTYLIBS /I..\..\EXAMPLES\THIRDPARTYLIBS\OPENVR\HEADERS /I..\..\EXAMPLES\THIRDPARTYLIBS\OPENVR\SAMPLES\SHARED /I..\..\EXAMPLES\THIRDPARTYLIBS\GLEW /Zi /nologo /W3 /WX- /Od /Oy- /D _DEBUG=1 /D B3_USE_STANDALONE_EXAMPLE /D BT_ENABLE_VR /D GLEW_STATIC /D _MBCS /Gm- /EHsc /RTC1 /MTd /GS /Gy /fp:fast /Zc:wchar_t /Zc:forScope /Zc:inline /Fo"OBJ\X32\DEBUG\APP_SHAREDMEMORYPHYSICS_VR\\" /Fd"..\..\BIN\APP_SHAREDMEMORYPHYSICS_VR_VS2010_DEBUG.PDB" /Gd /TP /analyze- /wd4244 /wd4267  C:\USERS\ANTONINO\DESKTOP\VULKAN_ENGINE\BULLET3-2.86.1\EXAMPLES\SHAREDMEMORY\SHAREDMEMORYCOMMANDPROCESSOR.CPP
^C:\USERS\ANTONINO\DESKTOP\VULKAN_ENGINE\BULLET3-2.86.1\EXAMPLES\SHAREDMEMORY\PHYSICSSERVERCOMMANDPROCESSOR.CPP
/c /I..\..\EXAMPLES\SHAREDMEMORY /I..\..\SRC /I..\..\EXAMPLES\THIRDPARTYLIBS /I..\..\EXAMPLES\THIRDPARTYLIBS\OPENVR\HEADERS /I..\..\EXAMPLES\THIRDPARTYLIBS\OPENVR\SAMPLES\SHARED /I..\..\EXAMPLES\THIRDPARTYLIBS\GLEW /Zi /nologo /W3 /WX- /Od /Oy- /D _DEBUG=1 /D B3_USE_STANDALONE_EXAMPLE /D BT_ENABLE_VR /D GLEW_STATIC /D _MBCS /Gm- /EHsc /RTC1 /MTd /GS /Gy /fp:fast /Zc:wchar_t /Zc:forScope /Zc:inline /Fo"OBJ\X32\DEBUG\APP_SHAREDMEMORYPHYSICS_VR\\" /Fd"..\..\BIN\APP_SHAREDMEMORYPHYSICS_VR_VS2010_DEBUG.PDB" /Gd /TP /analyze- /wd4244 /wd4267  C:\USERS\ANTONINO\DESKTOP\VULKAN_ENGINE\BULLET3-2.86.1\EXAMPLES\SHAREDMEMORY\PHYSICSSERVERCOMMANDPROCESSOR.CPP
^C:\USERS\ANTONINO\DESKTOP\VULKAN_ENGINE\BULLET3-2.86.1\EXAMPLES\SHAREDMEMORY\TINYRENDERERVISUALSHAPECONVERTER.CPP
/c /I..\..\EXAMPLES\SHAREDMEMORY /I..\..\SRC /I..\..\EXAMPLES\THIRDPARTYLIBS /I..\..\EXAMPLES\THIRDPARTYLIBS\OPENVR\HEADERS /I..\..\EXAMPLES\THIRDPARTYLIBS\OPENVR\SAMPLES\SHARED /I..\..\EXAMPLES\THIRDPARTYLIBS\GLEW /Zi /nologo /W3 /WX- /Od /Oy- /D _DEBUG=1 /D B3_USE_STANDALONE_EXAMPLE /D BT_ENABLE_VR /D GLEW_STATIC /D _MBCS /Gm- /EHsc /RTC1 /MTd /GS /Gy /fp:fast /Zc:wchar_t /Zc:forScope /Zc:inline /Fo"OBJ\X32\DEBUG\APP_SHAREDMEMORYPHYSICS_VR\\" /Fd"..\..\BIN\APP_SHAREDMEMORYPHYSICS_VR_VS2010_DEBUG.PDB" /Gd /TP /analyze- /wd4244 /wd4267  C:\USERS\ANTONINO\DESKTOP\VULKAN_ENGINE\BULLET3-2.86.1\EXAMPLES\SHAREDMEMORY\TINYRENDERERVISUALSHAPECONVERTER.CPP
^C:\USERS\ANTONINO\DESKTOP\VULKAN_ENGINE\BULLET3-2.86.1\EXAMPLES\TINYRENDERER\GEOMETRY.CPP
/c /I..\..\EXAMPLES\SHAREDMEMORY /I..\..\SRC /I..\..\EXAMPLES\THIRDPARTYLIBS /I..\..\EXAMPLES\THIRDPARTYLIBS\OPENVR\HEADERS /I..\..\EXAMPLES\THIRDPARTYLIBS\OPENVR\SAMPLES\SHARED /I..\..\EXAMPLES\THIRDPARTYLIBS\GLEW /Zi /nologo /W3 /WX- /Od /Oy- /D _DEBUG=1 /D B3_USE_STANDALONE_EXAMPLE /D BT_ENABLE_VR /D GLEW_STATIC /D _MBCS /Gm- /EHsc /RTC1 /MTd /GS /Gy /fp:fast /Zc:wchar_t /Zc:forScope /Zc:inline /Fo"OBJ\X32\DEBUG\APP_SHAREDMEMORYPHYSICS_VR\\" /Fd"..\..\BIN\APP_SHAREDMEMORYPHYSICS_VR_VS2010_DEBUG.PDB" /Gd /TP /analyze- /wd4244 /wd4267  C:\USERS\ANTONINO\DESKTOP\VULKAN_ENGINE\BULLET3-2.86.1\EXAMPLES\TINYRENDERER\GEOMETRY.CPP
^C:\USERS\ANTONINO\DESKTOP\VULKAN_ENGINE\BULLET3-2.86.1\EXAMPLES\TINYRENDERER\MODEL.CPP
/c /I..\..\EXAMPLES\SHAREDMEMORY /I..\..\SRC /I..\..\EXAMPLES\THIRDPARTYLIBS /I..\..\EXAMPLES\THIRDPARTYLIBS\OPENVR\HEADERS /I..\..\EXAMPLES\THIRDPARTYLIBS\OPENVR\SAMPLES\SHARED /I..\..\EXAMPLES\THIRDPARTYLIBS\GLEW /Zi /nologo /W3 /WX- /Od /Oy- /D _DEBUG=1 /D B3_USE_STANDALONE_EXAMPLE /D BT_ENABLE_VR /D GLEW_STATIC /D _MBCS /Gm- /EHsc /RTC1 /MTd /GS /Gy /fp:fast /Zc:wchar_t /Zc:forScope /Zc:inline /Fo"OBJ\X32\DEBUG\APP_SHAREDMEMORYPHYSICS_VR\\" /Fd"..\..\BIN\APP_SHAREDMEMORYPHYSICS_VR_VS2010_DEBUG.PDB" /Gd /TP /analyze- /wd4244 /wd4267  C:\USERS\ANTONINO\DESKTOP\VULKAN_ENGINE\BULLET3-2.86.1\EXAMPLES\TINYRENDERER\MODEL.CPP
^C:\USERS\ANTONINO\DESKTOP\VULKAN_ENGINE\BULLET3-2.86.1\EXAMPLES\TINYRENDERER\TGAIMAGE.CPP
/c /I..\..\EXAMPLES\SHAREDMEMORY /I..\..\SRC /I..\..\EXAMPLES\THIRDPARTYLIBS /I..\..\EXAMPLES\THIRDPARTYLIBS\OPENVR\HEADERS /I..\..\EXAMPLES\THIRDPARTYLIBS\OPENVR\SAMPLES\SHARED /I..\..\EXAMPLES\THIRDPARTYLIBS\GLEW /Zi /nologo /W3 /WX- /Od /Oy- /D _DEBUG=1 /D B3_USE_STANDALONE_EXAMPLE /D BT_ENABLE_VR /D GLEW_STATIC /D _MBCS /Gm- /EHsc /RTC1 /MTd /GS /Gy /fp:fast /Zc:wchar_t /Zc:forScope /Zc:inline /Fo"OBJ\X32\DEBUG\APP_SHAREDMEMORYPHYSICS_VR\\" /Fd"..\..\BIN\APP_SHAREDMEMORYPHYSICS_VR_VS2010_DEBUG.PDB" /Gd /TP /analyze- /wd4244 /wd4267  C:\USERS\ANTONINO\DESKTOP\VULKAN_ENGINE\BULLET3-2.86.1\EXAMPLES\TINYRENDERER\TGAIMAGE.CPP
^C:\USERS\ANTONINO\DESKTOP\VULKAN_ENGINE\BULLET3-2.86.1\EXAMPLES\TINYRENDERER\OUR_GL.CPP
/c /I..\..\EXAMPLES\SHAREDMEMORY /I..\..\SRC /I..\..\EXAMPLES\THIRDPARTYLIBS /I..\..\EXAMPLES\THIRDPARTYLIBS\OPENVR\HEADERS /I..\..\EXAMPLES\THIRDPARTYLIBS\OPENVR\SAMPLES\SHARED /I..\..\EXAMPLES\THIRDPARTYLIBS\GLEW /Zi /nologo /W3 /WX- /Od /Oy- /D _DEBUG=1 /D B3_USE_STANDALONE_EXAMPLE /D BT_ENABLE_VR /D GLEW_STATIC /D _MBCS /Gm- /EHsc /RTC1 /MTd /GS /Gy /fp:fast /Zc:wchar_t /Zc:forScope /Zc:inline /Fo"OBJ\X32\DEBUG\APP_SHAREDMEMORYPHYSICS_VR\\" /Fd"..\..\BIN\APP_SHAREDMEMORYPHYSICS_VR_VS2010_DEBUG.PDB" /Gd /TP /analyze- /wd4244 /wd4267  C:\USERS\ANTONINO\DESKTOP\VULKAN_ENGINE\BULLET3-2.86.1\EXAMPLES\TINYRENDERER\OUR_GL.CPP
^C:\USERS\ANTONINO\DESKTOP\VULKAN_ENGINE\BULLET3-2.86.1\EXAMPLES\TINYRENDERER\TINYRENDERER.CPP
/c /I..\..\EXAMPLES\SHAREDMEMORY /I..\..\SRC /I..\..\EXAMPLES\THIRDPARTYLIBS /I..\..\EXAMPLES\THIRDPARTYLIBS\OPENVR\HEADERS /I..\..\EXAMPLES\THIRDPARTYLIBS\OPENVR\SAMPLES\SHARED /I..\..\EXAMPLES\THIRDPARTYLIBS\GLEW /Zi /nologo /W3 /WX- /Od /Oy- /D _DEBUG=1 /D B3_USE_STANDALONE_EXAMPLE /D BT_ENABLE_VR /D GLEW_STATIC /D _MBCS /Gm- /EHsc /RTC1 /MTd /GS /Gy /fp:fast /Zc:wchar_t /Zc:forScope /Zc:inline /Fo"OBJ\X32\DEBUG\APP_SHAREDMEMORYPHYSICS_VR\\" /Fd"..\..\BIN\APP_SHAREDMEMORYPHYSICS_VR_VS2010_DEBUG.PDB" /Gd /TP /analyze- /wd4244 /wd4267  C:\USERS\ANTONINO\DESKTOP\VULKAN_ENGINE\BULLET3-2.86.1\EXAMPLES\TINYRENDERER\TINYRENDERER.CPP
^C:\USERS\ANTONINO\DESKTOP\VULKAN_ENGINE\BULLET3-2.86.1\EXAMPLES\OPENGLWINDOW\SIMPLECAMERA.CPP
/c /I..\..\EXAMPLES\SHAREDMEMORY /I..\..\SRC /I..\..\EXAMPLES\THIRDPARTYLIBS /I..\..\EXAMPLES\THIRDPARTYLIBS\OPENVR\HEADERS /I..\..\EXAMPLES\THIRDPARTYLIBS\OPENVR\SAMPLES\SHARED /I..\..\EXAMPLES\THIRDPARTYLIBS\GLEW /Zi /nologo /W3 /WX- /Od /Oy- /D _DEBUG=1 /D B3_USE_STANDALONE_EXAMPLE /D BT_ENABLE_VR /D GLEW_STATIC /D _MBCS /Gm- /EHsc /RTC1 /MTd /GS /Gy /fp:fast /Zc:wchar_t /Zc:forScope /Zc:inline /Fo"OBJ\X32\DEBUG\APP_SHAREDMEMORYPHYSICS_VR\\" /Fd"..\..\BIN\APP_SHAREDMEMORYPHYSICS_VR_VS2010_DEBUG.PDB" /Gd /TP /analyze- /wd4244 /wd4267  C:\USERS\ANTONINO\DESKTOP\VULKAN_ENGINE\BULLET3-2.86.1\EXAMPLES\OPENGLWINDOW\SIMPLECAMERA.CPP
^C:\USERS\ANTONINO\DESKTOP\VULKAN_ENGINE\BULLET3-2.86.1\EXAMPLES\IMPORTERS\IMPORTURDFDEMO\MYMULTIBODYCREATOR.CPP
/c /I..\..\EXAMPLES\SHAREDMEMORY /I..\..\SRC /I..\..\EXAMPLES\THIRDPARTYLIBS /I..\..\EXAMPLES\THIRDPARTYLIBS\OPENVR\HEADERS /I..\..\EXAMPLES\THIRDPARTYLIBS\OPENVR\SAMPLES\SHARED /I..\..\EXAMPLES\THIRDPARTYLIBS\GLEW /Zi /nologo /W3 /WX- /Od /Oy- /D _DEBUG=1 /D B3_USE_STANDALONE_EXAMPLE /D BT_ENABLE_VR /D GLEW_STATIC /D _MBCS /Gm- /EHsc /RTC1 /MTd /GS /Gy /fp:fast /Zc:wchar_t /Zc:forScope /Zc:inline /Fo"OBJ\X32\DEBUG\APP_SHAREDMEMORYPHYSICS_VR\\" /Fd"..\..\BIN\APP_SHAREDMEMORYPHYSICS_VR_VS2010_DEBUG.PDB" /Gd /TP /analyze- /wd4244 /wd4267  C:\USERS\ANTONINO\DESKTOP\VULKAN_ENGINE\BULLET3-2.86.1\EXAMPLES\IMPORTERS\IMPORTURDFDEMO\MYMULTIBODYCREATOR.CPP
^C:\USERS\ANTONINO\DESKTOP\VULKAN_ENGINE\BULLET3-2.86.1\EXAMPLES\IMPORTERS\IMPORTURDFDEMO\BULLETURDFIMPORTER.CPP
/c /I..\..\EXAMPLES\SHAREDMEMORY /I..\..\SRC /I..\..\EXAMPLES\THIRDPARTYLIBS /I..\..\EXAMPLES\THIRDPARTYLIBS\OPENVR\HEADERS /I..\..\EXAMPLES\THIRDPARTYLIBS\OPENVR\SAMPLES\SHARED /I..\..\EXAMPLES\THIRDPARTYLIBS\GLEW /Zi /nologo /W3 /WX- /Od /Oy- /D _DEBUG=1 /D B3_USE_STANDALONE_EXAMPLE /D BT_ENABLE_VR /D GLEW_STATIC /D _MBCS /Gm- /EHsc /RTC1 /MTd /GS /Gy /fp:fast /Zc:wchar_t /Zc:forScope /Zc:inline /Fo"OBJ\X32\DEBUG\APP_SHAREDMEMORYPHYSICS_VR\\" /Fd"..\..\BIN\APP_SHAREDMEMORYPHYSICS_VR_VS2010_DEBUG.PDB" /Gd /TP /analyze- /wd4244 /wd4267  C:\USERS\ANTONINO\DESKTOP\VULKAN_ENGINE\BULLET3-2.86.1\EXAMPLES\IMPORTERS\IMPORTURDFDEMO\BULLETURDFIMPORTER.CPP
^C:\USERS\ANTONINO\DESKTOP\VULKAN_ENGINE\BULLET3-2.86.1\EXAMPLES\IMPORTERS\IMPORTURDFDEMO\URDFPARSER.CPP
/c /I..\..\EXAMPLES\SHAREDMEMORY /I..\..\SRC /I..\..\EXAMPLES\THIRDPARTYLIBS /I..\..\EXAMPLES\THIRDPARTYLIBS\OPENVR\HEADERS /I..\..\EXAMPLES\THIRDPARTYLIBS\OPENVR\SAMPLES\SHARED /I..\..\EXAMPLES\THIRDPARTYLIBS\GLEW /Zi /nologo /W3 /WX- /Od /Oy- /D _DEBUG=1 /D B3_USE_STANDALONE_EXAMPLE /D BT_ENABLE_VR /D GLEW_STATIC /D _MBCS /Gm- /EHsc /RTC1 /MTd /GS /Gy /fp:fast /Zc:wchar_t /Zc:forScope /Zc:inline /Fo"OBJ\X32\DEBUG\APP_SHAREDMEMORYPHYSICS_VR\\" /Fd"..\..\BIN\APP_SHAREDMEMORYPHYSICS_VR_VS2010_DEBUG.PDB" /Gd /TP /analyze- /wd4244 /wd4267  C:\USERS\ANTONINO\DESKTOP\VULKAN_ENGINE\BULLET3-2.86.1\EXAMPLES\IMPORTERS\IMPORTURDFDEMO\URDFPARSER.CPP
^C:\USERS\ANTONINO\DESKTOP\VULKAN_ENGINE\BULLET3-2.86.1\EXAMPLES\IMPORTERS\IMPORTURDFDEMO\URDFSTRINGSPLIT.CPP
/c /I..\..\EXAMPLES\SHAREDMEMORY /I..\..\SRC /I..\..\EXAMPLES\THIRDPARTYLIBS /I..\..\EXAMPLES\THIRDPARTYLIBS\OPENVR\HEADERS /I..\..\EXAMPLES\THIRDPARTYLIBS\OPENVR\SAMPLES\SHARED /I..\..\EXAMPLES\THIRDPARTYLIBS\GLEW /Zi /nologo /W3 /WX- /Od /Oy- /D _DEBUG=1 /D B3_USE_STANDALONE_EXAMPLE /D BT_ENABLE_VR /D GLEW_STATIC /D _MBCS /Gm- /EHsc /RTC1 /MTd /GS /Gy /fp:fast /Zc:wchar_t /Zc:forScope /Zc:inline /Fo"OBJ\X32\DEBUG\APP_SHAREDMEMORYPHYSICS_VR\\" /Fd"..\..\BIN\APP_SHAREDMEMORYPHYSICS_VR_VS2010_DEBUG.PDB" /Gd /TP /analyze- /wd4244 /wd4267  C:\USERS\ANTONINO\DESKTOP\VULKAN_ENGINE\BULLET3-2.86.1\EXAMPLES\IMPORTERS\IMPORTURDFDEMO\URDFSTRINGSPLIT.CPP
^C:\USERS\ANTONINO\DESKTOP\VULKAN_ENGINE\BULLET3-2.86.1\EXAMPLES\IMPORTERS\IMPORTURDFDEMO\URDF2BULLET.CPP
/c /I..\..\EXAMPLES\SHAREDMEMORY /I..\..\SRC /I..\..\EXAMPLES\THIRDPARTYLIBS /I..\..\EXAMPLES\THIRDPARTYLIBS\OPENVR\HEADERS /I..\..\EXAMPLES\THIRDPARTYLIBS\OPENVR\SAMPLES\SHARED /I..\..\EXAMPLES\THIRDPARTYLIBS\GLEW /Zi /nologo /W3 /WX- /Od /Oy- /D _DEBUG=1 /D B3_USE_STANDALONE_EXAMPLE /D BT_ENABLE_VR /D GLEW_STATIC /D _MBCS /Gm- /EHsc /RTC1 /MTd /GS /Gy /fp:fast /Zc:wchar_t /Zc:forScope /Zc:inline /Fo"OBJ\X32\DEBUG\APP_SHAREDMEMORYPHYSICS_VR\\" /Fd"..\..\BIN\APP_SHAREDMEMORYPHYSICS_VR_VS2010_DEBUG.PDB" /Gd /TP /analyze- /wd4244 /wd4267  C:\USERS\ANTONINO\DESKTOP\VULKAN_ENGINE\BULLET3-2.86.1\EXAMPLES\IMPORTERS\IMPORTURDFDEMO\URDF2BULLET.CPP
^C:\USERS\ANTONINO\DESKTOP\VULKAN_ENGINE\BULLET3-2.86.1\EXAMPLES\IMPORTERS\IMPORTMJCFDEMO\BULLETMJCFIMPORTER.CPP
/c /I..\..\EXAMPLES\SHAREDMEMORY /I..\..\SRC /I..\..\EXAMPLES\THIRDPARTYLIBS /I..\..\EXAMPLES\THIRDPARTYLIBS\OPENVR\HEADERS /I..\..\EXAMPLES\THIRDPARTYLIBS\OPENVR\SAMPLES\SHARED /I..\..\EXAMPLES\THIRDPARTYLIBS\GLEW /Zi /nologo /W3 /WX- /Od /Oy- /D _DEBUG=1 /D B3_USE_STANDALONE_EXAMPLE /D BT_ENABLE_VR /D GLEW_STATIC /D _MBCS /Gm- /EHsc /RTC1 /MTd /GS /Gy /fp:fast /Zc:wchar_t /Zc:forScope /Zc:inline /Fo"OBJ\X32\DEBUG\APP_SHAREDMEMORYPHYSICS_VR\\" /Fd"..\..\BIN\APP_SHAREDMEMORYPHYSICS_VR_VS2010_DEBUG.PDB" /Gd /TP /analyze- /wd4244 /wd4267  C:\USERS\ANTONINO\DESKTOP\VULKAN_ENGINE\BULLET3-2.86.1\EXAMPLES\IMPORTERS\IMPORTMJCFDEMO\BULLETMJCFIMPORTER.CPP
^C:\USERS\ANTONINO\DESKTOP\VULKAN_ENGINE\BULLET3-2.86.1\EXAMPLES\UTILS\B3RESOURCEPATH.CPP
/c /I..\..\EXAMPLES\SHAREDMEMORY /I..\..\SRC /I..\..\EXAMPLES\THIRDPARTYLIBS /I..\..\EXAMPLES\THIRDPARTYLIBS\OPENVR\HEADERS /I..\..\EXAMPLES\THIRDPARTYLIBS\OPENVR\SAMPLES\SHARED /I..\..\EXAMPLES\THIRDPARTYLIBS\GLEW /Zi /nologo /W3 /WX- /Od /Oy- /D _DEBUG=1 /D B3_USE_STANDALONE_EXAMPLE /D BT_ENABLE_VR /D GLEW_STATIC /D _MBCS /Gm- /EHsc /RTC1 /MTd /GS /Gy /fp:fast /Zc:wchar_t /Zc:forScope /Zc:inline /Fo"OBJ\X32\DEBUG\APP_SHAREDMEMORYPHYSICS_VR\\" /Fd"..\..\BIN\APP_SHAREDMEMORYPHYSICS_VR_VS2010_DEBUG.PDB" /Gd /TP /analyze- /wd4244 /wd4267  C:\USERS\ANTONINO\DESKTOP\VULKAN_ENGINE\BULLET3-2.86.1\EXAMPLES\UTILS\B3RESOURCEPATH.CPP
^C:\USERS\ANTONINO\DESKTOP\VULKAN_ENGINE\BULLET3-2.86.1\EXAMPLES\UTILS\B3CLOCK.CPP
/c /I..\..\EXAMPLES\SHAREDMEMORY /I..\..\SRC /I..\..\EXAMPLES\THIRDPARTYLIBS /I..\..\EXAMPLES\THIRDPARTYLIBS\OPENVR\HEADERS /I..\..\EXAMPLES\THIRDPARTYLIBS\OPENVR\SAMPLES\SHARED /I..\..\EXAMPLES\THIRDPARTYLIBS\GLEW /Zi /nologo /W3 /WX- /Od /Oy- /D _DEBUG=1 /D B3_USE_STANDALONE_EXAMPLE /D BT_ENABLE_VR /D GLEW_STATIC /D _MBCS /Gm- /EHsc /RTC1 /MTd /GS /Gy /fp:fast /Zc:wchar_t /Zc:forScope /Zc:inline /Fo"OBJ\X32\DEBUG\APP_SHAREDMEMORYPHYSICS_VR\\" /Fd"..\..\BIN\APP_SHAREDMEMORYPHYSICS_VR_VS2010_DEBUG.PDB" /Gd /TP /analyze- /wd4244 /wd4267  C:\USERS\ANTONINO\DESKTOP\VULKAN_ENGINE\BULLET3-2.86.1\EXAMPLES\UTILS\B3CLOCK.CPP
^C:\USERS\ANTONINO\DESKTOP\VULKAN_ENGINE\BULLET3-2.86.1\EXAMPLES\UTILS\ROBOTLOGGINGUTIL.CPP
/c /I..\..\EXAMPLES\SHAREDMEMORY /I..\..\SRC /I..\..\EXAMPLES\THIRDPARTYLIBS /I..\..\EXAMPLES\THIRDPARTYLIBS\OPENVR\HEADERS /I..\..\EXAMPLES\THIRDPARTYLIBS\OPENVR\SAMPLES\SHARED /I..\..\EXAMPLES\THIRDPARTYLIBS\GLEW /Zi /nologo /W3 /WX- /Od /Oy- /D _DEBUG=1 /D B3_USE_STANDALONE_EXAMPLE /D BT_ENABLE_VR /D GLEW_STATIC /D _MBCS /Gm- /EHsc /RTC1 /MTd /GS /Gy /fp:fast /Zc:wchar_t /Zc:forScope /Zc:inline /Fo"OBJ\X32\DEBUG\APP_SHAREDMEMORYPHYSICS_VR\\" /Fd"..\..\BIN\APP_SHAREDMEMORYPHYSICS_VR_VS2010_DEBUG.PDB" /Gd /TP /analyze- /wd4244 /wd4267  C:\USERS\ANTONINO\DESKTOP\VULKAN_ENGINE\BULLET3-2.86.1\EXAMPLES\UTILS\ROBOTLOGGINGUTIL.CPP
^C:\USERS\ANTONINO\DESKTOP\VULKAN_ENGINE\BULLET3-2.86.1\EXAMPLES\UTILS\CHROMETRACEUTIL.CPP
/c /I..\..\EXAMPLES\SHAREDMEMORY /I..\..\SRC /I..\..\EXAMPLES\THIRDPARTYLIBS /I..\..\EXAMPLES\THIRDPARTYLIBS\OPENVR\HEADERS /I..\..\EXAMPLES\THIRDPARTYLIBS\OPENVR\SAMPLES\SHARED /I..\..\EXAMPLES\THIRDPARTYLIBS\GLEW /Zi /nologo /W3 /WX- /Od /Oy- /D _DEBUG=1 /D B3_USE_STANDALONE_EXAMPLE /D BT_ENABLE_VR /D GLEW_STATIC /D _MBCS /Gm- /EHsc /RTC1 /MTd /GS /Gy /fp:fast /Zc:wchar_t /Zc:forScope /Zc:inline /Fo"OBJ\X32\DEBUG\APP_SHAREDMEMORYPHYSICS_VR\\" /Fd"..\..\BIN\APP_SHAREDMEMORYPHYSICS_VR_VS2010_DEBUG.PDB" /Gd /TP /analyze- /wd4244 /wd4267  C:\USERS\ANTONINO\DESKTOP\VULKAN_ENGINE\BULLET3-2.86.1\EXAMPLES\UTILS\CHROMETRACEUTIL.CPP
^C:\USERS\ANTONINO\DESKTOP\VULKAN_ENGINE\BULLET3-2.86.1\EXTRAS\SERIALIZE\BULLETWORLDIMPORTER\BTBULLETWORLDIMPORTER.CPP
/c /I..\..\EXAMPLES\SHAREDMEMORY /I..\..\SRC /I..\..\EXAMPLES\THIRDPARTYLIBS /I..\..\EXAMPLES\THIRDPARTYLIBS\OPENVR\HEADERS /I..\..\EXAMPLES\THIRDPARTYLIBS\OPENVR\SAMPLES\SHARED /I..\..\EXAMPLES\THIRDPARTYLIBS\GLEW /Zi /nologo /W3 /WX- /Od /Oy- /D _DEBUG=1 /D B3_USE_STANDALONE_EXAMPLE /D BT_ENABLE_VR /D GLEW_STATIC /D _MBCS /Gm- /EHsc /RTC1 /MTd /GS /Gy /fp:fast /Zc:wchar_t /Zc:forScope /Zc:inline /Fo"OBJ\X32\DEBUG\APP_SHAREDMEMORYPHYSICS_VR\\" /Fd"..\..\BIN\APP_SHAREDMEMORYPHYSICS_VR_VS2010_DEBUG.PDB" /Gd /TP /analyze- /wd4244 /wd4267  C:\USERS\ANTONINO\DESKTOP\VULKAN_ENGINE\BULLET3-2.86.1\EXTRAS\SERIALIZE\BULLETWORLDIMPORTER\BTBULLETWORLDIMPORTER.CPP
^C:\USERS\ANTONINO\DESKTOP\VULKAN_ENGINE\BULLET3-2.86.1\EXTRAS\SERIALIZE\BULLETWORLDIMPORTER\BTWORLDIMPORTER.CPP
/c /I..\..\EXAMPLES\SHAREDMEMORY /I..\..\SRC /I..\..\EXAMPLES\THIRDPARTYLIBS /I..\..\EXAMPLES\THIRDPARTYLIBS\OPENVR\HEADERS /I..\..\EXAMPLES\THIRDPARTYLIBS\OPENVR\SAMPLES\SHARED /I..\..\EXAMPLES\THIRDPARTYLIBS\GLEW /Zi /nologo /W3 /WX- /Od /Oy- /D _DEBUG=1 /D B3_USE_STANDALONE_EXAMPLE /D BT_ENABLE_VR /D GLEW_STATIC /D _MBCS /Gm- /EHsc /RTC1 /MTd /GS /Gy /fp:fast /Zc:wchar_t /Zc:forScope /Zc:inline /Fo"OBJ\X32\DEBUG\APP_SHAREDMEMORYPHYSICS_VR\\" /Fd"..\..\BIN\APP_SHAREDMEMORYPHYSICS_VR_VS2010_DEBUG.PDB" /Gd /TP /analyze- /wd4244 /wd4267  C:\USERS\ANTONINO\DESKTOP\VULKAN_ENGINE\BULLET3-2.86.1\EXTRAS\SERIALIZE\BULLETWORLDIMPORTER\BTWORLDIMPORTER.CPP
^C:\USERS\ANTONINO\DESKTOP\VULKAN_ENGINE\BULLET3-2.86.1\EXTRAS\SERIALIZE\BULLETFILELOADER\BCHUNK.CPP
/c /I..\..\EXAMPLES\SHAREDMEMORY /I..\..\SRC /I..\..\EXAMPLES\THIRDPARTYLIBS /I..\..\EXAMPLES\THIRDPARTYLIBS\OPENVR\HEADERS /I..\..\EXAMPLES\THIRDPARTYLIBS\OPENVR\SAMPLES\SHARED /I..\..\EXAMPLES\THIRDPARTYLIBS\GLEW /Zi /nologo /W3 /WX- /Od /Oy- /D _DEBUG=1 /D B3_USE_STANDALONE_EXAMPLE /D BT_ENABLE_VR /D GLEW_STATIC /D _MBCS /Gm- /EHsc /RTC1 /MTd /GS /Gy /fp:fast /Zc:wchar_t /Zc:forScope /Zc:inline /Fo"OBJ\X32\DEBUG\APP_SHAREDMEMORYPHYSICS_VR\\" /Fd"..\..\BIN\APP_SHAREDMEMORYPHYSICS_VR_VS2010_DEBUG.PDB" /Gd /TP /analyze- /wd4244 /wd4267  C:\USERS\ANTONINO\DESKTOP\VULKAN_ENGINE\BULLET3-2.86.1\EXTRAS\SERIALIZE\BULLETFILELOADER\BCHUNK.CPP
^C:\USERS\ANTONINO\DESKTOP\VULKAN_ENGINE\BULLET3-2.86.1\EXTRAS\SERIALIZE\BULLETFILELOADER\BDNA.CPP
/c /I..\..\EXAMPLES\SHAREDMEMORY /I..\..\SRC /I..\..\EXAMPLES\THIRDPARTYLIBS /I..\..\EXAMPLES\THIRDPARTYLIBS\OPENVR\HEADERS /I..\..\EXAMPLES\THIRDPARTYLIBS\OPENVR\SAMPLES\SHARED /I..\..\EXAMPLES\THIRDPARTYLIBS\GLEW /Zi /nologo /W3 /WX- /Od /Oy- /D _DEBUG=1 /D B3_USE_STANDALONE_EXAMPLE /D BT_ENABLE_VR /D GLEW_STATIC /D _MBCS /Gm- /EHsc /RTC1 /MTd /GS /Gy /fp:fast /Zc:wchar_t /Zc:forScope /Zc:inline /Fo"OBJ\X32\DEBUG\APP_SHAREDMEMORYPHYSICS_VR\\" /Fd"..\..\BIN\APP_SHAREDMEMORYPHYSICS_VR_VS2010_DEBUG.PDB" /Gd /TP /analyze- /wd4244 /wd4267  C:\USERS\ANTONINO\DESKTOP\VULKAN_ENGINE\BULLET3-2.86.1\EXTRAS\SERIALIZE\BULLETFILELOADER\BDNA.CPP
^C:\USERS\ANTONINO\DESKTOP\VULKAN_ENGINE\BULLET3-2.86.1\EXTRAS\SERIALIZE\BULLETFILELOADER\BFILE.CPP
/c /I..\..\EXAMPLES\SHAREDMEMORY /I..\..\SRC /I..\..\EXAMPLES\THIRDPARTYLIBS /I..\..\EXAMPLES\THIRDPARTYLIBS\OPENVR\HEADERS /I..\..\EXAMPLES\THIRDPARTYLIBS\OPENVR\SAMPLES\SHARED /I..\..\EXAMPLES\THIRDPARTYLIBS\GLEW /Zi /nologo /W3 /WX- /Od /Oy- /D _DEBUG=1 /D B3_USE_STANDALONE_EXAMPLE /D BT_ENABLE_VR /D GLEW_STATIC /D _MBCS /Gm- /EHsc /RTC1 /MTd /GS /Gy /fp:fast /Zc:wchar_t /Zc:forScope /Zc:inline /Fo"OBJ\X32\DEBUG\APP_SHAREDMEMORYPHYSICS_VR\\" /Fd"..\..\BIN\APP_SHAREDMEMORYPHYSICS_VR_VS2010_DEBUG.PDB" /Gd /TP /analyze- /wd4244 /wd4267  C:\USERS\ANTONINO\DESKTOP\VULKAN_ENGINE\BULLET3-2.86.1\EXTRAS\SERIALIZE\BULLETFILELOADER\BFILE.CPP
^C:\USERS\ANTONINO\DESKTOP\VULKAN_ENGINE\BULLET3-2.86.1\EXTRAS\SERIALIZE\BULLETFILELOADER\BTBULLETFILE.CPP
/c /I..\..\EXAMPLES\SHAREDMEMORY /I..\..\SRC /I..\..\EXAMPLES\THIRDPARTYLIBS /I..\..\EXAMPLES\THIRDPARTYLIBS\OPENVR\HEADERS /I..\..\EXAMPLES\THIRDPARTYLIBS\OPENVR\SAMPLES\SHARED /I..\..\EXAMPLES\THIRDPARTYLIBS\GLEW /Zi /nologo /W3 /WX- /Od /Oy- /D _DEBUG=1 /D B3_USE_STANDALONE_EXAMPLE /D BT_ENABLE_VR /D GLEW_STATIC /D _MBCS /Gm- /EHsc /RTC1 /MTd /GS /Gy /fp:fast /Zc:wchar_t /Zc:forScope /Zc:inline /Fo"OBJ\X32\DEBUG\APP_SHAREDMEMORYPHYSICS_VR\\" /Fd"..\..\BIN\APP_SHAREDMEMORYPHYSICS_VR_VS2010_DEBUG.PDB" /Gd /TP /analyze- /wd4244 /wd4267  C:\USERS\ANTONINO\DESKTOP\VULKAN_ENGINE\BULLET3-2.86.1\EXTRAS\SERIALIZE\BULLETFILELOADER\BTBULLETFILE.CPP
^C:\USERS\ANTONINO\DESKTOP\VULKAN_ENGINE\BULLET3-2.86.1\EXAMPLES\IMPORTERS\IMPORTOBJDEMO\WAVEFRONT2GLINSTANCEGRAPHICSSHAPE.CPP
/c /I..\..\EXAMPLES\SHAREDMEMORY /I..\..\SRC /I..\..\EXAMPLES\THIRDPARTYLIBS /I..\..\EXAMPLES\THIRDPARTYLIBS\OPENVR\HEADERS /I..\..\EXAMPLES\THIRDPARTYLIBS\OPENVR\SAMPLES\SHARED /I..\..\EXAMPLES\THIRDPARTYLIBS\GLEW /Zi /nologo /W3 /WX- /Od /Oy- /D _DEBUG=1 /D B3_USE_STANDALONE_EXAMPLE /D BT_ENABLE_VR /D GLEW_STATIC /D _MBCS /Gm- /EHsc /RTC1 /MTd /GS /Gy /fp:fast /Zc:wchar_t /Zc:forScope /Zc:inline /Fo"OBJ\X32\DEBUG\APP_SHAREDMEMORYPHYSICS_VR\\" /Fd"..\..\BIN\APP_SHAREDMEMORYPHYSICS_VR_VS2010_DEBUG.PDB" /Gd /TP /analyze- /wd4244 /wd4267  C:\USERS\ANTONINO\DESKTOP\VULKAN_ENGINE\BULLET3-2.86.1\EXAMPLES\IMPORTERS\IMPORTOBJDEMO\WAVEFRONT2GLINSTANCEGRAPHICSSHAPE.CPP
^C:\USERS\ANTONINO\DESKTOP\VULKAN_ENGINE\BULLET3-2.86.1\EXAMPLES\IMPORTERS\IMPORTOBJDEMO\LOADMESHFROMOBJ.CPP
/c /I..\..\EXAMPLES\SHAREDMEMORY /I..\..\SRC /I..\..\EXAMPLES\THIRDPARTYLIBS /I..\..\EXAMPLES\THIRDPARTYLIBS\OPENVR\HEADERS /I..\..\EXAMPLES\THIRDPARTYLIBS\OPENVR\SAMPLES\SHARED /I..\..\EXAMPLES\THIRDPARTYLIBS\GLEW /Zi /nologo /W3 /WX- /Od /Oy- /D _DEBUG=1 /D B3_USE_STANDALONE_EXAMPLE /D BT_ENABLE_VR /D GLEW_STATIC /D _MBCS /Gm- /EHsc /RTC1 /MTd /GS /Gy /fp:fast /Zc:wchar_t /Zc:forScope /Zc:inline /Fo"OBJ\X32\DEBUG\APP_SHAREDMEMORYPHYSICS_VR\\" /Fd"..\..\BIN\APP_SHAREDMEMORYPHYSICS_VR_VS2010_DEBUG.PDB" /Gd /TP /analyze- /wd4244 /wd4267  C:\USERS\ANTONINO\DESKTOP\VULKAN_ENGINE\BULLET3-2.86.1\EXAMPLES\IMPORTERS\IMPORTOBJDEMO\LOADMESHFROMOBJ.CPP
^C:\USERS\ANTONINO\DESKTOP\VULKAN_ENGINE\BULLET3-2.86.1\EXAMPLES\IMPORTERS\IMPORTCOLLADADEMO\LOADMESHFROMCOLLADA.CPP
/c /I..\..\EXAMPLES\SHAREDMEMORY /I..\..\SRC /I..\..\EXAMPLES\THIRDPARTYLIBS /I..\..\EXAMPLES\THIRDPARTYLIBS\OPENVR\HEADERS /I..\..\EXAMPLES\THIRDPARTYLIBS\OPENVR\SAMPLES\SHARED /I..\..\EXAMPLES\THIRDPARTYLIBS\GLEW /Zi /nologo /W3 /WX- /Od /Oy- /D _DEBUG=1 /D B3_USE_STANDALONE_EXAMPLE /D BT_ENABLE_VR /D GLEW_STATIC /D _MBCS /Gm- /EHsc /RTC1 /MTd /GS /Gy /fp:fast /Zc:wchar_t /Zc:forScope /Zc:inline /Fo"OBJ\X32\DEBUG\APP_SHAREDMEMORYPHYSICS_VR\\" /Fd"..\..\BIN\APP_SHAREDMEMORYPHYSICS_VR_VS2010_DEBUG.PDB" /Gd /TP /analyze- /wd4244 /wd4267  C:\USERS\ANTONINO\DESKTOP\VULKAN_ENGINE\BULLET3-2.86.1\EXAMPLES\IMPORTERS\IMPORTCOLLADADEMO\LOADMESHFROMCOLLADA.CPP
^C:\USERS\ANTONINO\DESKTOP\VULKAN_ENGINE\BULLET3-2.86.1\EXAMPLES\THIRDPARTYLIBS\WAVEFRONT\TINY_OBJ_LOADER.CPP
/c /I..\..\EXAMPLES\SHAREDMEMORY /I..\..\SRC /I..\..\EXAMPLES\THIRDPARTYLIBS /I..\..\EXAMPLES\THIRDPARTYLIBS\OPENVR\HEADERS /I..\..\EXAMPLES\THIRDPARTYLIBS\OPENVR\SAMPLES\SHARED /I..\..\EXAMPLES\THIRDPARTYLIBS\GLEW /Zi /nologo /W3 /WX- /Od /Oy- /D _DEBUG=1 /D B3_USE_STANDALONE_EXAMPLE /D BT_ENABLE_VR /D GLEW_STATIC /D _MBCS /Gm- /EHsc /RTC1 /MTd /GS /Gy /fp:fast /Zc:wchar_t /Zc:forScope /Zc:inline /Fo"OBJ\X32\DEBUG\APP_SHAREDMEMORYPHYSICS_VR\\" /Fd"..\..\BIN\APP_SHAREDMEMORYPHYSICS_VR_VS2010_DEBUG.PDB" /Gd /TP /analyze- /wd4244 /wd4267  C:\USERS\ANTONINO\DESKTOP\VULKAN_ENGINE\BULLET3-2.86.1\EXAMPLES\THIRDPARTYLIBS\WAVEFRONT\TINY_OBJ_LOADER.CPP
^C:\USERS\ANTONINO\DESKTOP\VULKAN_ENGINE\BULLET3-2.86.1\EXAMPLES\THIRDPARTYLIBS\TINYXML\TINYSTR.CPP
/c /I..\..\EXAMPLES\SHAREDMEMORY /I..\..\SRC /I..\..\EXAMPLES\THIRDPARTYLIBS /I..\..\EXAMPLES\THIRDPARTYLIBS\OPENVR\HEADERS /I..\..\EXAMPLES\THIRDPARTYLIBS\OPENVR\SAMPLES\SHARED /I..\..\EXAMPLES\THIRDPARTYLIBS\GLEW /Zi /nologo /W3 /WX- /Od /Oy- /D _DEBUG=1 /D B3_USE_STANDALONE_EXAMPLE /D BT_ENABLE_VR /D GLEW_STATIC /D _MBCS /Gm- /EHsc /RTC1 /MTd /GS /Gy /fp:fast /Zc:wchar_t /Zc:forScope /Zc:inline /Fo"OBJ\X32\DEBUG\APP_SHAREDMEMORYPHYSICS_VR\\" /Fd"..\..\BIN\APP_SHAREDMEMORYPHYSICS_VR_VS2010_DEBUG.PDB" /Gd /TP /analyze- /wd4244 /wd4267  C:\USERS\ANTONINO\DESKTOP\VULKAN_ENGINE\BULLET3-2.86.1\EXAMPLES\THIRDPARTYLIBS\TINYXML\TINYSTR.CPP
^C:\USERS\ANTONINO\DESKTOP\VULKAN_ENGINE\BULLET3-2.86.1\EXAMPLES\THIRDPARTYLIBS\TINYXML\TINYXML.CPP
/c /I..\..\EXAMPLES\SHAREDMEMORY /I..\..\SRC /I..\..\EXAMPLES\THIRDPARTYLIBS /I..\..\EXAMPLES\THIRDPARTYLIBS\OPENVR\HEADERS /I..\..\EXAMPLES\THIRDPARTYLIBS\OPENVR\SAMPLES\SHARED /I..\..\EXAMPLES\THIRDPARTYLIBS\GLEW /Zi /nologo /W3 /WX- /Od /Oy- /D _DEBUG=1 /D B3_USE_STANDALONE_EXAMPLE /D BT_ENABLE_VR /D GLEW_STATIC /D _MBCS /Gm- /EHsc /RTC1 /MTd /GS /Gy /fp:fast /Zc:wchar_t /Zc:forScope /Zc:inline /Fo"OBJ\X32\DEBUG\APP_SHAREDMEMORYPHYSICS_VR\\" /Fd"..\..\BIN\APP_SHAREDMEMORYPHYSICS_VR_VS2010_DEBUG.PDB" /Gd /TP /analyze- /wd4244 /wd4267  C:\USERS\ANTONINO\DESKTOP\VULKAN_ENGINE\BULLET3-2.86.1\EXAMPLES\THIRDPARTYLIBS\TINYXML\TINYXML.CPP
^C:\USERS\ANTONINO\DESKTOP\VULKAN_ENGINE\BULLET3-2.86.1\EXAMPLES\THIRDPARTYLIBS\TINYXML\TINYXMLERROR.CPP
/c /I..\..\EXAMPLES\SHAREDMEMORY /I..\..\SRC /I..\..\EXAMPLES\THIRDPARTYLIBS /I..\..\EXAMPLES\THIRDPARTYLIBS\OPENVR\HEADERS /I..\..\EXAMPLES\THIRDPARTYLIBS\OPENVR\SAMPLES\SHARED /I..\..\EXAMPLES\THIRDPARTYLIBS\GLEW /Zi /nologo /W3 /WX- /Od /Oy- /D _DEBUG=1 /D B3_USE_STANDALONE_EXAMPLE /D BT_ENABLE_VR /D GLEW_STATIC /D _MBCS /Gm- /EHsc /RTC1 /MTd /GS /Gy /fp:fast /Zc:wchar_t /Zc:forScope /Zc:inline /Fo"OBJ\X32\DEBUG\APP_SHAREDMEMORYPHYSICS_VR\\" /Fd"..\..\BIN\APP_SHAREDMEMORYPHYSICS_VR_VS2010_DEBUG.PDB" /Gd /TP /analyze- /wd4244 /wd4267  C:\USERS\ANTONINO\DESKTOP\VULKAN_ENGINE\BULLET3-2.86.1\EXAMPLES\THIRDPARTYLIBS\TINYXML\TINYXMLERROR.CPP
^C:\USERS\ANTONINO\DESKTOP\VULKAN_ENGINE\BULLET3-2.86.1\EXAMPLES\THIRDPARTYLIBS\TINYXML\TINYXMLPARSER.CPP
/c /I..\..\EXAMPLES\SHAREDMEMORY /I..\..\SRC /I..\..\EXAMPLES\THIRDPARTYLIBS /I..\..\EXAMPLES\THIRDPARTYLIBS\OPENVR\HEADERS /I..\..\EXAMPLES\THIRDPARTYLIBS\OPENVR\SAMPLES\SHARED /I..\..\EXAMPLES\THIRDPARTYLIBS\GLEW /Zi /nologo /W3 /WX- /Od /Oy- /D _DEBUG=1 /D B3_USE_STANDALONE_EXAMPLE /D BT_ENABLE_VR /D GLEW_STATIC /D _MBCS /Gm- /EHsc /RTC1 /MTd /GS /Gy /fp:fast /Zc:wchar_t /Zc:forScope /Zc:inline /Fo"OBJ\X32\DEBUG\APP_SHAREDMEMORYPHYSICS_VR\\" /Fd"..\..\BIN\APP_SHAREDMEMORYPHYSICS_VR_VS2010_DEBUG.PDB" /Gd /TP /analyze- /wd4244 /wd4267  C:\USERS\ANTONINO\DESKTOP\VULKAN_ENGINE\BULLET3-2.86.1\EXAMPLES\THIRDPARTYLIBS\TINYXML\TINYXMLPARSER.CPP
^C:\USERS\ANTONINO\DESKTOP\VULKAN_ENGINE\BULLET3-2.86.1\EXAMPLES\IMPORTERS\IMPORTMESHUTILITY\B3IMPORTMESHUTILITY.CPP
/c /I..\..\EXAMPLES\SHAREDMEMORY /I..\..\SRC /I..\..\EXAMPLES\THIRDPARTYLIBS /I..\..\EXAMPLES\THIRDPARTYLIBS\OPENVR\HEADERS /I..\..\EXAMPLES\THIRDPARTYLIBS\OPENVR\SAMPLES\SHARED /I..\..\EXAMPLES\THIRDPARTYLIBS\GLEW /Zi /nologo /W3 /WX- /Od /Oy- /D _DEBUG=1 /D B3_USE_STANDALONE_EXAMPLE /D BT_ENABLE_VR /D GLEW_STATIC /D _MBCS /Gm- /EHsc /RTC1 /MTd /GS /Gy /fp:fast /Zc:wchar_t /Zc:forScope /Zc:inline /Fo"OBJ\X32\DEBUG\APP_SHAREDMEMORYPHYSICS_VR\\" /Fd"..\..\BIN\APP_SHAREDMEMORYPHYSICS_VR_VS2010_DEBUG.PDB" /Gd /TP /analyze- /wd4244 /wd4267  C:\USERS\ANTONINO\DESKTOP\VULKAN_ENGINE\BULLET3-2.86.1\EXAMPLES\IMPORTERS\IMPORTMESHUTILITY\B3IMPORTMESHUTILITY.CPP
^C:\USERS\ANTONINO\DESKTOP\VULKAN_ENGINE\BULLET3-2.86.1\EXAMPLES\THIRDPARTYLIBS\STB_IMAGE\STB_IMAGE.CPP
/c /I..\..\EXAMPLES\SHAREDMEMORY /I..\..\SRC /I..\..\EXAMPLES\THIRDPARTYLIBS /I..\..\EXAMPLES\THIRDPARTYLIBS\OPENVR\HEADERS /I..\..\EXAMPLES\THIRDPARTYLIBS\OPENVR\SAMPLES\SHARED /I..\..\EXAMPLES\THIRDPARTYLIBS\GLEW /Zi /nologo /W3 /WX- /Od /Oy- /D _DEBUG=1 /D B3_USE_STANDALONE_EXAMPLE /D BT_ENABLE_VR /D GLEW_STATIC /D _MBCS /Gm- /EHsc /RTC1 /MTd /GS /Gy /fp:fast /Zc:wchar_t /Zc:forScope /Zc:inline /Fo"OBJ\X32\DEBUG\APP_SHAREDMEMORYPHYSICS_VR\\" /Fd"..\..\BIN\APP_SHAREDMEMORYPHYSICS_VR_VS2010_DEBUG.PDB" /Gd /TP /analyze- /wd4244 /wd4267  C:\USERS\ANTONINO\DESKTOP\VULKAN_ENGINE\BULLET3-2.86.1\EXAMPLES\THIRDPARTYLIBS\STB_IMAGE\STB_IMAGE.CPP
^C:\USERS\ANTONINO\DESKTOP\VULKAN_ENGINE\BULLET3-2.86.1\EXAMPLES\STANDALONEMAIN\HELLOVR_OPENGL_MAIN.CPP
/c /I..\..\EXAMPLES\SHAREDMEMORY /I..\..\SRC /I..\..\EXAMPLES\THIRDPARTYLIBS /I..\..\EXAMPLES\THIRDPARTYLIBS\OPENVR\HEADERS /I..\..\EXAMPLES\THIRDPARTYLIBS\OPENVR\SAMPLES\SHARED /I..\..\EXAMPLES\THIRDPARTYLIBS\GLEW /Zi /nologo /W3 /WX- /Od /Oy- /D _DEBUG=1 /D B3_USE_STANDALONE_EXAMPLE /D BT_ENABLE_VR /D GLEW_STATIC /D _MBCS /Gm- /EHsc /RTC1 /MTd /GS /Gy /fp:fast /Zc:wchar_t /Zc:forScope /Zc:inline /Fo"OBJ\X32\DEBUG\APP_SHAREDMEMORYPHYSICS_VR\\" /Fd"..\..\BIN\APP_SHAREDMEMORYPHYSICS_VR_VS2010_DEBUG.PDB" /Gd /TP /analyze- /wd4244 /wd4267  C:\USERS\ANTONINO\DESKTOP\VULKAN_ENGINE\BULLET3-2.86.1\EXAMPLES\STANDALONEMAIN\HELLOVR_OPENGL_MAIN.CPP
^C:\USERS\ANTONINO\DESKTOP\VULKAN_ENGINE\BULLET3-2.86.1\EXAMPLES\EXAMPLEBROWSER\OPENGLGUIHELPER.CPP
/c /I..\..\EXAMPLES\SHAREDMEMORY /I..\..\SRC /I..\..\EXAMPLES\THIRDPARTYLIBS /I..\..\EXAMPLES\THIRDPARTYLIBS\OPENVR\HEADERS /I..\..\EXAMPLES\THIRDPARTYLIBS\OPENVR\SAMPLES\SHARED /I..\..\EXAMPLES\THIRDPARTYLIBS\GLEW /Zi /nologo /W3 /WX- /Od /Oy- /D _DEBUG=1 /D B3_USE_STANDALONE_EXAMPLE /D BT_ENABLE_VR /D GLEW_STATIC /D _MBCS /Gm- /EHsc /RTC1 /MTd /GS /Gy /fp:fast /Zc:wchar_t /Zc:forScope /Zc:inline /Fo"OBJ\X32\DEBUG\APP_SHAREDMEMORYPHYSICS_VR\\" /Fd"..\..\BIN\APP_SHAREDMEMORYPHYSICS_VR_VS2010_DEBUG.PDB" /Gd /TP /analyze- /wd4244 /wd4267  C:\USERS\ANTONINO\DESKTOP\VULKAN_ENGINE\BULLET3-2.86.1\EXAMPLES\EXAMPLEBROWSER\OPENGLGUIHELPER.CPP
^C:\USERS\ANTONINO\DESKTOP\VULKAN_ENGINE\BULLET3-2.86.1\EXAMPLES\EXAMPLEBROWSER\GL_SHAPEDRAWER.CPP
/c /I..\..\EXAMPLES\SHAREDMEMORY /I..\..\SRC /I..\..\EXAMPLES\THIRDPARTYLIBS /I..\..\EXAMPLES\THIRDPARTYLIBS\OPENVR\HEADERS /I..\..\EXAMPLES\THIRDPARTYLIBS\OPENVR\SAMPLES\SHARED /I..\..\EXAMPLES\THIRDPARTYLIBS\GLEW /Zi /nologo /W3 /WX- /Od /Oy- /D _DEBUG=1 /D B3_USE_STANDALONE_EXAMPLE /D BT_ENABLE_VR /D GLEW_STATIC /D _MBCS /Gm- /EHsc /RTC1 /MTd /GS /Gy /fp:fast /Zc:wchar_t /Zc:forScope /Zc:inline /Fo"OBJ\X32\DEBUG\APP_SHAREDMEMORYPHYSICS_VR\\" /Fd"..\..\BIN\APP_SHAREDMEMORYPHYSICS_VR_VS2010_DEBUG.PDB" /Gd /TP /analyze- /wd4244 /wd4267  C:\USERS\ANTONINO\DESKTOP\VULKAN_ENGINE\BULLET3-2.86.1\EXAMPLES\EXAMPLEBROWSER\GL_SHAPEDRAWER.CPP
^C:\USERS\ANTONINO\DESKTOP\VULKAN_ENGINE\BULLET3-2.86.1\EXAMPLES\EXAMPLEBROWSER\COLLISIONSHAPE2TRIANGLEMESH.CPP
/c /I..\..\EXAMPLES\SHAREDMEMORY /I..\..\SRC /I..\..\EXAMPLES\THIRDPARTYLIBS /I..\..\EXAMPLES\THIRDPARTYLIBS\OPENVR\HEADERS /I..\..\EXAMPLES\THIRDPARTYLIBS\OPENVR\SAMPLES\SHARED /I..\..\EXAMPLES\THIRDPARTYLIBS\GLEW /Zi /nologo /W3 /WX- /Od /Oy- /D _DEBUG=1 /D B3_USE_STANDALONE_EXAMPLE /D BT_ENABLE_VR /D GLEW_STATIC /D _MBCS /Gm- /EHsc /RTC1 /MTd /GS /Gy /fp:fast /Zc:wchar_t /Zc:forScope /Zc:inline /Fo"OBJ\X32\DEBUG\APP_SHAREDMEMORYPHYSICS_VR\\" /Fd"..\..\BIN\APP_SHAREDMEMORYPHYSICS_VR_VS2010_DEBUG.PDB" /Gd /TP /analyze- /wd4244 /wd4267  C:\USERS\ANTONINO\DESKTOP\VULKAN_ENGINE\BULLET3-2.86.1\EXAMPLES\EXAMPLEBROWSER\COLLISIONSHAPE2TRIANGLEMESH.CPP
^C:\USERS\ANTONINO\DESKTOP\VULKAN_ENGINE\BULLET3-2.86.1\EXAMPLES\RENDERINGEXAMPLES\TINYVRGUI.CPP
/c /I..\..\EXAMPLES\SHAREDMEMORY /I..\..\SRC /I..\..\EXAMPLES\THIRDPARTYLIBS /I..\..\EXAMPLES\THIRDPARTYLIBS\OPENVR\HEADERS /I..\..\EXAMPLES\THIRDPARTYLIBS\OPENVR\SAMPLES\SHARED /I..\..\EXAMPLES\THIRDPARTYLIBS\GLEW /Zi /nologo /W3 /WX- /Od /Oy- /D _DEBUG=1 /D B3_USE_STANDALONE_EXAMPLE /D BT_ENABLE_VR /D GLEW_STATIC /D _MBCS /Gm- /EHsc /RTC1 /MTd /GS /Gy /fp:fast /Zc:wchar_t /Zc:forScope /Zc:inline /Fo"OBJ\X32\DEBUG\APP_SHAREDMEMORYPHYSICS_VR\\" /Fd"..\..\BIN\APP_SHAREDMEMORYPHYSICS_VR_VS2010_DEBUG.PDB" /Gd /TP /analyze- /wd4244 /wd4267  C:\USERS\ANTONINO\DESKTOP\VULKAN_ENGINE\BULLET3-2.86.1\EXAMPLES\RENDERINGEXAMPLES\TINYVRGUI.CPP
^C:\USERS\ANTONINO\DESKTOP\VULKAN_ENGINE\BULLET3-2.86.1\EXAMPLES\RENDERINGEXAMPLES\TIMESERIESCANVAS.CPP
/c /I..\..\EXAMPLES\SHAREDMEMORY /I..\..\SRC /I..\..\EXAMPLES\THIRDPARTYLIBS /I..\..\EXAMPLES\THIRDPARTYLIBS\OPENVR\HEADERS /I..\..\EXAMPLES\THIRDPARTYLIBS\OPENVR\SAMPLES\SHARED /I..\..\EXAMPLES\THIRDPARTYLIBS\GLEW /Zi /nologo /W3 /WX- /Od /Oy- /D _DEBUG=1 /D B3_USE_STANDALONE_EXAMPLE /D BT_ENABLE_VR /D GLEW_STATIC /D _MBCS /Gm- /EHsc /RTC1 /MTd /GS /Gy /fp:fast /Zc:wchar_t /Zc:forScope /Zc:inline /Fo"OBJ\X32\DEBUG\APP_SHAREDMEMORYPHYSICS_VR\\" /Fd"..\..\BIN\APP_SHAREDMEMORYPHYSICS_VR_VS2010_DEBUG.PDB" /Gd /TP /analyze- /wd4244 /wd4267  C:\USERS\ANTONINO\DESKTOP\VULKAN_ENGINE\BULLET3-2.86.1\EXAMPLES\RENDERINGEXAMPLES\TIMESERIESCANVAS.CPP
^C:\USERS\ANTONINO\DESKTOP\VULKAN_ENGINE\BULLET3-2.86.1\EXAMPLES\RENDERINGEXAMPLES\TIMESERIESFONTDATA.CPP
/c /I..\..\EXAMPLES\SHAREDMEMORY /I..\..\SRC /I..\..\EXAMPLES\THIRDPARTYLIBS /I..\..\EXAMPLES\THIRDPARTYLIBS\OPENVR\HEADERS /I..\..\EXAMPLES\THIRDPARTYLIBS\OPENVR\SAMPLES\SHARED /I..\..\EXAMPLES\THIRDPARTYLIBS\GLEW /Zi /nologo /W3 /WX- /Od /Oy- /D _DEBUG=1 /D B3_USE_STANDALONE_EXAMPLE /D BT_ENABLE_VR /D GLEW_STATIC /D _MBCS /Gm- /EHsc /RTC1 /MTd /GS /Gy /fp:fast /Zc:wchar_t /Zc:forScope /Zc:inline /Fo"OBJ\X32\DEBUG\APP_SHAREDMEMORYPHYSICS_VR\\" /Fd"..\..\BIN\APP_SHAREDMEMORYPHYSICS_VR_VS2010_DEBUG.PDB" /Gd /TP /analyze- /wd4244 /wd4267  C:\USERS\ANTONINO\DESKTOP\VULKAN_ENGINE\BULLET3-2.86.1\EXAMPLES\RENDERINGEXAMPLES\TIMESERIESFONTDATA.CPP
^C:\USERS\ANTONINO\DESKTOP\VULKAN_ENGINE\BULLET3-2.86.1\EXAMPLES\THIRDPARTYLIBS\OPENVR\SAMPLES\SHARED\LODEPNG.CPP
/c /I..\..\EXAMPLES\SHAREDMEMORY /I..\..\SRC /I..\..\EXAMPLES\THIRDPARTYLIBS /I..\..\EXAMPLES\THIRDPARTYLIBS\OPENVR\HEADERS /I..\..\EXAMPLES\THIRDPARTYLIBS\OPENVR\SAMPLES\SHARED /I..\..\EXAMPLES\THIRDPARTYLIBS\GLEW /Zi /nologo /W3 /WX- /Od /Oy- /D _DEBUG=1 /D B3_USE_STANDALONE_EXAMPLE /D BT_ENABLE_VR /D GLEW_STATIC /D _MBCS /Gm- /EHsc /RTC1 /MTd /GS /Gy /fp:fast /Zc:wchar_t /Zc:forScope /Zc:inline /Fo"OBJ\X32\DEBUG\APP_SHAREDMEMORYPHYSICS_VR\\" /Fd"..\..\BIN\APP_SHAREDMEMORYPHYSICS_VR_VS2010_DEBUG.PDB" /Gd /TP /analyze- /wd4244 /wd4267  C:\USERS\ANTONINO\DESKTOP\VULKAN_ENGINE\BULLET3-2.86.1\EXAMPLES\THIRDPARTYLIBS\OPENVR\SAMPLES\SHARED\LODEPNG.CPP
^C:\USERS\ANTONINO\DESKTOP\VULKAN_ENGINE\BULLET3-2.86.1\EXAMPLES\THIRDPARTYLIBS\OPENVR\SAMPLES\SHARED\MATRICES.CPP
/c /I..\..\EXAMPLES\SHAREDMEMORY /I..\..\SRC /I..\..\EXAMPLES\THIRDPARTYLIBS /I..\..\EXAMPLES\THIRDPARTYLIBS\OPENVR\HEADERS /I..\..\EXAMPLES\THIRDPARTYLIBS\OPENVR\SAMPLES\SHARED /I..\..\EXAMPLES\THIRDPARTYLIBS\GLEW /Zi /nologo /W3 /WX- /Od /Oy- /D _DEBUG=1 /D B3_USE_STANDALONE_EXAMPLE /D BT_ENABLE_VR /D GLEW_STATIC /D _MBCS /Gm- /EHsc /RTC1 /MTd /GS /Gy /fp:fast /Zc:wchar_t /Zc:forScope /Zc:inline /Fo"OBJ\X32\DEBUG\APP_SHAREDMEMORYPHYSICS_VR\\" /Fd"..\..\BIN\APP_SHAREDMEMORYPHYSICS_VR_VS2010_DEBUG.PDB" /Gd /TP /analyze- /wd4244 /wd4267  C:\USERS\ANTONINO\DESKTOP\VULKAN_ENGINE\BULLET3-2.86.1\EXAMPLES\THIRDPARTYLIBS\OPENVR\SAMPLES\SHARED\MATRICES.CPP
^C:\USERS\ANTONINO\DESKTOP\VULKAN_ENGINE\BULLET3-2.86.1\EXAMPLES\THIRDPARTYLIBS\OPENVR\SAMPLES\SHARED\PATHTOOLS.CPP
/c /I..\..\EXAMPLES\SHAREDMEMORY /I..\..\SRC /I..\..\EXAMPLES\THIRDPARTYLIBS /I..\..\EXAMPLES\THIRDPARTYLIBS\OPENVR\HEADERS /I..\..\EXAMPLES\THIRDPARTYLIBS\OPENVR\SAMPLES\SHARED /I..\..\EXAMPLES\THIRDPARTYLIBS\GLEW /Zi /nologo /W3 /WX- /Od /Oy- /D _DEBUG=1 /D B3_USE_STANDALONE_EXAMPLE /D BT_ENABLE_VR /D GLEW_STATIC /D _MBCS /Gm- /EHsc /RTC1 /MTd /GS /Gy /fp:fast /Zc:wchar_t /Zc:forScope /Zc:inline /Fo"OBJ\X32\DEBUG\APP_SHAREDMEMORYPHYSICS_VR\\" /Fd"..\..\BIN\APP_SHAREDMEMORYPHYSICS_VR_VS2010_DEBUG.PDB" /Gd /TP /analyze- /wd4244 /wd4267  C:\USERS\ANTONINO\DESKTOP\VULKAN_ENGINE\BULLET3-2.86.1\EXAMPLES\THIRDPARTYLIBS\OPENVR\SAMPLES\SHARED\PATHTOOLS.CPP
^C:\USERS\ANTONINO\DESKTOP\VULKAN_ENGINE\BULLET3-2.86.1\EXAMPLES\MULTITHREADING\B3THREADSUPPORTINTERFACE.CPP
/c /I..\..\EXAMPLES\SHAREDMEMORY /I..\..\SRC /I..\..\EXAMPLES\THIRDPARTYLIBS /I..\..\EXAMPLES\THIRDPARTYLIBS\OPENVR\HEADERS /I..\..\EXAMPLES\THIRDPARTYLIBS\OPENVR\SAMPLES\SHARED /I..\..\EXAMPLES\THIRDPARTYLIBS\GLEW /Zi /nologo /W3 /WX- /Od /Oy- /D _DEBUG=1 /D B3_USE_STANDALONE_EXAMPLE /D BT_ENABLE_VR /D GLEW_STATIC /D _MBCS /Gm- /EHsc /RTC1 /MTd /GS /Gy /fp:fast /Zc:wchar_t /Zc:forScope /Zc:inline /Fo"OBJ\X32\DEBUG\APP_SHAREDMEMORYPHYSICS_VR\\" /Fd"..\..\BIN\APP_SHAREDMEMORYPHYSICS_VR_VS2010_DEBUG.PDB" /Gd /TP /analyze- /wd4244 /wd4267  C:\USERS\ANTONINO\DESKTOP\VULKAN_ENGINE\BULLET3-2.86.1\EXAMPLES\MULTITHREADING\B3THREADSUPPORTINTERFACE.CPP
^C:\USERS\ANTONINO\DESKTOP\VULKAN_ENGINE\BULLET3-2.86.1\EXAMPLES\MULTITHREADING\B3WIN32THREADSUPPORT.CPP
/c /I..\..\EXAMPLES\SHAREDMEMORY /I..\..\SRC /I..\..\EXAMPLES\THIRDPARTYLIBS /I..\..\EXAMPLES\THIRDPARTYLIBS\OPENVR\HEADERS /I..\..\EXAMPLES\THIRDPARTYLIBS\OPENVR\SAMPLES\SHARED /I..\..\EXAMPLES\THIRDPARTYLIBS\GLEW /Zi /nologo /W3 /WX- /Od /Oy- /D _DEBUG=1 /D B3_USE_STANDALONE_EXAMPLE /D BT_ENABLE_VR /D GLEW_STATIC /D _MBCS /Gm- /EHsc /RTC1 /MTd /GS /Gy /fp:fast /Zc:wchar_t /Zc:forScope /Zc:inline /Fo"OBJ\X32\DEBUG\APP_SHAREDMEMORYPHYSICS_VR\\" /Fd"..\..\BIN\APP_SHAREDMEMORYPHYSICS_VR_VS2010_DEBUG.PDB" /Gd /TP /analyze- /wd4244 /wd4267  C:\USERS\ANTONINO\DESKTOP\VULKAN_ENGINE\BULLET3-2.86.1\EXAMPLES\MULTITHREADING\B3WIN32THREADSUPPORT.CPP
