^C:\USERS\ANTONINO\DESKTOP\VULKAN_ENGINE\BULLET3-2.86.1\EXAMPLES\THIRDPARTYLIBS\GLEW\GLEW.C
C:\USERS\ANTONINO\DESKTOP\VULKAN_ENGINE\BULLET3-2.86.1\BIN\APP_SHAREDMEMORYPHYSICS_VR_VS2010_DEBUG.PDB
C:\USERS\ANTONINO\DESKTOP\VULKAN_ENGINE\BULLET3-2.86.1\BUILD3\VS2010\OBJ\X32\DEBUG\APP_SHAREDMEMORYPHYSICS_VR\GLEW.OBJ
^C:\USERS\ANTONINO\DESKTOP\VULKAN_ENGINE\BULLET3-2.86.1\EXAMPLES\EXAMPLEBROWSER\COLLISIONSHAPE2TRIANGLEMESH.CPP|C:\USERS\ANTONINO\DESKTOP\VULKAN_ENGINE\BULLET3-2.86.1\EXAMPLES\EXAMPLEBROWSER\GL_SHAPEDRAWER.CPP|C:\USERS\ANTONINO\DESKTOP\VULKAN_ENGINE\BULLET3-2.86.1\EXAMPLES\EXAMPLEBROWSER\OPENGLGUIHELPER.CPP|C:\USERS\ANTONINO\DESKTOP\VULKAN_ENGINE\BULLET3-2.86.1\EXAMPLES\IMPORTERS\IMPORTCOLLADADEMO\LOADMESHFROMCOLLADA.CPP|C:\USERS\ANTONINO\DESKTOP\VULKAN_ENGINE\BULLET3-2.86.1\EXAMPLES\IMPORTERS\IMPORTMESHUTILITY\B3IMPORTMESHUTILITY.CPP|C:\USERS\ANTONINO\DESKTOP\VULKAN_ENGINE\BULLET3-2.86.1\EXAMPLES\IMPORTERS\IMPORTMJCFDEMO\BULLETMJCFIMPORTER.CPP|C:\USERS\ANTONINO\DESKTOP\VULKAN_ENGINE\BULLET3-2.86.1\EXAMPLES\IMPORTERS\IMPORTOBJDEMO\LOADMESHFROMOBJ.CPP|C:\USERS\ANTONINO\DESKTOP\VULKAN_ENGINE\BULLET3-2.86.1\EXAMPLES\IMPORTERS\IMPORTOBJDEMO\WAVEFRONT2GLINSTANCEGRAPHICSSHAPE.CPP|C:\USERS\ANTONINO\DESKTOP\VULKAN_ENGINE\BULLET3-2.86.1\EXAMPLES\IMPORTERS\IMPORTURDFDEMO\BULLETURDFIMPORTER.CPP|C:\USERS\ANTONINO\DESKTOP\VULKAN_ENGINE\BULLET3-2.86.1\EXAMPLES\IMPORTERS\IMPORTURDFDEMO\MYMULTIBODYCREATOR.CPP|C:\USERS\ANTONINO\DESKTOP\VULKAN_ENGINE\BULLET3-2.86.1\EXAMPLES\IMPORTERS\IMPORTURDFDEMO\URDF2BULLET.CPP|C:\USERS\ANTONINO\DESKTOP\VULKAN_ENGINE\BULLET3-2.86.1\EXAMPLES\IMPORTERS\IMPORTURDFDEMO\URDFPARSER.CPP|C:\USERS\ANTONINO\DESKTOP\VULKAN_ENGINE\BULLET3-2.86.1\EXAMPLES\IMPORTERS\IMPORTURDFDEMO\URDFSTRINGSPLIT.CPP|C:\USERS\ANTONINO\DESKTOP\VULKAN_ENGINE\BULLET3-2.86.1\EXAMPLES\MULTITHREADING\B3THREADSUPPORTINTERFACE.CPP|C:\USERS\ANTONINO\DESKTOP\VULKAN_ENGINE\BULLET3-2.86.1\EXAMPLES\MULTITHREADING\B3WIN32THREADSUPPORT.CPP|C:\USERS\ANTONINO\DESKTOP\VULKAN_ENGINE\BULLET3-2.86.1\EXAMPLES\OPENGLWINDOW\SIMPLECAMERA.CPP|C:\USERS\ANTONINO\DESKTOP\VULKAN_ENGINE\BULLET3-2.86.1\EXAMPLES\RENDERINGEXAMPLES\TIMESERIESCANVAS.CPP|C:\USERS\ANTONINO\DESKTOP\VULKAN_ENGINE\BULLET3-2.86.1\EXAMPLES\RENDERINGEXAMPLES\TIMESERIESFONTDATA.CPP|C:\USERS\ANTONINO\DESKTOP\VULKAN_ENGINE\BULLET3-2.86.1\EXAMPLES\RENDERINGEXAMPLES\TINYVRGUI.CPP|C:\USERS\ANTONINO\DESKTOP\VULKAN_ENGINE\BULLET3-2.86.1\EXAMPLES\SHAREDMEMORY\IKTRAJECTORYHELPER.CPP|C:\USERS\ANTONINO\DESKTOP\VULKAN_ENGINE\BULLET3-2.86.1\EXAMPLES\SHAREDMEMORY\INPROCESSMEMORY.CPP|C:\USERS\ANTONINO\DESKTOP\VULKAN_ENGINE\BULLET3-2.86.1\EXAMPLES\SHAREDMEMORY\PHYSICSCLIENT.CPP|C:\USERS\ANTONINO\DESKTOP\VULKAN_ENGINE\BULLET3-2.86.1\EXAMPLES\SHAREDMEMORY\PHYSICSCLIENTC_API.CPP|C:\USERS\ANTONINO\DESKTOP\VULKAN_ENGINE\BULLET3-2.86.1\EXAMPLES\SHAREDMEMORY\PHYSICSCLIENTEXAMPLE.CPP|C:\USERS\ANTONINO\DESKTOP\VULKAN_ENGINE\BULLET3-2.86.1\EXAMPLES\SHAREDMEMORY\PHYSICSCLIENTSHAREDMEMORY.CPP|C:\USERS\ANTONINO\DESKTOP\VULKAN_ENGINE\BULLET3-2.86.1\EXAMPLES\SHAREDMEMORY\PHYSICSCLIENTSHAREDMEMORY2.CPP|C:\USERS\ANTONINO\DESKTOP\VULKAN_ENGINE\BULLET3-2.86.1\EXAMPLES\SHAREDMEMORY\PHYSICSCLIENTSHAREDMEMORY2_C_API.CPP|C:\USERS\ANTONINO\DESKTOP\VULKAN_ENGINE\BULLET3-2.86.1\EXAMPLES\SHAREDMEMORY\PHYSICSCLIENTSHAREDMEMORY_C_API.CPP|C:\USERS\ANTONINO\DESKTOP\VULKAN_ENGINE\BULLET3-2.86.1\EXAMPLES\SHAREDMEMORY\PHYSICSDIRECT.CPP|C:\USERS\ANTONINO\DESKTOP\VULKAN_ENGINE\BULLET3-2.86.1\EXAMPLES\SHAREDMEMORY\PHYSICSDIRECTC_API.CPP|C:\USERS\ANTONINO\DESKTOP\VULKAN_ENGINE\BULLET3-2.86.1\EXAMPLES\SHAREDMEMORY\PHYSICSLOOPBACK.CPP|C:\USERS\ANTONINO\DESKTOP\VULKAN_ENGINE\BULLET3-2.86.1\EXAMPLES\SHAREDMEMORY\PHYSICSLOOPBACKC_API.CPP|C:\USERS\ANTONINO\DESKTOP\VULKAN_ENGINE\BULLET3-2.86.1\EXAMPLES\SHAREDMEMORY\PHYSICSSERVER.CPP|C:\USERS\ANTONINO\DESKTOP\VULKAN_ENGINE\BULLET3-2.86.1\EXAMPLES\SHAREDMEMORY\PHYSICSSERVERCOMMANDPROCESSOR.CPP|C:\USERS\ANTONINO\DESKTOP\VULKAN_ENGINE\BULLET3-2.86.1\EXAMPLES\SHAREDMEMORY\PHYSICSSERVEREXAMPLE.CPP|C:\USERS\ANTONINO\DESKTOP\VULKAN_ENGINE\BULLET3-2.86.1\EXAMPLES\SHAREDMEMORY\PHYSICSSERVERSHAREDMEMORY.CPP|C:\USERS\ANTONINO\DESKTOP\VULKAN_ENGINE\BULLET3-2.86.1\EXAMPLES\SHAREDMEMORY\POSIXSHAREDMEMORY.CPP|C:\USERS\ANTONINO\DESKTOP\VULKAN_ENGINE\BULLET3-2.86.1\EXAMPLES\SHAREDMEMORY\SHAREDMEMORYCOMMANDPROCESSOR.CPP|C:\USERS\ANTONINO\DESKTOP\VULKAN_ENGINE\BULLET3-2.86.1\EXAMPLES\SHAREDMEMORY\TINYRENDERERVISUALSHAPECONVERTER.CPP|C:\USERS\ANTONINO\DESKTOP\VULKAN_ENGINE\BULLET3-2.86.1\EXAMPLES\SHAREDMEMORY\WIN32SHAREDMEMORY.CPP|C:\USERS\ANTONINO\DESKTOP\VULKAN_ENGINE\BULLET3-2.86.1\EXAMPLES\STANDALONEMAIN\HELLOVR_OPENGL_MAIN.CPP|C:\USERS\ANTONINO\DESKTOP\VULKAN_ENGINE\BULLET3-2.86.1\EXAMPLES\THIRDPARTYLIBS\OPENVR\SAMPLES\SHARED\LODEPNG.CPP|C:\USERS\ANTONINO\DESKTOP\VULKAN_ENGINE\BULLET3-2.86.1\EXAMPLES\THIRDPARTYLIBS\OPENVR\SAMPLES\SHARED\MATRICES.CPP|C:\USERS\ANTONINO\DESKTOP\VULKAN_ENGINE\BULLET3-2.86.1\EXAMPLES\THIRDPARTYLIBS\OPENVR\SAMPLES\SHARED\PATHTOOLS.CPP|C:\USERS\ANTONINO\DESKTOP\VULKAN_ENGINE\BULLET3-2.86.1\EXAMPLES\THIRDPARTYLIBS\STB_IMAGE\STB_IMAGE.CPP|C:\USERS\ANTONINO\DESKTOP\VULKAN_ENGINE\BULLET3-2.86.1\EXAMPLES\THIRDPARTYLIBS\TINYXML\TINYSTR.CPP|C:\USERS\ANTONINO\DESKTOP\VULKAN_ENGINE\BULLET3-2.86.1\EXAMPLES\THIRDPARTYLIBS\TINYXML\TINYXML.CPP|C:\USERS\ANTONINO\DESKTOP\VULKAN_ENGINE\BULLET3-2.86.1\EXAMPLES\THIRDPARTYLIBS\TINYXML\TINYXMLERROR.CPP|C:\USERS\ANTONINO\DESKTOP\VULKAN_ENGINE\BULLET3-2.86.1\EXAMPLES\THIRDPARTYLIBS\TINYXML\TINYXMLPARSER.CPP|C:\USERS\ANTONINO\DESKTOP\VULKAN_ENGINE\BULLET3-2.86.1\EXAMPLES\THIRDPARTYLIBS\WAVEFRONT\TINY_OBJ_LOADER.CPP|C:\USERS\ANTONINO\DESKTOP\VULKAN_ENGINE\BULLET3-2.86.1\EXAMPLES\TINYRENDERER\GEOMETRY.CPP|C:\USERS\ANTONINO\DESKTOP\VULKAN_ENGINE\BULLET3-2.86.1\EXAMPLES\TINYRENDERER\MODEL.CPP|C:\USERS\ANTONINO\DESKTOP\VULKAN_ENGINE\BULLET3-2.86.1\EXAMPLES\TINYRENDERER\OUR_GL.CPP|C:\USERS\ANTONINO\DESKTOP\VULKAN_ENGINE\BULLET3-2.86.1\EXAMPLES\TINYRENDERER\TGAIMAGE.CPP|C:\USERS\ANTONINO\DESKTOP\VULKAN_ENGINE\BULLET3-2.86.1\EXAMPLES\TINYRENDERER\TINYRENDERER.CPP|C:\USERS\ANTONINO\DESKTOP\VULKAN_ENGINE\BULLET3-2.86.1\EXAMPLES\UTILS\B3CLOCK.CPP|C:\USERS\ANTONINO\DESKTOP\VULKAN_ENGINE\BULLET3-2.86.1\EXAMPLES\UTILS\B3RESOURCEPATH.CPP|C:\USERS\ANTONINO\DESKTOP\VULKAN_ENGINE\BULLET3-2.86.1\EXAMPLES\UTILS\CHROMETRACEUTIL.CPP|C:\USERS\ANTONINO\DESKTOP\VULKAN_ENGINE\BULLET3-2.86.1\EXAMPLES\UTILS\ROBOTLOGGINGUTIL.CPP|C:\USERS\ANTONINO\DESKTOP\VULKAN_ENGINE\BULLET3-2.86.1\EXTRAS\SERIALIZE\BULLETFILELOADER\BCHUNK.CPP|C:\USERS\ANTONINO\DESKTOP\VULKAN_ENGINE\BULLET3-2.86.1\EXTRAS\SERIALIZE\BULLETFILELOADER\BDNA.CPP|C:\USERS\ANTONINO\DESKTOP\VULKAN_ENGINE\BULLET3-2.86.1\EXTRAS\SERIALIZE\BULLETFILELOADER\BFILE.CPP|C:\USERS\ANTONINO\DESKTOP\VULKAN_ENGINE\BULLET3-2.86.1\EXTRAS\SERIALIZE\BULLETFILELOADER\BTBULLETFILE.CPP|C:\USERS\ANTONINO\DESKTOP\VULKAN_ENGINE\BULLET3-2.86.1\EXTRAS\SERIALIZE\BULLETWORLDIMPORTER\BTBULLETWORLDIMPORTER.CPP|C:\USERS\ANTONINO\DESKTOP\VULKAN_ENGINE\BULLET3-2.86.1\EXTRAS\SERIALIZE\BULLETWORLDIMPORTER\BTWORLDIMPORTER.CPP
C:\USERS\ANTONINO\DESKTOP\VULKAN_ENGINE\BULLET3-2.86.1\BUILD3\VS2010\OBJ\X32\DEBUG\APP_SHAREDMEMORYPHYSICS_VR\PHYSICSCLIENT.OBJ
C:\USERS\ANTONINO\DESKTOP\VULKAN_ENGINE\BULLET3-2.86.1\BUILD3\VS2010\OBJ\X32\DEBUG\APP_SHAREDMEMORYPHYSICS_VR\POSIXSHAREDMEMORY.OBJ
C:\USERS\ANTONINO\DESKTOP\VULKAN_ENGINE\BULLET3-2.86.1\BUILD3\VS2010\OBJ\X32\DEBUG\APP_SHAREDMEMORYPHYSICS_VR\PHYSICSDIRECT.OBJ
C:\USERS\ANTONINO\DESKTOP\VULKAN_ENGINE\BULLET3-2.86.1\BUILD3\VS2010\OBJ\X32\DEBUG\APP_SHAREDMEMORYPHYSICS_VR\SIMPLECAMERA.OBJ
C:\USERS\ANTONINO\DESKTOP\VULKAN_ENGINE\BULLET3-2.86.1\BUILD3\VS2010\OBJ\X32\DEBUG\APP_SHAREDMEMORYPHYSICS_VR\MYMULTIBODYCREATOR.OBJ
C:\USERS\ANTONINO\DESKTOP\VULKAN_ENGINE\BULLET3-2.86.1\BUILD3\VS2010\OBJ\X32\DEBUG\APP_SHAREDMEMORYPHYSICS_VR\B3CLOCK.OBJ
C:\USERS\ANTONINO\DESKTOP\VULKAN_ENGINE\BULLET3-2.86.1\BUILD3\VS2010\OBJ\X32\DEBUG\APP_SHAREDMEMORYPHYSICS_VR\CHROMETRACEUTIL.OBJ
C:\USERS\ANTONINO\DESKTOP\VULKAN_ENGINE\BULLET3-2.86.1\BUILD3\VS2010\OBJ\X32\DEBUG\APP_SHAREDMEMORYPHYSICS_VR\BTWORLDIMPORTER.OBJ
C:\USERS\ANTONINO\DESKTOP\VULKAN_ENGINE\BULLET3-2.86.1\BUILD3\VS2010\OBJ\X32\DEBUG\APP_SHAREDMEMORYPHYSICS_VR\TINYXMLPARSER.OBJ
C:\USERS\ANTONINO\DESKTOP\VULKAN_ENGINE\BULLET3-2.86.1\BUILD3\VS2010\OBJ\X32\DEBUG\APP_SHAREDMEMORYPHYSICS_VR\OPENGLGUIHELPER.OBJ
C:\USERS\ANTONINO\DESKTOP\VULKAN_ENGINE\BULLET3-2.86.1\BUILD3\VS2010\OBJ\X32\DEBUG\APP_SHAREDMEMORYPHYSICS_VR\PATHTOOLS.OBJ
C:\USERS\ANTONINO\DESKTOP\VULKAN_ENGINE\BULLET3-2.86.1\BUILD3\VS2010\OBJ\X32\DEBUG\APP_SHAREDMEMORYPHYSICS_VR\PHYSICSSERVER.OBJ
C:\USERS\ANTONINO\DESKTOP\VULKAN_ENGINE\BULLET3-2.86.1\BUILD3\VS2010\OBJ\X32\DEBUG\APP_SHAREDMEMORYPHYSICS_VR\WIN32SHAREDMEMORY.OBJ
C:\USERS\ANTONINO\DESKTOP\VULKAN_ENGINE\BULLET3-2.86.1\BUILD3\VS2010\OBJ\X32\DEBUG\APP_SHAREDMEMORYPHYSICS_VR\PHYSICSDIRECTC_API.OBJ
C:\USERS\ANTONINO\DESKTOP\VULKAN_ENGINE\BULLET3-2.86.1\BUILD3\VS2010\OBJ\X32\DEBUG\APP_SHAREDMEMORYPHYSICS_VR\PHYSICSLOOPBACKC_API.OBJ
C:\USERS\ANTONINO\DESKTOP\VULKAN_ENGINE\BULLET3-2.86.1\BUILD3\VS2010\OBJ\X32\DEBUG\APP_SHAREDMEMORYPHYSICS_VR\PHYSICSCLIENTSHAREDMEMORY2_C_API.OBJ
C:\USERS\ANTONINO\DESKTOP\VULKAN_ENGINE\BULLET3-2.86.1\BUILD3\VS2010\OBJ\X32\DEBUG\APP_SHAREDMEMORYPHYSICS_VR\SHAREDMEMORYCOMMANDPROCESSOR.OBJ
C:\USERS\ANTONINO\DESKTOP\VULKAN_ENGINE\BULLET3-2.86.1\BUILD3\VS2010\OBJ\X32\DEBUG\APP_SHAREDMEMORYPHYSICS_VR\GEOMETRY.OBJ
C:\USERS\ANTONINO\DESKTOP\VULKAN_ENGINE\BULLET3-2.86.1\BUILD3\VS2010\OBJ\X32\DEBUG\APP_SHAREDMEMORYPHYSICS_VR\MODEL.OBJ
C:\USERS\ANTONINO\DESKTOP\VULKAN_ENGINE\BULLET3-2.86.1\BUILD3\VS2010\OBJ\X32\DEBUG\APP_SHAREDMEMORYPHYSICS_VR\URDFSTRINGSPLIT.OBJ
C:\USERS\ANTONINO\DESKTOP\VULKAN_ENGINE\BULLET3-2.86.1\BUILD3\VS2010\OBJ\X32\DEBUG\APP_SHAREDMEMORYPHYSICS_VR\ROBOTLOGGINGUTIL.OBJ
C:\USERS\ANTONINO\DESKTOP\VULKAN_ENGINE\BULLET3-2.86.1\BUILD3\VS2010\OBJ\X32\DEBUG\APP_SHAREDMEMORYPHYSICS_VR\LOADMESHFROMOBJ.OBJ
C:\USERS\ANTONINO\DESKTOP\VULKAN_ENGINE\BULLET3-2.86.1\BUILD3\VS2010\OBJ\X32\DEBUG\APP_SHAREDMEMORYPHYSICS_VR\COLLISIONSHAPE2TRIANGLEMESH.OBJ
C:\USERS\ANTONINO\DESKTOP\VULKAN_ENGINE\BULLET3-2.86.1\BUILD3\VS2010\OBJ\X32\DEBUG\APP_SHAREDMEMORYPHYSICS_VR\IKTRAJECTORYHELPER.OBJ
C:\USERS\ANTONINO\DESKTOP\VULKAN_ENGINE\BULLET3-2.86.1\BUILD3\VS2010\OBJ\X32\DEBUG\APP_SHAREDMEMORYPHYSICS_VR\TINYRENDERERVISUALSHAPECONVERTER.OBJ
C:\USERS\ANTONINO\DESKTOP\VULKAN_ENGINE\BULLET3-2.86.1\BUILD3\VS2010\OBJ\X32\DEBUG\APP_SHAREDMEMORYPHYSICS_VR\B3RESOURCEPATH.OBJ
C:\USERS\ANTONINO\DESKTOP\VULKAN_ENGINE\BULLET3-2.86.1\BUILD3\VS2010\OBJ\X32\DEBUG\APP_SHAREDMEMORYPHYSICS_VR\WAVEFRONT2GLINSTANCEGRAPHICSSHAPE.OBJ
C:\USERS\ANTONINO\DESKTOP\VULKAN_ENGINE\BULLET3-2.86.1\BUILD3\VS2010\OBJ\X32\DEBUG\APP_SHAREDMEMORYPHYSICS_VR\MATRICES.OBJ
C:\USERS\ANTONINO\DESKTOP\VULKAN_ENGINE\BULLET3-2.86.1\BUILD3\VS2010\OBJ\X32\DEBUG\APP_SHAREDMEMORYPHYSICS_VR\PHYSICSCLIENTC_API.OBJ
C:\USERS\ANTONINO\DESKTOP\VULKAN_ENGINE\BULLET3-2.86.1\BUILD3\VS2010\OBJ\X32\DEBUG\APP_SHAREDMEMORYPHYSICS_VR\INPROCESSMEMORY.OBJ
C:\USERS\ANTONINO\DESKTOP\VULKAN_ENGINE\BULLET3-2.86.1\BUILD3\VS2010\OBJ\X32\DEBUG\APP_SHAREDMEMORYPHYSICS_VR\PHYSICSLOOPBACK.OBJ
C:\USERS\ANTONINO\DESKTOP\VULKAN_ENGINE\BULLET3-2.86.1\BUILD3\VS2010\OBJ\X32\DEBUG\APP_SHAREDMEMORYPHYSICS_VR\PHYSICSCLIENTSHAREDMEMORY_C_API.OBJ
C:\USERS\ANTONINO\DESKTOP\VULKAN_ENGINE\BULLET3-2.86.1\BUILD3\VS2010\OBJ\X32\DEBUG\APP_SHAREDMEMORYPHYSICS_VR\PHYSICSCLIENTSHAREDMEMORY2.OBJ
C:\USERS\ANTONINO\DESKTOP\VULKAN_ENGINE\BULLET3-2.86.1\BUILD3\VS2010\OBJ\X32\DEBUG\APP_SHAREDMEMORYPHYSICS_VR\PHYSICSSERVERCOMMANDPROCESSOR.OBJ
C:\USERS\ANTONINO\DESKTOP\VULKAN_ENGINE\BULLET3-2.86.1\BUILD3\VS2010\OBJ\X32\DEBUG\APP_SHAREDMEMORYPHYSICS_VR\BCHUNK.OBJ
C:\USERS\ANTONINO\DESKTOP\VULKAN_ENGINE\BULLET3-2.86.1\BUILD3\VS2010\OBJ\X32\DEBUG\APP_SHAREDMEMORYPHYSICS_VR\BDNA.OBJ
C:\USERS\ANTONINO\DESKTOP\VULKAN_ENGINE\BULLET3-2.86.1\BUILD3\VS2010\OBJ\X32\DEBUG\APP_SHAREDMEMORYPHYSICS_VR\LOADMESHFROMCOLLADA.OBJ
C:\USERS\ANTONINO\DESKTOP\VULKAN_ENGINE\BULLET3-2.86.1\BUILD3\VS2010\OBJ\X32\DEBUG\APP_SHAREDMEMORYPHYSICS_VR\TINYVRGUI.OBJ
C:\USERS\ANTONINO\DESKTOP\VULKAN_ENGINE\BULLET3-2.86.1\BUILD3\VS2010\OBJ\X32\DEBUG\APP_SHAREDMEMORYPHYSICS_VR\PHYSICSSERVERSHAREDMEMORY.OBJ
C:\USERS\ANTONINO\DESKTOP\VULKAN_ENGINE\BULLET3-2.86.1\BUILD3\VS2010\OBJ\X32\DEBUG\APP_SHAREDMEMORYPHYSICS_VR\TGAIMAGE.OBJ
C:\USERS\ANTONINO\DESKTOP\VULKAN_ENGINE\BULLET3-2.86.1\BUILD3\VS2010\OBJ\X32\DEBUG\APP_SHAREDMEMORYPHYSICS_VR\URDFPARSER.OBJ
C:\USERS\ANTONINO\DESKTOP\VULKAN_ENGINE\BULLET3-2.86.1\BUILD3\VS2010\OBJ\X32\DEBUG\APP_SHAREDMEMORYPHYSICS_VR\BTBULLETWORLDIMPORTER.OBJ
C:\USERS\ANTONINO\DESKTOP\VULKAN_ENGINE\BULLET3-2.86.1\BUILD3\VS2010\OBJ\X32\DEBUG\APP_SHAREDMEMORYPHYSICS_VR\STB_IMAGE.OBJ
C:\USERS\ANTONINO\DESKTOP\VULKAN_ENGINE\BULLET3-2.86.1\BUILD3\VS2010\OBJ\X32\DEBUG\APP_SHAREDMEMORYPHYSICS_VR\GL_SHAPEDRAWER.OBJ
C:\USERS\ANTONINO\DESKTOP\VULKAN_ENGINE\BULLET3-2.86.1\BUILD3\VS2010\OBJ\X32\DEBUG\APP_SHAREDMEMORYPHYSICS_VR\TIMESERIESFONTDATA.OBJ
C:\USERS\ANTONINO\DESKTOP\VULKAN_ENGINE\BULLET3-2.86.1\BUILD3\VS2010\OBJ\X32\DEBUG\APP_SHAREDMEMORYPHYSICS_VR\B3THREADSUPPORTINTERFACE.OBJ
C:\USERS\ANTONINO\DESKTOP\VULKAN_ENGINE\BULLET3-2.86.1\BUILD3\VS2010\OBJ\X32\DEBUG\APP_SHAREDMEMORYPHYSICS_VR\B3WIN32THREADSUPPORT.OBJ
C:\USERS\ANTONINO\DESKTOP\VULKAN_ENGINE\BULLET3-2.86.1\BUILD3\VS2010\OBJ\X32\DEBUG\APP_SHAREDMEMORYPHYSICS_VR\PHYSICSSERVEREXAMPLE.OBJ
C:\USERS\ANTONINO\DESKTOP\VULKAN_ENGINE\BULLET3-2.86.1\BUILD3\VS2010\OBJ\X32\DEBUG\APP_SHAREDMEMORYPHYSICS_VR\URDF2BULLET.OBJ
C:\USERS\ANTONINO\DESKTOP\VULKAN_ENGINE\BULLET3-2.86.1\BUILD3\VS2010\OBJ\X32\DEBUG\APP_SHAREDMEMORYPHYSICS_VR\BFILE.OBJ
C:\USERS\ANTONINO\DESKTOP\VULKAN_ENGINE\BULLET3-2.86.1\BUILD3\VS2010\OBJ\X32\DEBUG\APP_SHAREDMEMORYPHYSICS_VR\TINY_OBJ_LOADER.OBJ
C:\USERS\ANTONINO\DESKTOP\VULKAN_ENGINE\BULLET3-2.86.1\BUILD3\VS2010\OBJ\X32\DEBUG\APP_SHAREDMEMORYPHYSICS_VR\LODEPNG.OBJ
C:\USERS\ANTONINO\DESKTOP\VULKAN_ENGINE\BULLET3-2.86.1\BUILD3\VS2010\OBJ\X32\DEBUG\APP_SHAREDMEMORYPHYSICS_VR\PHYSICSCLIENTSHAREDMEMORY.OBJ
C:\USERS\ANTONINO\DESKTOP\VULKAN_ENGINE\BULLET3-2.86.1\BUILD3\VS2010\OBJ\X32\DEBUG\APP_SHAREDMEMORYPHYSICS_VR\OUR_GL.OBJ
C:\USERS\ANTONINO\DESKTOP\VULKAN_ENGINE\BULLET3-2.86.1\BUILD3\VS2010\OBJ\X32\DEBUG\APP_SHAREDMEMORYPHYSICS_VR\BULLETURDFIMPORTER.OBJ
C:\USERS\ANTONINO\DESKTOP\VULKAN_ENGINE\BULLET3-2.86.1\BUILD3\VS2010\OBJ\X32\DEBUG\APP_SHAREDMEMORYPHYSICS_VR\BTBULLETFILE.OBJ
C:\USERS\ANTONINO\DESKTOP\VULKAN_ENGINE\BULLET3-2.86.1\BUILD3\VS2010\OBJ\X32\DEBUG\APP_SHAREDMEMORYPHYSICS_VR\TINYXMLERROR.OBJ
C:\USERS\ANTONINO\DESKTOP\VULKAN_ENGINE\BULLET3-2.86.1\BUILD3\VS2010\OBJ\X32\DEBUG\APP_SHAREDMEMORYPHYSICS_VR\HELLOVR_OPENGL_MAIN.OBJ
C:\USERS\ANTONINO\DESKTOP\VULKAN_ENGINE\BULLET3-2.86.1\BUILD3\VS2010\OBJ\X32\DEBUG\APP_SHAREDMEMORYPHYSICS_VR\PHYSICSCLIENTEXAMPLE.OBJ
C:\USERS\ANTONINO\DESKTOP\VULKAN_ENGINE\BULLET3-2.86.1\BUILD3\VS2010\OBJ\X32\DEBUG\APP_SHAREDMEMORYPHYSICS_VR\TINYRENDERER.OBJ
C:\USERS\ANTONINO\DESKTOP\VULKAN_ENGINE\BULLET3-2.86.1\BUILD3\VS2010\OBJ\X32\DEBUG\APP_SHAREDMEMORYPHYSICS_VR\BULLETMJCFIMPORTER.OBJ
C:\USERS\ANTONINO\DESKTOP\VULKAN_ENGINE\BULLET3-2.86.1\BUILD3\VS2010\OBJ\X32\DEBUG\APP_SHAREDMEMORYPHYSICS_VR\TINYSTR.OBJ
C:\USERS\ANTONINO\DESKTOP\VULKAN_ENGINE\BULLET3-2.86.1\BUILD3\VS2010\OBJ\X32\DEBUG\APP_SHAREDMEMORYPHYSICS_VR\TINYXML.OBJ
C:\USERS\ANTONINO\DESKTOP\VULKAN_ENGINE\BULLET3-2.86.1\BUILD3\VS2010\OBJ\X32\DEBUG\APP_SHAREDMEMORYPHYSICS_VR\B3IMPORTMESHUTILITY.OBJ
C:\USERS\ANTONINO\DESKTOP\VULKAN_ENGINE\BULLET3-2.86.1\BUILD3\VS2010\OBJ\X32\DEBUG\APP_SHAREDMEMORYPHYSICS_VR\TIMESERIESCANVAS.OBJ
^C:\USERS\ANTONINO\DESKTOP\VULKAN_ENGINE\BULLET3-2.86.1\EXAMPLES\SHAREDMEMORY\IKTRAJECTORYHELPER.CPP
C:\USERS\ANTONINO\DESKTOP\VULKAN_ENGINE\BULLET3-2.86.1\BIN\APP_SHAREDMEMORYPHYSICS_VR_VS2010_DEBUG.PDB
^C:\USERS\ANTONINO\DESKTOP\VULKAN_ENGINE\BULLET3-2.86.1\EXAMPLES\SHAREDMEMORY\PHYSICSCLIENT.CPP
C:\USERS\ANTONINO\DESKTOP\VULKAN_ENGINE\BULLET3-2.86.1\BIN\APP_SHAREDMEMORYPHYSICS_VR_VS2010_DEBUG.PDB
^C:\USERS\ANTONINO\DESKTOP\VULKAN_ENGINE\BULLET3-2.86.1\EXAMPLES\SHAREDMEMORY\PHYSICSCLIENTSHAREDMEMORY.CPP
C:\USERS\ANTONINO\DESKTOP\VULKAN_ENGINE\BULLET3-2.86.1\BIN\APP_SHAREDMEMORYPHYSICS_VR_VS2010_DEBUG.PDB
^C:\USERS\ANTONINO\DESKTOP\VULKAN_ENGINE\BULLET3-2.86.1\EXAMPLES\SHAREDMEMORY\PHYSICSCLIENTEXAMPLE.CPP
C:\USERS\ANTONINO\DESKTOP\VULKAN_ENGINE\BULLET3-2.86.1\BIN\APP_SHAREDMEMORYPHYSICS_VR_VS2010_DEBUG.PDB
^C:\USERS\ANTONINO\DESKTOP\VULKAN_ENGINE\BULLET3-2.86.1\EXAMPLES\SHAREDMEMORY\PHYSICSSERVEREXAMPLE.CPP
C:\USERS\ANTONINO\DESKTOP\VULKAN_ENGINE\BULLET3-2.86.1\BIN\APP_SHAREDMEMORYPHYSICS_VR_VS2010_DEBUG.PDB
^C:\USERS\ANTONINO\DESKTOP\VULKAN_ENGINE\BULLET3-2.86.1\EXAMPLES\SHAREDMEMORY\PHYSICSSERVERSHAREDMEMORY.CPP
C:\USERS\ANTONINO\DESKTOP\VULKAN_ENGINE\BULLET3-2.86.1\BIN\APP_SHAREDMEMORYPHYSICS_VR_VS2010_DEBUG.PDB
^C:\USERS\ANTONINO\DESKTOP\VULKAN_ENGINE\BULLET3-2.86.1\EXAMPLES\SHAREDMEMORY\PHYSICSSERVER.CPP
C:\USERS\ANTONINO\DESKTOP\VULKAN_ENGINE\BULLET3-2.86.1\BIN\APP_SHAREDMEMORYPHYSICS_VR_VS2010_DEBUG.PDB
^C:\USERS\ANTONINO\DESKTOP\VULKAN_ENGINE\BULLET3-2.86.1\EXAMPLES\SHAREDMEMORY\PHYSICSCLIENTC_API.CPP
C:\USERS\ANTONINO\DESKTOP\VULKAN_ENGINE\BULLET3-2.86.1\BIN\APP_SHAREDMEMORYPHYSICS_VR_VS2010_DEBUG.PDB
^C:\USERS\ANTONINO\DESKTOP\VULKAN_ENGINE\BULLET3-2.86.1\EXAMPLES\SHAREDMEMORY\POSIXSHAREDMEMORY.CPP
C:\USERS\ANTONINO\DESKTOP\VULKAN_ENGINE\BULLET3-2.86.1\BIN\APP_SHAREDMEMORYPHYSICS_VR_VS2010_DEBUG.PDB
^C:\USERS\ANTONINO\DESKTOP\VULKAN_ENGINE\BULLET3-2.86.1\EXAMPLES\SHAREDMEMORY\WIN32SHAREDMEMORY.CPP
C:\USERS\ANTONINO\DESKTOP\VULKAN_ENGINE\BULLET3-2.86.1\BIN\APP_SHAREDMEMORYPHYSICS_VR_VS2010_DEBUG.PDB
^C:\USERS\ANTONINO\DESKTOP\VULKAN_ENGINE\BULLET3-2.86.1\EXAMPLES\SHAREDMEMORY\INPROCESSMEMORY.CPP
C:\USERS\ANTONINO\DESKTOP\VULKAN_ENGINE\BULLET3-2.86.1\BIN\APP_SHAREDMEMORYPHYSICS_VR_VS2010_DEBUG.PDB
^C:\USERS\ANTONINO\DESKTOP\VULKAN_ENGINE\BULLET3-2.86.1\EXAMPLES\SHAREDMEMORY\PHYSICSDIRECT.CPP
C:\USERS\ANTONINO\DESKTOP\VULKAN_ENGINE\BULLET3-2.86.1\BIN\APP_SHAREDMEMORYPHYSICS_VR_VS2010_DEBUG.PDB
^C:\USERS\ANTONINO\DESKTOP\VULKAN_ENGINE\BULLET3-2.86.1\EXAMPLES\SHAREDMEMORY\PHYSICSDIRECTC_API.CPP
C:\USERS\ANTONINO\DESKTOP\VULKAN_ENGINE\BULLET3-2.86.1\BIN\APP_SHAREDMEMORYPHYSICS_VR_VS2010_DEBUG.PDB
^C:\USERS\ANTONINO\DESKTOP\VULKAN_ENGINE\BULLET3-2.86.1\EXAMPLES\SHAREDMEMORY\PHYSICSLOOPBACK.CPP
C:\USERS\ANTONINO\DESKTOP\VULKAN_ENGINE\BULLET3-2.86.1\BIN\APP_SHAREDMEMORYPHYSICS_VR_VS2010_DEBUG.PDB
^C:\USERS\ANTONINO\DESKTOP\VULKAN_ENGINE\BULLET3-2.86.1\EXAMPLES\SHAREDMEMORY\PHYSICSLOOPBACKC_API.CPP
C:\USERS\ANTONINO\DESKTOP\VULKAN_ENGINE\BULLET3-2.86.1\BIN\APP_SHAREDMEMORYPHYSICS_VR_VS2010_DEBUG.PDB
^C:\USERS\ANTONINO\DESKTOP\VULKAN_ENGINE\BULLET3-2.86.1\EXAMPLES\SHAREDMEMORY\PHYSICSCLIENTSHAREDMEMORY_C_API.CPP
C:\USERS\ANTONINO\DESKTOP\VULKAN_ENGINE\BULLET3-2.86.1\BIN\APP_SHAREDMEMORYPHYSICS_VR_VS2010_DEBUG.PDB
^C:\USERS\ANTONINO\DESKTOP\VULKAN_ENGINE\BULLET3-2.86.1\EXAMPLES\SHAREDMEMORY\PHYSICSCLIENTSHAREDMEMORY2_C_API.CPP
C:\USERS\ANTONINO\DESKTOP\VULKAN_ENGINE\BULLET3-2.86.1\BIN\APP_SHAREDMEMORYPHYSICS_VR_VS2010_DEBUG.PDB
^C:\USERS\ANTONINO\DESKTOP\VULKAN_ENGINE\BULLET3-2.86.1\EXAMPLES\SHAREDMEMORY\PHYSICSCLIENTSHAREDMEMORY2.CPP
C:\USERS\ANTONINO\DESKTOP\VULKAN_ENGINE\BULLET3-2.86.1\BIN\APP_SHAREDMEMORYPHYSICS_VR_VS2010_DEBUG.PDB
^C:\USERS\ANTONINO\DESKTOP\VULKAN_ENGINE\BULLET3-2.86.1\EXAMPLES\SHAREDMEMORY\SHAREDMEMORYCOMMANDPROCESSOR.CPP
C:\USERS\ANTONINO\DESKTOP\VULKAN_ENGINE\BULLET3-2.86.1\BIN\APP_SHAREDMEMORYPHYSICS_VR_VS2010_DEBUG.PDB
^C:\USERS\ANTONINO\DESKTOP\VULKAN_ENGINE\BULLET3-2.86.1\EXAMPLES\SHAREDMEMORY\PHYSICSSERVERCOMMANDPROCESSOR.CPP
C:\USERS\ANTONINO\DESKTOP\VULKAN_ENGINE\BULLET3-2.86.1\BIN\APP_SHAREDMEMORYPHYSICS_VR_VS2010_DEBUG.PDB
^C:\USERS\ANTONINO\DESKTOP\VULKAN_ENGINE\BULLET3-2.86.1\EXAMPLES\SHAREDMEMORY\TINYRENDERERVISUALSHAPECONVERTER.CPP
C:\USERS\ANTONINO\DESKTOP\VULKAN_ENGINE\BULLET3-2.86.1\BIN\APP_SHAREDMEMORYPHYSICS_VR_VS2010_DEBUG.PDB
^C:\USERS\ANTONINO\DESKTOP\VULKAN_ENGINE\BULLET3-2.86.1\EXAMPLES\TINYRENDERER\GEOMETRY.CPP
C:\USERS\ANTONINO\DESKTOP\VULKAN_ENGINE\BULLET3-2.86.1\BIN\APP_SHAREDMEMORYPHYSICS_VR_VS2010_DEBUG.PDB
^C:\USERS\ANTONINO\DESKTOP\VULKAN_ENGINE\BULLET3-2.86.1\EXAMPLES\TINYRENDERER\MODEL.CPP
C:\USERS\ANTONINO\DESKTOP\VULKAN_ENGINE\BULLET3-2.86.1\BIN\APP_SHAREDMEMORYPHYSICS_VR_VS2010_DEBUG.PDB
^C:\USERS\ANTONINO\DESKTOP\VULKAN_ENGINE\BULLET3-2.86.1\EXAMPLES\TINYRENDERER\TGAIMAGE.CPP
C:\USERS\ANTONINO\DESKTOP\VULKAN_ENGINE\BULLET3-2.86.1\BIN\APP_SHAREDMEMORYPHYSICS_VR_VS2010_DEBUG.PDB
^C:\USERS\ANTONINO\DESKTOP\VULKAN_ENGINE\BULLET3-2.86.1\EXAMPLES\TINYRENDERER\OUR_GL.CPP
C:\USERS\ANTONINO\DESKTOP\VULKAN_ENGINE\BULLET3-2.86.1\BIN\APP_SHAREDMEMORYPHYSICS_VR_VS2010_DEBUG.PDB
^C:\USERS\ANTONINO\DESKTOP\VULKAN_ENGINE\BULLET3-2.86.1\EXAMPLES\TINYRENDERER\TINYRENDERER.CPP
C:\USERS\ANTONINO\DESKTOP\VULKAN_ENGINE\BULLET3-2.86.1\BIN\APP_SHAREDMEMORYPHYSICS_VR_VS2010_DEBUG.PDB
^C:\USERS\ANTONINO\DESKTOP\VULKAN_ENGINE\BULLET3-2.86.1\EXAMPLES\OPENGLWINDOW\SIMPLECAMERA.CPP
C:\USERS\ANTONINO\DESKTOP\VULKAN_ENGINE\BULLET3-2.86.1\BIN\APP_SHAREDMEMORYPHYSICS_VR_VS2010_DEBUG.PDB
^C:\USERS\ANTONINO\DESKTOP\VULKAN_ENGINE\BULLET3-2.86.1\EXAMPLES\IMPORTERS\IMPORTURDFDEMO\MYMULTIBODYCREATOR.CPP
C:\USERS\ANTONINO\DESKTOP\VULKAN_ENGINE\BULLET3-2.86.1\BIN\APP_SHAREDMEMORYPHYSICS_VR_VS2010_DEBUG.PDB
^C:\USERS\ANTONINO\DESKTOP\VULKAN_ENGINE\BULLET3-2.86.1\EXAMPLES\IMPORTERS\IMPORTURDFDEMO\BULLETURDFIMPORTER.CPP
C:\USERS\ANTONINO\DESKTOP\VULKAN_ENGINE\BULLET3-2.86.1\BIN\APP_SHAREDMEMORYPHYSICS_VR_VS2010_DEBUG.PDB
^C:\USERS\ANTONINO\DESKTOP\VULKAN_ENGINE\BULLET3-2.86.1\EXAMPLES\IMPORTERS\IMPORTURDFDEMO\URDFPARSER.CPP
C:\USERS\ANTONINO\DESKTOP\VULKAN_ENGINE\BULLET3-2.86.1\BIN\APP_SHAREDMEMORYPHYSICS_VR_VS2010_DEBUG.PDB
^C:\USERS\ANTONINO\DESKTOP\VULKAN_ENGINE\BULLET3-2.86.1\EXAMPLES\IMPORTERS\IMPORTURDFDEMO\URDFSTRINGSPLIT.CPP
C:\USERS\ANTONINO\DESKTOP\VULKAN_ENGINE\BULLET3-2.86.1\BIN\APP_SHAREDMEMORYPHYSICS_VR_VS2010_DEBUG.PDB
^C:\USERS\ANTONINO\DESKTOP\VULKAN_ENGINE\BULLET3-2.86.1\EXAMPLES\IMPORTERS\IMPORTURDFDEMO\URDF2BULLET.CPP
C:\USERS\ANTONINO\DESKTOP\VULKAN_ENGINE\BULLET3-2.86.1\BIN\APP_SHAREDMEMORYPHYSICS_VR_VS2010_DEBUG.PDB
^C:\USERS\ANTONINO\DESKTOP\VULKAN_ENGINE\BULLET3-2.86.1\EXAMPLES\IMPORTERS\IMPORTMJCFDEMO\BULLETMJCFIMPORTER.CPP
C:\USERS\ANTONINO\DESKTOP\VULKAN_ENGINE\BULLET3-2.86.1\BIN\APP_SHAREDMEMORYPHYSICS_VR_VS2010_DEBUG.PDB
^C:\USERS\ANTONINO\DESKTOP\VULKAN_ENGINE\BULLET3-2.86.1\EXAMPLES\UTILS\B3RESOURCEPATH.CPP
C:\USERS\ANTONINO\DESKTOP\VULKAN_ENGINE\BULLET3-2.86.1\BIN\APP_SHAREDMEMORYPHYSICS_VR_VS2010_DEBUG.PDB
^C:\USERS\ANTONINO\DESKTOP\VULKAN_ENGINE\BULLET3-2.86.1\EXAMPLES\UTILS\B3CLOCK.CPP
C:\USERS\ANTONINO\DESKTOP\VULKAN_ENGINE\BULLET3-2.86.1\BIN\APP_SHAREDMEMORYPHYSICS_VR_VS2010_DEBUG.PDB
^C:\USERS\ANTONINO\DESKTOP\VULKAN_ENGINE\BULLET3-2.86.1\EXAMPLES\UTILS\ROBOTLOGGINGUTIL.CPP
C:\USERS\ANTONINO\DESKTOP\VULKAN_ENGINE\BULLET3-2.86.1\BIN\APP_SHAREDMEMORYPHYSICS_VR_VS2010_DEBUG.PDB
^C:\USERS\ANTONINO\DESKTOP\VULKAN_ENGINE\BULLET3-2.86.1\EXAMPLES\UTILS\CHROMETRACEUTIL.CPP
C:\USERS\ANTONINO\DESKTOP\VULKAN_ENGINE\BULLET3-2.86.1\BIN\APP_SHAREDMEMORYPHYSICS_VR_VS2010_DEBUG.PDB
^C:\USERS\ANTONINO\DESKTOP\VULKAN_ENGINE\BULLET3-2.86.1\EXTRAS\SERIALIZE\BULLETWORLDIMPORTER\BTBULLETWORLDIMPORTER.CPP
C:\USERS\ANTONINO\DESKTOP\VULKAN_ENGINE\BULLET3-2.86.1\BIN\APP_SHAREDMEMORYPHYSICS_VR_VS2010_DEBUG.PDB
^C:\USERS\ANTONINO\DESKTOP\VULKAN_ENGINE\BULLET3-2.86.1\EXTRAS\SERIALIZE\BULLETWORLDIMPORTER\BTWORLDIMPORTER.CPP
C:\USERS\ANTONINO\DESKTOP\VULKAN_ENGINE\BULLET3-2.86.1\BIN\APP_SHAREDMEMORYPHYSICS_VR_VS2010_DEBUG.PDB
^C:\USERS\ANTONINO\DESKTOP\VULKAN_ENGINE\BULLET3-2.86.1\EXTRAS\SERIALIZE\BULLETFILELOADER\BCHUNK.CPP
C:\USERS\ANTONINO\DESKTOP\VULKAN_ENGINE\BULLET3-2.86.1\BIN\APP_SHAREDMEMORYPHYSICS_VR_VS2010_DEBUG.PDB
^C:\USERS\ANTONINO\DESKTOP\VULKAN_ENGINE\BULLET3-2.86.1\EXTRAS\SERIALIZE\BULLETFILELOADER\BDNA.CPP
C:\USERS\ANTONINO\DESKTOP\VULKAN_ENGINE\BULLET3-2.86.1\BIN\APP_SHAREDMEMORYPHYSICS_VR_VS2010_DEBUG.PDB
^C:\USERS\ANTONINO\DESKTOP\VULKAN_ENGINE\BULLET3-2.86.1\EXTRAS\SERIALIZE\BULLETFILELOADER\BFILE.CPP
C:\USERS\ANTONINO\DESKTOP\VULKAN_ENGINE\BULLET3-2.86.1\BIN\APP_SHAREDMEMORYPHYSICS_VR_VS2010_DEBUG.PDB
^C:\USERS\ANTONINO\DESKTOP\VULKAN_ENGINE\BULLET3-2.86.1\EXTRAS\SERIALIZE\BULLETFILELOADER\BTBULLETFILE.CPP
C:\USERS\ANTONINO\DESKTOP\VULKAN_ENGINE\BULLET3-2.86.1\BIN\APP_SHAREDMEMORYPHYSICS_VR_VS2010_DEBUG.PDB
^C:\USERS\ANTONINO\DESKTOP\VULKAN_ENGINE\BULLET3-2.86.1\EXAMPLES\IMPORTERS\IMPORTOBJDEMO\WAVEFRONT2GLINSTANCEGRAPHICSSHAPE.CPP
C:\USERS\ANTONINO\DESKTOP\VULKAN_ENGINE\BULLET3-2.86.1\BIN\APP_SHAREDMEMORYPHYSICS_VR_VS2010_DEBUG.PDB
^C:\USERS\ANTONINO\DESKTOP\VULKAN_ENGINE\BULLET3-2.86.1\EXAMPLES\IMPORTERS\IMPORTOBJDEMO\LOADMESHFROMOBJ.CPP
C:\USERS\ANTONINO\DESKTOP\VULKAN_ENGINE\BULLET3-2.86.1\BIN\APP_SHAREDMEMORYPHYSICS_VR_VS2010_DEBUG.PDB
^C:\USERS\ANTONINO\DESKTOP\VULKAN_ENGINE\BULLET3-2.86.1\EXAMPLES\IMPORTERS\IMPORTCOLLADADEMO\LOADMESHFROMCOLLADA.CPP
C:\USERS\ANTONINO\DESKTOP\VULKAN_ENGINE\BULLET3-2.86.1\BIN\APP_SHAREDMEMORYPHYSICS_VR_VS2010_DEBUG.PDB
^C:\USERS\ANTONINO\DESKTOP\VULKAN_ENGINE\BULLET3-2.86.1\EXAMPLES\THIRDPARTYLIBS\WAVEFRONT\TINY_OBJ_LOADER.CPP
C:\USERS\ANTONINO\DESKTOP\VULKAN_ENGINE\BULLET3-2.86.1\BIN\APP_SHAREDMEMORYPHYSICS_VR_VS2010_DEBUG.PDB
^C:\USERS\ANTONINO\DESKTOP\VULKAN_ENGINE\BULLET3-2.86.1\EXAMPLES\THIRDPARTYLIBS\TINYXML\TINYSTR.CPP
C:\USERS\ANTONINO\DESKTOP\VULKAN_ENGINE\BULLET3-2.86.1\BIN\APP_SHAREDMEMORYPHYSICS_VR_VS2010_DEBUG.PDB
^C:\USERS\ANTONINO\DESKTOP\VULKAN_ENGINE\BULLET3-2.86.1\EXAMPLES\THIRDPARTYLIBS\TINYXML\TINYXML.CPP
C:\USERS\ANTONINO\DESKTOP\VULKAN_ENGINE\BULLET3-2.86.1\BIN\APP_SHAREDMEMORYPHYSICS_VR_VS2010_DEBUG.PDB
^C:\USERS\ANTONINO\DESKTOP\VULKAN_ENGINE\BULLET3-2.86.1\EXAMPLES\THIRDPARTYLIBS\TINYXML\TINYXMLERROR.CPP
C:\USERS\ANTONINO\DESKTOP\VULKAN_ENGINE\BULLET3-2.86.1\BIN\APP_SHAREDMEMORYPHYSICS_VR_VS2010_DEBUG.PDB
^C:\USERS\ANTONINO\DESKTOP\VULKAN_ENGINE\BULLET3-2.86.1\EXAMPLES\THIRDPARTYLIBS\TINYXML\TINYXMLPARSER.CPP
C:\USERS\ANTONINO\DESKTOP\VULKAN_ENGINE\BULLET3-2.86.1\BIN\APP_SHAREDMEMORYPHYSICS_VR_VS2010_DEBUG.PDB
^C:\USERS\ANTONINO\DESKTOP\VULKAN_ENGINE\BULLET3-2.86.1\EXAMPLES\IMPORTERS\IMPORTMESHUTILITY\B3IMPORTMESHUTILITY.CPP
C:\USERS\ANTONINO\DESKTOP\VULKAN_ENGINE\BULLET3-2.86.1\BIN\APP_SHAREDMEMORYPHYSICS_VR_VS2010_DEBUG.PDB
^C:\USERS\ANTONINO\DESKTOP\VULKAN_ENGINE\BULLET3-2.86.1\EXAMPLES\THIRDPARTYLIBS\STB_IMAGE\STB_IMAGE.CPP
C:\USERS\ANTONINO\DESKTOP\VULKAN_ENGINE\BULLET3-2.86.1\BIN\APP_SHAREDMEMORYPHYSICS_VR_VS2010_DEBUG.PDB
^C:\USERS\ANTONINO\DESKTOP\VULKAN_ENGINE\BULLET3-2.86.1\EXAMPLES\STANDALONEMAIN\HELLOVR_OPENGL_MAIN.CPP
C:\USERS\ANTONINO\DESKTOP\VULKAN_ENGINE\BULLET3-2.86.1\BIN\APP_SHAREDMEMORYPHYSICS_VR_VS2010_DEBUG.PDB
^C:\USERS\ANTONINO\DESKTOP\VULKAN_ENGINE\BULLET3-2.86.1\EXAMPLES\EXAMPLEBROWSER\OPENGLGUIHELPER.CPP
C:\USERS\ANTONINO\DESKTOP\VULKAN_ENGINE\BULLET3-2.86.1\BIN\APP_SHAREDMEMORYPHYSICS_VR_VS2010_DEBUG.PDB
^C:\USERS\ANTONINO\DESKTOP\VULKAN_ENGINE\BULLET3-2.86.1\EXAMPLES\EXAMPLEBROWSER\GL_SHAPEDRAWER.CPP
C:\USERS\ANTONINO\DESKTOP\VULKAN_ENGINE\BULLET3-2.86.1\BIN\APP_SHAREDMEMORYPHYSICS_VR_VS2010_DEBUG.PDB
^C:\USERS\ANTONINO\DESKTOP\VULKAN_ENGINE\BULLET3-2.86.1\EXAMPLES\EXAMPLEBROWSER\COLLISIONSHAPE2TRIANGLEMESH.CPP
C:\USERS\ANTONINO\DESKTOP\VULKAN_ENGINE\BULLET3-2.86.1\BIN\APP_SHAREDMEMORYPHYSICS_VR_VS2010_DEBUG.PDB
^C:\USERS\ANTONINO\DESKTOP\VULKAN_ENGINE\BULLET3-2.86.1\EXAMPLES\RENDERINGEXAMPLES\TINYVRGUI.CPP
C:\USERS\ANTONINO\DESKTOP\VULKAN_ENGINE\BULLET3-2.86.1\BIN\APP_SHAREDMEMORYPHYSICS_VR_VS2010_DEBUG.PDB
^C:\USERS\ANTONINO\DESKTOP\VULKAN_ENGINE\BULLET3-2.86.1\EXAMPLES\RENDERINGEXAMPLES\TIMESERIESCANVAS.CPP
C:\USERS\ANTONINO\DESKTOP\VULKAN_ENGINE\BULLET3-2.86.1\BIN\APP_SHAREDMEMORYPHYSICS_VR_VS2010_DEBUG.PDB
^C:\USERS\ANTONINO\DESKTOP\VULKAN_ENGINE\BULLET3-2.86.1\EXAMPLES\RENDERINGEXAMPLES\TIMESERIESFONTDATA.CPP
C:\USERS\ANTONINO\DESKTOP\VULKAN_ENGINE\BULLET3-2.86.1\BIN\APP_SHAREDMEMORYPHYSICS_VR_VS2010_DEBUG.PDB
^C:\USERS\ANTONINO\DESKTOP\VULKAN_ENGINE\BULLET3-2.86.1\EXAMPLES\THIRDPARTYLIBS\OPENVR\SAMPLES\SHARED\LODEPNG.CPP
C:\USERS\ANTONINO\DESKTOP\VULKAN_ENGINE\BULLET3-2.86.1\BIN\APP_SHAREDMEMORYPHYSICS_VR_VS2010_DEBUG.PDB
^C:\USERS\ANTONINO\DESKTOP\VULKAN_ENGINE\BULLET3-2.86.1\EXAMPLES\THIRDPARTYLIBS\OPENVR\SAMPLES\SHARED\MATRICES.CPP
C:\USERS\ANTONINO\DESKTOP\VULKAN_ENGINE\BULLET3-2.86.1\BIN\APP_SHAREDMEMORYPHYSICS_VR_VS2010_DEBUG.PDB
^C:\USERS\ANTONINO\DESKTOP\VULKAN_ENGINE\BULLET3-2.86.1\EXAMPLES\THIRDPARTYLIBS\OPENVR\SAMPLES\SHARED\PATHTOOLS.CPP
C:\USERS\ANTONINO\DESKTOP\VULKAN_ENGINE\BULLET3-2.86.1\BIN\APP_SHAREDMEMORYPHYSICS_VR_VS2010_DEBUG.PDB
^C:\USERS\ANTONINO\DESKTOP\VULKAN_ENGINE\BULLET3-2.86.1\EXAMPLES\MULTITHREADING\B3THREADSUPPORTINTERFACE.CPP
C:\USERS\ANTONINO\DESKTOP\VULKAN_ENGINE\BULLET3-2.86.1\BIN\APP_SHAREDMEMORYPHYSICS_VR_VS2010_DEBUG.PDB
^C:\USERS\ANTONINO\DESKTOP\VULKAN_ENGINE\BULLET3-2.86.1\EXAMPLES\MULTITHREADING\B3WIN32THREADSUPPORT.CPP
C:\USERS\ANTONINO\DESKTOP\VULKAN_ENGINE\BULLET3-2.86.1\BIN\APP_SHAREDMEMORYPHYSICS_VR_VS2010_DEBUG.PDB
