^C:\USERS\ANTONINO\DESKTOP\VULKAN_ENGINE\BULLET3-2.86.1\EXAMPLES\THIRDPARTYLIBS\GLEW\GLEW.C
C:\USERS\ANTONINO\DESKTOP\VULKAN_ENGINE\BULLET3-2.86.1\BIN\APP_INVERSEDYNAMICSEXAMPLEGUIWITHSOFTWARERENDERER_VS2010_DEBUG.PDB
C:\USERS\ANTONINO\DESKTOP\VULKAN_ENGINE\BULLET3-2.86.1\BUILD3\VS2010\OBJ\X32\DEBUG\APP_INVERSEDYNAMICSEXAMPLEGUIWITHSOFTWARERENDERER\GLEW.OBJ
^C:\USERS\ANTONINO\DESKTOP\VULKAN_ENGINE\BULLET3-2.86.1\EXAMPLES\EXAMPLEBROWSER\COLLISIONSHAPE2TRIANGLEMESH.CPP|C:\USERS\ANTONINO\DESKTOP\VULKAN_ENGINE\BULLET3-2.86.1\EXAMPLES\EXAMPLEBROWSER\GL_SHAPEDRAWER.CPP|C:\USERS\ANTONINO\DESKTOP\VULKAN_ENGINE\BULLET3-2.86.1\EXAMPLES\EXAMPLEBROWSER\OPENGLGUIHELPER.CPP|C:\USERS\ANTONINO\DESKTOP\VULKAN_ENGINE\BULLET3-2.86.1\EXAMPLES\IMPORTERS\IMPORTCOLLADADEMO\LOADMESHFROMCOLLADA.CPP|C:\USERS\ANTONINO\DESKTOP\VULKAN_ENGINE\BULLET3-2.86.1\EXAMPLES\IMPORTERS\IMPORTMESHUTILITY\B3IMPORTMESHUTILITY.CPP|C:\USERS\ANTONINO\DESKTOP\VULKAN_ENGINE\BULLET3-2.86.1\EXAMPLES\IMPORTERS\IMPORTOBJDEMO\LOADMESHFROMOBJ.CPP|C:\USERS\ANTONINO\DESKTOP\VULKAN_ENGINE\BULLET3-2.86.1\EXAMPLES\IMPORTERS\IMPORTOBJDEMO\WAVEFRONT2GLINSTANCEGRAPHICSSHAPE.CPP|C:\USERS\ANTONINO\DESKTOP\VULKAN_ENGINE\BULLET3-2.86.1\EXAMPLES\IMPORTERS\IMPORTURDFDEMO\BULLETURDFIMPORTER.CPP|C:\USERS\ANTONINO\DESKTOP\VULKAN_ENGINE\BULLET3-2.86.1\EXAMPLES\IMPORTERS\IMPORTURDFDEMO\MYMULTIBODYCREATOR.CPP|C:\USERS\ANTONINO\DESKTOP\VULKAN_ENGINE\BULLET3-2.86.1\EXAMPLES\IMPORTERS\IMPORTURDFDEMO\URDF2BULLET.CPP|C:\USERS\ANTONINO\DESKTOP\VULKAN_ENGINE\BULLET3-2.86.1\EXAMPLES\IMPORTERS\IMPORTURDFDEMO\URDFPARSER.CPP|C:\USERS\ANTONINO\DESKTOP\VULKAN_ENGINE\BULLET3-2.86.1\EXAMPLES\IMPORTERS\IMPORTURDFDEMO\URDFSTRINGSPLIT.CPP|C:\USERS\ANTONINO\DESKTOP\VULKAN_ENGINE\BULLET3-2.86.1\EXAMPLES\INVERSEDYNAMICS\INVERSEDYNAMICSEXAMPLE.CPP|C:\USERS\ANTONINO\DESKTOP\VULKAN_ENGINE\BULLET3-2.86.1\EXAMPLES\MULTIBODY\INVERTEDPENDULUMPDCONTROL.CPP|C:\USERS\ANTONINO\DESKTOP\VULKAN_ENGINE\BULLET3-2.86.1\EXAMPLES\RENDERINGEXAMPLES\TIMESERIESCANVAS.CPP|C:\USERS\ANTONINO\DESKTOP\VULKAN_ENGINE\BULLET3-2.86.1\EXAMPLES\RENDERINGEXAMPLES\TIMESERIESFONTDATA.CPP|C:\USERS\ANTONINO\DESKTOP\VULKAN_ENGINE\BULLET3-2.86.1\EXAMPLES\STANDALONEMAIN\MAIN_SW_TINYRENDERER_SINGLE_EXAMPLE.CPP|C:\USERS\ANTONINO\DESKTOP\VULKAN_ENGINE\BULLET3-2.86.1\EXAMPLES\THIRDPARTYLIBS\STB_IMAGE\STB_IMAGE.CPP|C:\USERS\ANTONINO\DESKTOP\VULKAN_ENGINE\BULLET3-2.86.1\EXAMPLES\THIRDPARTYLIBS\TINYXML\TINYSTR.CPP|C:\USERS\ANTONINO\DESKTOP\VULKAN_ENGINE\BULLET3-2.86.1\EXAMPLES\THIRDPARTYLIBS\TINYXML\TINYXML.CPP|C:\USERS\ANTONINO\DESKTOP\VULKAN_ENGINE\BULLET3-2.86.1\EXAMPLES\THIRDPARTYLIBS\TINYXML\TINYXMLERROR.CPP|C:\USERS\ANTONINO\DESKTOP\VULKAN_ENGINE\BULLET3-2.86.1\EXAMPLES\THIRDPARTYLIBS\TINYXML\TINYXMLPARSER.CPP|C:\USERS\ANTONINO\DESKTOP\VULKAN_ENGINE\BULLET3-2.86.1\EXAMPLES\THIRDPARTYLIBS\WAVEFRONT\TINY_OBJ_LOADER.CPP|C:\USERS\ANTONINO\DESKTOP\VULKAN_ENGINE\BULLET3-2.86.1\EXAMPLES\TINYRENDERER\GEOMETRY.CPP|C:\USERS\ANTONINO\DESKTOP\VULKAN_ENGINE\BULLET3-2.86.1\EXAMPLES\TINYRENDERER\MODEL.CPP|C:\USERS\ANTONINO\DESKTOP\VULKAN_ENGINE\BULLET3-2.86.1\EXAMPLES\TINYRENDERER\OUR_GL.CPP|C:\USERS\ANTONINO\DESKTOP\VULKAN_ENGINE\BULLET3-2.86.1\EXAMPLES\TINYRENDERER\TGAIMAGE.CPP|C:\USERS\ANTONINO\DESKTOP\VULKAN_ENGINE\BULLET3-2.86.1\EXAMPLES\TINYRENDERER\TINYRENDERER.CPP|C:\USERS\ANTONINO\DESKTOP\VULKAN_ENGINE\BULLET3-2.86.1\EXAMPLES\UTILS\B3RESOURCEPATH.CPP
C:\USERS\ANTONINO\DESKTOP\VULKAN_ENGINE\BULLET3-2.86.1\BUILD3\VS2010\OBJ\X32\DEBUG\APP_INVERSEDYNAMICSEXAMPLEGUIWITHSOFTWARERENDERER\OPENGLGUIHELPER.OBJ
C:\USERS\ANTONINO\DESKTOP\VULKAN_ENGINE\BULLET3-2.86.1\BUILD3\VS2010\OBJ\X32\DEBUG\APP_INVERSEDYNAMICSEXAMPLEGUIWITHSOFTWARERENDERER\LOADMESHFROMOBJ.OBJ
C:\USERS\ANTONINO\DESKTOP\VULKAN_ENGINE\BULLET3-2.86.1\BUILD3\VS2010\OBJ\X32\DEBUG\APP_INVERSEDYNAMICSEXAMPLEGUIWITHSOFTWARERENDERER\URDF2BULLET.OBJ
C:\USERS\ANTONINO\DESKTOP\VULKAN_ENGINE\BULLET3-2.86.1\BUILD3\VS2010\OBJ\X32\DEBUG\APP_INVERSEDYNAMICSEXAMPLEGUIWITHSOFTWARERENDERER\TGAIMAGE.OBJ
C:\USERS\ANTONINO\DESKTOP\VULKAN_ENGINE\BULLET3-2.86.1\BUILD3\VS2010\OBJ\X32\DEBUG\APP_INVERSEDYNAMICSEXAMPLEGUIWITHSOFTWARERENDERER\B3RESOURCEPATH.OBJ
C:\USERS\ANTONINO\DESKTOP\VULKAN_ENGINE\BULLET3-2.86.1\BUILD3\VS2010\OBJ\X32\DEBUG\APP_INVERSEDYNAMICSEXAMPLEGUIWITHSOFTWARERENDERER\MYMULTIBODYCREATOR.OBJ
C:\USERS\ANTONINO\DESKTOP\VULKAN_ENGINE\BULLET3-2.86.1\BUILD3\VS2010\OBJ\X32\DEBUG\APP_INVERSEDYNAMICSEXAMPLEGUIWITHSOFTWARERENDERER\STB_IMAGE.OBJ
C:\USERS\ANTONINO\DESKTOP\VULKAN_ENGINE\BULLET3-2.86.1\BUILD3\VS2010\OBJ\X32\DEBUG\APP_INVERSEDYNAMICSEXAMPLEGUIWITHSOFTWARERENDERER\GL_SHAPEDRAWER.OBJ
C:\USERS\ANTONINO\DESKTOP\VULKAN_ENGINE\BULLET3-2.86.1\BUILD3\VS2010\OBJ\X32\DEBUG\APP_INVERSEDYNAMICSEXAMPLEGUIWITHSOFTWARERENDERER\TIMESERIESCANVAS.OBJ
C:\USERS\ANTONINO\DESKTOP\VULKAN_ENGINE\BULLET3-2.86.1\BUILD3\VS2010\OBJ\X32\DEBUG\APP_INVERSEDYNAMICSEXAMPLEGUIWITHSOFTWARERENDERER\TIMESERIESFONTDATA.OBJ
C:\USERS\ANTONINO\DESKTOP\VULKAN_ENGINE\BULLET3-2.86.1\BUILD3\VS2010\OBJ\X32\DEBUG\APP_INVERSEDYNAMICSEXAMPLEGUIWITHSOFTWARERENDERER\TINYXMLERROR.OBJ
C:\USERS\ANTONINO\DESKTOP\VULKAN_ENGINE\BULLET3-2.86.1\BUILD3\VS2010\OBJ\X32\DEBUG\APP_INVERSEDYNAMICSEXAMPLEGUIWITHSOFTWARERENDERER\LOADMESHFROMCOLLADA.OBJ
C:\USERS\ANTONINO\DESKTOP\VULKAN_ENGINE\BULLET3-2.86.1\BUILD3\VS2010\OBJ\X32\DEBUG\APP_INVERSEDYNAMICSEXAMPLEGUIWITHSOFTWARERENDERER\URDFSTRINGSPLIT.OBJ
C:\USERS\ANTONINO\DESKTOP\VULKAN_ENGINE\BULLET3-2.86.1\BUILD3\VS2010\OBJ\X32\DEBUG\APP_INVERSEDYNAMICSEXAMPLEGUIWITHSOFTWARERENDERER\MODEL.OBJ
C:\USERS\ANTONINO\DESKTOP\VULKAN_ENGINE\BULLET3-2.86.1\BUILD3\VS2010\OBJ\X32\DEBUG\APP_INVERSEDYNAMICSEXAMPLEGUIWITHSOFTWARERENDERER\TINYXMLPARSER.OBJ
C:\USERS\ANTONINO\DESKTOP\VULKAN_ENGINE\BULLET3-2.86.1\BUILD3\VS2010\OBJ\X32\DEBUG\APP_INVERSEDYNAMICSEXAMPLEGUIWITHSOFTWARERENDERER\WAVEFRONT2GLINSTANCEGRAPHICSSHAPE.OBJ
C:\USERS\ANTONINO\DESKTOP\VULKAN_ENGINE\BULLET3-2.86.1\BUILD3\VS2010\OBJ\X32\DEBUG\APP_INVERSEDYNAMICSEXAMPLEGUIWITHSOFTWARERENDERER\COLLISIONSHAPE2TRIANGLEMESH.OBJ
C:\USERS\ANTONINO\DESKTOP\VULKAN_ENGINE\BULLET3-2.86.1\BUILD3\VS2010\OBJ\X32\DEBUG\APP_INVERSEDYNAMICSEXAMPLEGUIWITHSOFTWARERENDERER\INVERTEDPENDULUMPDCONTROL.OBJ
C:\USERS\ANTONINO\DESKTOP\VULKAN_ENGINE\BULLET3-2.86.1\BUILD3\VS2010\OBJ\X32\DEBUG\APP_INVERSEDYNAMICSEXAMPLEGUIWITHSOFTWARERENDERER\GEOMETRY.OBJ
C:\USERS\ANTONINO\DESKTOP\VULKAN_ENGINE\BULLET3-2.86.1\BUILD3\VS2010\OBJ\X32\DEBUG\APP_INVERSEDYNAMICSEXAMPLEGUIWITHSOFTWARERENDERER\OUR_GL.OBJ
C:\USERS\ANTONINO\DESKTOP\VULKAN_ENGINE\BULLET3-2.86.1\BUILD3\VS2010\OBJ\X32\DEBUG\APP_INVERSEDYNAMICSEXAMPLEGUIWITHSOFTWARERENDERER\TINYRENDERER.OBJ
C:\USERS\ANTONINO\DESKTOP\VULKAN_ENGINE\BULLET3-2.86.1\BUILD3\VS2010\OBJ\X32\DEBUG\APP_INVERSEDYNAMICSEXAMPLEGUIWITHSOFTWARERENDERER\BULLETURDFIMPORTER.OBJ
C:\USERS\ANTONINO\DESKTOP\VULKAN_ENGINE\BULLET3-2.86.1\BUILD3\VS2010\OBJ\X32\DEBUG\APP_INVERSEDYNAMICSEXAMPLEGUIWITHSOFTWARERENDERER\MAIN_SW_TINYRENDERER_SINGLE_EXAMPLE.OBJ
C:\USERS\ANTONINO\DESKTOP\VULKAN_ENGINE\BULLET3-2.86.1\BUILD3\VS2010\OBJ\X32\DEBUG\APP_INVERSEDYNAMICSEXAMPLEGUIWITHSOFTWARERENDERER\TINYSTR.OBJ
C:\USERS\ANTONINO\DESKTOP\VULKAN_ENGINE\BULLET3-2.86.1\BUILD3\VS2010\OBJ\X32\DEBUG\APP_INVERSEDYNAMICSEXAMPLEGUIWITHSOFTWARERENDERER\TINYXML.OBJ
C:\USERS\ANTONINO\DESKTOP\VULKAN_ENGINE\BULLET3-2.86.1\BUILD3\VS2010\OBJ\X32\DEBUG\APP_INVERSEDYNAMICSEXAMPLEGUIWITHSOFTWARERENDERER\TINY_OBJ_LOADER.OBJ
C:\USERS\ANTONINO\DESKTOP\VULKAN_ENGINE\BULLET3-2.86.1\BUILD3\VS2010\OBJ\X32\DEBUG\APP_INVERSEDYNAMICSEXAMPLEGUIWITHSOFTWARERENDERER\B3IMPORTMESHUTILITY.OBJ
C:\USERS\ANTONINO\DESKTOP\VULKAN_ENGINE\BULLET3-2.86.1\BUILD3\VS2010\OBJ\X32\DEBUG\APP_INVERSEDYNAMICSEXAMPLEGUIWITHSOFTWARERENDERER\INVERSEDYNAMICSEXAMPLE.OBJ
C:\USERS\ANTONINO\DESKTOP\VULKAN_ENGINE\BULLET3-2.86.1\BUILD3\VS2010\OBJ\X32\DEBUG\APP_INVERSEDYNAMICSEXAMPLEGUIWITHSOFTWARERENDERER\URDFPARSER.OBJ
^C:\USERS\ANTONINO\DESKTOP\VULKAN_ENGINE\BULLET3-2.86.1\EXAMPLES\INVERSEDYNAMICS\INVERSEDYNAMICSEXAMPLE.CPP
C:\USERS\ANTONINO\DESKTOP\VULKAN_ENGINE\BULLET3-2.86.1\BIN\APP_INVERSEDYNAMICSEXAMPLEGUIWITHSOFTWARERENDERER_VS2010_DEBUG.PDB
^C:\USERS\ANTONINO\DESKTOP\VULKAN_ENGINE\BULLET3-2.86.1\EXAMPLES\STANDALONEMAIN\MAIN_SW_TINYRENDERER_SINGLE_EXAMPLE.CPP
C:\USERS\ANTONINO\DESKTOP\VULKAN_ENGINE\BULLET3-2.86.1\BIN\APP_INVERSEDYNAMICSEXAMPLEGUIWITHSOFTWARERENDERER_VS2010_DEBUG.PDB
^C:\USERS\ANTONINO\DESKTOP\VULKAN_ENGINE\BULLET3-2.86.1\EXAMPLES\EXAMPLEBROWSER\OPENGLGUIHELPER.CPP
C:\USERS\ANTONINO\DESKTOP\VULKAN_ENGINE\BULLET3-2.86.1\BIN\APP_INVERSEDYNAMICSEXAMPLEGUIWITHSOFTWARERENDERER_VS2010_DEBUG.PDB
^C:\USERS\ANTONINO\DESKTOP\VULKAN_ENGINE\BULLET3-2.86.1\EXAMPLES\EXAMPLEBROWSER\GL_SHAPEDRAWER.CPP
C:\USERS\ANTONINO\DESKTOP\VULKAN_ENGINE\BULLET3-2.86.1\BIN\APP_INVERSEDYNAMICSEXAMPLEGUIWITHSOFTWARERENDERER_VS2010_DEBUG.PDB
^C:\USERS\ANTONINO\DESKTOP\VULKAN_ENGINE\BULLET3-2.86.1\EXAMPLES\EXAMPLEBROWSER\COLLISIONSHAPE2TRIANGLEMESH.CPP
C:\USERS\ANTONINO\DESKTOP\VULKAN_ENGINE\BULLET3-2.86.1\BIN\APP_INVERSEDYNAMICSEXAMPLEGUIWITHSOFTWARERENDERER_VS2010_DEBUG.PDB
^C:\USERS\ANTONINO\DESKTOP\VULKAN_ENGINE\BULLET3-2.86.1\EXAMPLES\TINYRENDERER\GEOMETRY.CPP
C:\USERS\ANTONINO\DESKTOP\VULKAN_ENGINE\BULLET3-2.86.1\BIN\APP_INVERSEDYNAMICSEXAMPLEGUIWITHSOFTWARERENDERER_VS2010_DEBUG.PDB
^C:\USERS\ANTONINO\DESKTOP\VULKAN_ENGINE\BULLET3-2.86.1\EXAMPLES\TINYRENDERER\MODEL.CPP
C:\USERS\ANTONINO\DESKTOP\VULKAN_ENGINE\BULLET3-2.86.1\BIN\APP_INVERSEDYNAMICSEXAMPLEGUIWITHSOFTWARERENDERER_VS2010_DEBUG.PDB
^C:\USERS\ANTONINO\DESKTOP\VULKAN_ENGINE\BULLET3-2.86.1\EXAMPLES\TINYRENDERER\TGAIMAGE.CPP
C:\USERS\ANTONINO\DESKTOP\VULKAN_ENGINE\BULLET3-2.86.1\BIN\APP_INVERSEDYNAMICSEXAMPLEGUIWITHSOFTWARERENDERER_VS2010_DEBUG.PDB
^C:\USERS\ANTONINO\DESKTOP\VULKAN_ENGINE\BULLET3-2.86.1\EXAMPLES\TINYRENDERER\OUR_GL.CPP
C:\USERS\ANTONINO\DESKTOP\VULKAN_ENGINE\BULLET3-2.86.1\BIN\APP_INVERSEDYNAMICSEXAMPLEGUIWITHSOFTWARERENDERER_VS2010_DEBUG.PDB
^C:\USERS\ANTONINO\DESKTOP\VULKAN_ENGINE\BULLET3-2.86.1\EXAMPLES\TINYRENDERER\TINYRENDERER.CPP
C:\USERS\ANTONINO\DESKTOP\VULKAN_ENGINE\BULLET3-2.86.1\BIN\APP_INVERSEDYNAMICSEXAMPLEGUIWITHSOFTWARERENDERER_VS2010_DEBUG.PDB
^C:\USERS\ANTONINO\DESKTOP\VULKAN_ENGINE\BULLET3-2.86.1\EXAMPLES\UTILS\B3RESOURCEPATH.CPP
C:\USERS\ANTONINO\DESKTOP\VULKAN_ENGINE\BULLET3-2.86.1\BIN\APP_INVERSEDYNAMICSEXAMPLEGUIWITHSOFTWARERENDERER_VS2010_DEBUG.PDB
^C:\USERS\ANTONINO\DESKTOP\VULKAN_ENGINE\BULLET3-2.86.1\EXAMPLES\RENDERINGEXAMPLES\TIMESERIESCANVAS.CPP
C:\USERS\ANTONINO\DESKTOP\VULKAN_ENGINE\BULLET3-2.86.1\BIN\APP_INVERSEDYNAMICSEXAMPLEGUIWITHSOFTWARERENDERER_VS2010_DEBUG.PDB
^C:\USERS\ANTONINO\DESKTOP\VULKAN_ENGINE\BULLET3-2.86.1\EXAMPLES\RENDERINGEXAMPLES\TIMESERIESFONTDATA.CPP
C:\USERS\ANTONINO\DESKTOP\VULKAN_ENGINE\BULLET3-2.86.1\BIN\APP_INVERSEDYNAMICSEXAMPLEGUIWITHSOFTWARERENDERER_VS2010_DEBUG.PDB
^C:\USERS\ANTONINO\DESKTOP\VULKAN_ENGINE\BULLET3-2.86.1\EXAMPLES\MULTIBODY\INVERTEDPENDULUMPDCONTROL.CPP
C:\USERS\ANTONINO\DESKTOP\VULKAN_ENGINE\BULLET3-2.86.1\BIN\APP_INVERSEDYNAMICSEXAMPLEGUIWITHSOFTWARERENDERER_VS2010_DEBUG.PDB
^C:\USERS\ANTONINO\DESKTOP\VULKAN_ENGINE\BULLET3-2.86.1\EXAMPLES\THIRDPARTYLIBS\TINYXML\TINYSTR.CPP
C:\USERS\ANTONINO\DESKTOP\VULKAN_ENGINE\BULLET3-2.86.1\BIN\APP_INVERSEDYNAMICSEXAMPLEGUIWITHSOFTWARERENDERER_VS2010_DEBUG.PDB
^C:\USERS\ANTONINO\DESKTOP\VULKAN_ENGINE\BULLET3-2.86.1\EXAMPLES\THIRDPARTYLIBS\TINYXML\TINYXML.CPP
C:\USERS\ANTONINO\DESKTOP\VULKAN_ENGINE\BULLET3-2.86.1\BIN\APP_INVERSEDYNAMICSEXAMPLEGUIWITHSOFTWARERENDERER_VS2010_DEBUG.PDB
^C:\USERS\ANTONINO\DESKTOP\VULKAN_ENGINE\BULLET3-2.86.1\EXAMPLES\THIRDPARTYLIBS\TINYXML\TINYXMLERROR.CPP
C:\USERS\ANTONINO\DESKTOP\VULKAN_ENGINE\BULLET3-2.86.1\BIN\APP_INVERSEDYNAMICSEXAMPLEGUIWITHSOFTWARERENDERER_VS2010_DEBUG.PDB
^C:\USERS\ANTONINO\DESKTOP\VULKAN_ENGINE\BULLET3-2.86.1\EXAMPLES\THIRDPARTYLIBS\TINYXML\TINYXMLPARSER.CPP
C:\USERS\ANTONINO\DESKTOP\VULKAN_ENGINE\BULLET3-2.86.1\BIN\APP_INVERSEDYNAMICSEXAMPLEGUIWITHSOFTWARERENDERER_VS2010_DEBUG.PDB
^C:\USERS\ANTONINO\DESKTOP\VULKAN_ENGINE\BULLET3-2.86.1\EXAMPLES\THIRDPARTYLIBS\WAVEFRONT\TINY_OBJ_LOADER.CPP
C:\USERS\ANTONINO\DESKTOP\VULKAN_ENGINE\BULLET3-2.86.1\BIN\APP_INVERSEDYNAMICSEXAMPLEGUIWITHSOFTWARERENDERER_VS2010_DEBUG.PDB
^C:\USERS\ANTONINO\DESKTOP\VULKAN_ENGINE\BULLET3-2.86.1\EXAMPLES\IMPORTERS\IMPORTCOLLADADEMO\LOADMESHFROMCOLLADA.CPP
C:\USERS\ANTONINO\DESKTOP\VULKAN_ENGINE\BULLET3-2.86.1\BIN\APP_INVERSEDYNAMICSEXAMPLEGUIWITHSOFTWARERENDERER_VS2010_DEBUG.PDB
^C:\USERS\ANTONINO\DESKTOP\VULKAN_ENGINE\BULLET3-2.86.1\EXAMPLES\IMPORTERS\IMPORTOBJDEMO\LOADMESHFROMOBJ.CPP
C:\USERS\ANTONINO\DESKTOP\VULKAN_ENGINE\BULLET3-2.86.1\BIN\APP_INVERSEDYNAMICSEXAMPLEGUIWITHSOFTWARERENDERER_VS2010_DEBUG.PDB
^C:\USERS\ANTONINO\DESKTOP\VULKAN_ENGINE\BULLET3-2.86.1\EXAMPLES\IMPORTERS\IMPORTOBJDEMO\WAVEFRONT2GLINSTANCEGRAPHICSSHAPE.CPP
C:\USERS\ANTONINO\DESKTOP\VULKAN_ENGINE\BULLET3-2.86.1\BIN\APP_INVERSEDYNAMICSEXAMPLEGUIWITHSOFTWARERENDERER_VS2010_DEBUG.PDB
^C:\USERS\ANTONINO\DESKTOP\VULKAN_ENGINE\BULLET3-2.86.1\EXAMPLES\IMPORTERS\IMPORTURDFDEMO\BULLETURDFIMPORTER.CPP
C:\USERS\ANTONINO\DESKTOP\VULKAN_ENGINE\BULLET3-2.86.1\BIN\APP_INVERSEDYNAMICSEXAMPLEGUIWITHSOFTWARERENDERER_VS2010_DEBUG.PDB
^C:\USERS\ANTONINO\DESKTOP\VULKAN_ENGINE\BULLET3-2.86.1\EXAMPLES\IMPORTERS\IMPORTURDFDEMO\MYMULTIBODYCREATOR.CPP
C:\USERS\ANTONINO\DESKTOP\VULKAN_ENGINE\BULLET3-2.86.1\BIN\APP_INVERSEDYNAMICSEXAMPLEGUIWITHSOFTWARERENDERER_VS2010_DEBUG.PDB
^C:\USERS\ANTONINO\DESKTOP\VULKAN_ENGINE\BULLET3-2.86.1\EXAMPLES\IMPORTERS\IMPORTURDFDEMO\URDF2BULLET.CPP
C:\USERS\ANTONINO\DESKTOP\VULKAN_ENGINE\BULLET3-2.86.1\BIN\APP_INVERSEDYNAMICSEXAMPLEGUIWITHSOFTWARERENDERER_VS2010_DEBUG.PDB
^C:\USERS\ANTONINO\DESKTOP\VULKAN_ENGINE\BULLET3-2.86.1\EXAMPLES\IMPORTERS\IMPORTURDFDEMO\URDFPARSER.CPP
C:\USERS\ANTONINO\DESKTOP\VULKAN_ENGINE\BULLET3-2.86.1\BIN\APP_INVERSEDYNAMICSEXAMPLEGUIWITHSOFTWARERENDERER_VS2010_DEBUG.PDB
^C:\USERS\ANTONINO\DESKTOP\VULKAN_ENGINE\BULLET3-2.86.1\EXAMPLES\IMPORTERS\IMPORTURDFDEMO\URDFSTRINGSPLIT.CPP
C:\USERS\ANTONINO\DESKTOP\VULKAN_ENGINE\BULLET3-2.86.1\BIN\APP_INVERSEDYNAMICSEXAMPLEGUIWITHSOFTWARERENDERER_VS2010_DEBUG.PDB
^C:\USERS\ANTONINO\DESKTOP\VULKAN_ENGINE\BULLET3-2.86.1\EXAMPLES\IMPORTERS\IMPORTMESHUTILITY\B3IMPORTMESHUTILITY.CPP
C:\USERS\ANTONINO\DESKTOP\VULKAN_ENGINE\BULLET3-2.86.1\BIN\APP_INVERSEDYNAMICSEXAMPLEGUIWITHSOFTWARERENDERER_VS2010_DEBUG.PDB
^C:\USERS\ANTONINO\DESKTOP\VULKAN_ENGINE\BULLET3-2.86.1\EXAMPLES\THIRDPARTYLIBS\STB_IMAGE\STB_IMAGE.CPP
C:\USERS\ANTONINO\DESKTOP\VULKAN_ENGINE\BULLET3-2.86.1\BIN\APP_INVERSEDYNAMICSEXAMPLEGUIWITHSOFTWARERENDERER_VS2010_DEBUG.PDB
