^C:\USERS\ANTONINO\DESKTOP\VULKAN_ENGINE\BULLET3-2.86.1\TEST\ENET\NAT_PUNCHTHROUGH\SERVER\MAIN.CPP
C:\USERS\ANTONINO\DESKTOP\VULKAN_ENGINE\BULLET3-2.86.1\BIN\TEST_ENET_NAT_PUNCHTHROUGH_SERVER_VS2010_DEBUG.PDB
C:\USERS\ANTONINO\DESKTOP\VULKAN_ENGINE\BULLET3-2.86.1\BUILD3\VS2010\OBJ\X32\DEBUG\TEST_ENET_NAT_PUNCHTHROUGH_SERVER\MAIN.OBJ
