^C:\USERS\ANTONINO\DESKTOP\VULKAN_ENGINE\BULLET3-2.86.1\SRC\BULLET3COMMON\B3ALIGNEDALLOCATOR.CPP
/c /I..\..\SRC /Zi /nologo /W3 /WX- /Od /Oy- /D _DEBUG=1 /D _MBCS /Gm- /EHsc /RTC1 /MTd /GS /Gy /fp:fast /Zc:wchar_t /Zc:forScope /Zc:inline /Fo"OBJ\X32\DEBUG\BULLET3COMMON\\" /Fd"..\..\BIN\BULLET3COMMON_VS2010_DEBUG.PDB" /Gd /TP /analyze- /wd4244 /wd4267  C:\USERS\ANTONINO\DESKTOP\VULKAN_ENGINE\BULLET3-2.86.1\SRC\BULLET3COMMON\B3ALIGNEDALLOCATOR.CPP
^C:\USERS\ANTONINO\DESKTOP\VULKAN_ENGINE\BULLET3-2.86.1\SRC\BULLET3COMMON\B3LOGGING.CPP
/c /I..\..\SRC /Zi /nologo /W3 /WX- /Od /Oy- /D _DEBUG=1 /D _MBCS /Gm- /EHsc /RTC1 /MTd /GS /Gy /fp:fast /Zc:wchar_t /Zc:forScope /Zc:inline /Fo"OBJ\X32\DEBUG\BULLET3COMMON\\" /Fd"..\..\BIN\BULLET3COMMON_VS2010_DEBUG.PDB" /Gd /TP /analyze- /wd4244 /wd4267  C:\USERS\ANTONINO\DESKTOP\VULKAN_ENGINE\BULLET3-2.86.1\SRC\BULLET3COMMON\B3LOGGING.CPP
^C:\USERS\ANTONINO\DESKTOP\VULKAN_ENGINE\BULLET3-2.86.1\SRC\BULLET3COMMON\B3VECTOR3.CPP
/c /I..\..\SRC /Zi /nologo /W3 /WX- /Od /Oy- /D _DEBUG=1 /D _MBCS /Gm- /EHsc /RTC1 /MTd /GS /Gy /fp:fast /Zc:wchar_t /Zc:forScope /Zc:inline /Fo"OBJ\X32\DEBUG\BULLET3COMMON\\" /Fd"..\..\BIN\BULLET3COMMON_VS2010_DEBUG.PDB" /Gd /TP /analyze- /wd4244 /wd4267  C:\USERS\ANTONINO\DESKTOP\VULKAN_ENGINE\BULLET3-2.86.1\SRC\BULLET3COMMON\B3VECTOR3.CPP
