^C:\USERS\ANTONINO\DESKTOP\VULKAN_ENGINE\BULLET3-2.86.1\SRC\BULLET3COLLISION\BROADPHASECOLLISION\B3DYNAMICBVH.CPP
/c /I..\..\SRC /Zi /nologo /W3 /WX- /Od /Oy- /D _DEBUG=1 /D _MBCS /Gm- /EHsc /RTC1 /MTd /GS /Gy /fp:fast /Zc:wchar_t /Zc:forScope /Zc:inline /Fo"OBJ\X32\DEBUG\BULLET3COLLISION\\" /Fd"..\..\BIN\BULLET3COLLISION_VS2010_DEBUG.PDB" /Gd /TP /analyze- /wd4244 /wd4267  C:\USERS\ANTONINO\DESKTOP\VULKAN_ENGINE\BULLET3-2.86.1\SRC\BULLET3COLLISION\BROADPHASECOLLISION\B3DYNAMICBVH.CPP
^C:\USERS\ANTONINO\DESKTOP\VULKAN_ENGINE\BULLET3-2.86.1\SRC\BULLET3COLLISION\BROADPHASECOLLISION\B3DYNAMICBVHBROADPHASE.CPP
/c /I..\..\SRC /Zi /nologo /W3 /WX- /Od /Oy- /D _DEBUG=1 /D _MBCS /Gm- /EHsc /RTC1 /MTd /GS /Gy /fp:fast /Zc:wchar_t /Zc:forScope /Zc:inline /Fo"OBJ\X32\DEBUG\BULLET3COLLISION\\" /Fd"..\..\BIN\BULLET3COLLISION_VS2010_DEBUG.PDB" /Gd /TP /analyze- /wd4244 /wd4267  C:\USERS\ANTONINO\DESKTOP\VULKAN_ENGINE\BULLET3-2.86.1\SRC\BULLET3COLLISION\BROADPHASECOLLISION\B3DYNAMICBVHBROADPHASE.CPP
^C:\USERS\ANTONINO\DESKTOP\VULKAN_ENGINE\BULLET3-2.86.1\SRC\BULLET3COLLISION\BROADPHASECOLLISION\B3OVERLAPPINGPAIRCACHE.CPP
/c /I..\..\SRC /Zi /nologo /W3 /WX- /Od /Oy- /D _DEBUG=1 /D _MBCS /Gm- /EHsc /RTC1 /MTd /GS /Gy /fp:fast /Zc:wchar_t /Zc:forScope /Zc:inline /Fo"OBJ\X32\DEBUG\BULLET3COLLISION\\" /Fd"..\..\BIN\BULLET3COLLISION_VS2010_DEBUG.PDB" /Gd /TP /analyze- /wd4244 /wd4267  C:\USERS\ANTONINO\DESKTOP\VULKAN_ENGINE\BULLET3-2.86.1\SRC\BULLET3COLLISION\BROADPHASECOLLISION\B3OVERLAPPINGPAIRCACHE.CPP
^C:\USERS\ANTONINO\DESKTOP\VULKAN_ENGINE\BULLET3-2.86.1\SRC\BULLET3COLLISION\NARROWPHASECOLLISION\B3CONVEXUTILITY.CPP
/c /I..\..\SRC /Zi /nologo /W3 /WX- /Od /Oy- /D _DEBUG=1 /D _MBCS /Gm- /EHsc /RTC1 /MTd /GS /Gy /fp:fast /Zc:wchar_t /Zc:forScope /Zc:inline /Fo"OBJ\X32\DEBUG\BULLET3COLLISION\\" /Fd"..\..\BIN\BULLET3COLLISION_VS2010_DEBUG.PDB" /Gd /TP /analyze- /wd4244 /wd4267  C:\USERS\ANTONINO\DESKTOP\VULKAN_ENGINE\BULLET3-2.86.1\SRC\BULLET3COLLISION\NARROWPHASECOLLISION\B3CONVEXUTILITY.CPP
^C:\USERS\ANTONINO\DESKTOP\VULKAN_ENGINE\BULLET3-2.86.1\SRC\BULLET3COLLISION\NARROWPHASECOLLISION\B3CPUNARROWPHASE.CPP
/c /I..\..\SRC /Zi /nologo /W3 /WX- /Od /Oy- /D _DEBUG=1 /D _MBCS /Gm- /EHsc /RTC1 /MTd /GS /Gy /fp:fast /Zc:wchar_t /Zc:forScope /Zc:inline /Fo"OBJ\X32\DEBUG\BULLET3COLLISION\\" /Fd"..\..\BIN\BULLET3COLLISION_VS2010_DEBUG.PDB" /Gd /TP /analyze- /wd4244 /wd4267  C:\USERS\ANTONINO\DESKTOP\VULKAN_ENGINE\BULLET3-2.86.1\SRC\BULLET3COLLISION\NARROWPHASECOLLISION\B3CPUNARROWPHASE.CPP
