^C:\USERS\ANTONINO\DESKTOP\VULKAN_ENGINE\BULLET3-2.86.1\SRC\CLEW\CLEW.C
/c /I..\..\SRC\CLEW /I..\..\EXAMPLES\EXAMPLEBROWSER /I..\..\SRC /I..\..\EXAMPLES\THIRDPARTYLIBS /I..\..\EXAMPLES\THIRDPARTYLIBS\GLEW /Zi /nologo /W3 /WX- /Od /Oy- /D _DEBUG=1 /D B3_USE_CLEW /D GLEW_STATIC /D INCLUDE_CLOTH_DEMOS /D _MBCS /Gm- /EHsc /RTC1 /MTd /GS /Gy /fp:fast /Zc:wchar_t /Zc:forScope /Zc:inline /Fo"OBJ\X32\DEBUG\BULLETEXAMPLEBROWSERLIB\\" /Fd"..\..\BIN\BULLETEXAMPLEBROWSERLIB_VS2010_DEBUG.PDB" /Gd /TC /analyze- /wd4244 /wd4267  C:\USERS\ANTONINO\DESKTOP\VULKAN_ENGINE\BULLET3-2.86.1\SRC\CLEW\CLEW.C
^C:\USERS\ANTONINO\DESKTOP\VULKAN_ENGINE\BULLET3-2.86.1\EXAMPLES\THIRDPARTYLIBS\GLEW\GLEW.C
/c /I..\..\SRC\CLEW /I..\..\EXAMPLES\EXAMPLEBROWSER /I..\..\SRC /I..\..\EXAMPLES\THIRDPARTYLIBS /I..\..\EXAMPLES\THIRDPARTYLIBS\GLEW /Zi /nologo /W3 /WX- /Od /Oy- /D _DEBUG=1 /D B3_USE_CLEW /D GLEW_STATIC /D INCLUDE_CLOTH_DEMOS /D _MBCS /Gm- /EHsc /RTC1 /MTd /GS /Gy /fp:fast /Zc:wchar_t /Zc:forScope /Zc:inline /Fo"OBJ\X32\DEBUG\BULLETEXAMPLEBROWSERLIB\\" /Fd"..\..\BIN\BULLETEXAMPLEBROWSERLIB_VS2010_DEBUG.PDB" /Gd /TC /analyze- /wd4244 /wd4267  C:\USERS\ANTONINO\DESKTOP\VULKAN_ENGINE\BULLET3-2.86.1\EXAMPLES\THIRDPARTYLIBS\GLEW\GLEW.C
^C:\USERS\ANTONINO\DESKTOP\VULKAN_ENGINE\BULLET3-2.86.1\EXAMPLES\EXAMPLEBROWSER\OPENGLEXAMPLEBROWSER.CPP
/c /I..\..\SRC\CLEW /I..\..\EXAMPLES\EXAMPLEBROWSER /I..\..\SRC /I..\..\EXAMPLES\THIRDPARTYLIBS /I..\..\EXAMPLES\THIRDPARTYLIBS\GLEW /Zi /nologo /W3 /WX- /Od /Oy- /D _DEBUG=1 /D B3_USE_CLEW /D GLEW_STATIC /D INCLUDE_CLOTH_DEMOS /D _MBCS /Gm- /EHsc /RTC1 /MTd /GS /Gy /fp:fast /Zc:wchar_t /Zc:forScope /Zc:inline /Fo"OBJ\X32\DEBUG\BULLETEXAMPLEBROWSERLIB\\" /Fd"..\..\BIN\BULLETEXAMPLEBROWSERLIB_VS2010_DEBUG.PDB" /Gd /TP /analyze- /wd4244 /wd4267  C:\USERS\ANTONINO\DESKTOP\VULKAN_ENGINE\BULLET3-2.86.1\EXAMPLES\EXAMPLEBROWSER\OPENGLEXAMPLEBROWSER.CPP
^C:\USERS\ANTONINO\DESKTOP\VULKAN_ENGINE\BULLET3-2.86.1\EXAMPLES\EXAMPLEBROWSER\OPENGLGUIHELPER.CPP
/c /I..\..\SRC\CLEW /I..\..\EXAMPLES\EXAMPLEBROWSER /I..\..\SRC /I..\..\EXAMPLES\THIRDPARTYLIBS /I..\..\EXAMPLES\THIRDPARTYLIBS\GLEW /Zi /nologo /W3 /WX- /Od /Oy- /D _DEBUG=1 /D B3_USE_CLEW /D GLEW_STATIC /D INCLUDE_CLOTH_DEMOS /D _MBCS /Gm- /EHsc /RTC1 /MTd /GS /Gy /fp:fast /Zc:wchar_t /Zc:forScope /Zc:inline /Fo"OBJ\X32\DEBUG\BULLETEXAMPLEBROWSERLIB\\" /Fd"..\..\BIN\BULLETEXAMPLEBROWSERLIB_VS2010_DEBUG.PDB" /Gd /TP /analyze- /wd4244 /wd4267  C:\USERS\ANTONINO\DESKTOP\VULKAN_ENGINE\BULLET3-2.86.1\EXAMPLES\EXAMPLEBROWSER\OPENGLGUIHELPER.CPP
^C:\USERS\ANTONINO\DESKTOP\VULKAN_ENGINE\BULLET3-2.86.1\EXAMPLES\UTILS\B3CLOCK.CPP
/c /I..\..\SRC\CLEW /I..\..\EXAMPLES\EXAMPLEBROWSER /I..\..\SRC /I..\..\EXAMPLES\THIRDPARTYLIBS /I..\..\EXAMPLES\THIRDPARTYLIBS\GLEW /Zi /nologo /W3 /WX- /Od /Oy- /D _DEBUG=1 /D B3_USE_CLEW /D GLEW_STATIC /D INCLUDE_CLOTH_DEMOS /D _MBCS /Gm- /EHsc /RTC1 /MTd /GS /Gy /fp:fast /Zc:wchar_t /Zc:forScope /Zc:inline /Fo"OBJ\X32\DEBUG\BULLETEXAMPLEBROWSERLIB\\" /Fd"..\..\BIN\BULLETEXAMPLEBROWSERLIB_VS2010_DEBUG.PDB" /Gd /TP /analyze- /wd4244 /wd4267  C:\USERS\ANTONINO\DESKTOP\VULKAN_ENGINE\BULLET3-2.86.1\EXAMPLES\UTILS\B3CLOCK.CPP
^C:\USERS\ANTONINO\DESKTOP\VULKAN_ENGINE\BULLET3-2.86.1\EXAMPLES\UTILS\CHROMETRACEUTIL.CPP
/c /I..\..\SRC\CLEW /I..\..\EXAMPLES\EXAMPLEBROWSER /I..\..\SRC /I..\..\EXAMPLES\THIRDPARTYLIBS /I..\..\EXAMPLES\THIRDPARTYLIBS\GLEW /Zi /nologo /W3 /WX- /Od /Oy- /D _DEBUG=1 /D B3_USE_CLEW /D GLEW_STATIC /D INCLUDE_CLOTH_DEMOS /D _MBCS /Gm- /EHsc /RTC1 /MTd /GS /Gy /fp:fast /Zc:wchar_t /Zc:forScope /Zc:inline /Fo"OBJ\X32\DEBUG\BULLETEXAMPLEBROWSERLIB\\" /Fd"..\..\BIN\BULLETEXAMPLEBROWSERLIB_VS2010_DEBUG.PDB" /Gd /TP /analyze- /wd4244 /wd4267  C:\USERS\ANTONINO\DESKTOP\VULKAN_ENGINE\BULLET3-2.86.1\EXAMPLES\UTILS\CHROMETRACEUTIL.CPP
^C:\USERS\ANTONINO\DESKTOP\VULKAN_ENGINE\BULLET3-2.86.1\EXAMPLES\EXAMPLEBROWSER\GWENGUISUPPORT\GRAPHINGTEXTURE.CPP
/c /I..\..\SRC\CLEW /I..\..\EXAMPLES\EXAMPLEBROWSER /I..\..\SRC /I..\..\EXAMPLES\THIRDPARTYLIBS /I..\..\EXAMPLES\THIRDPARTYLIBS\GLEW /Zi /nologo /W3 /WX- /Od /Oy- /D _DEBUG=1 /D B3_USE_CLEW /D GLEW_STATIC /D INCLUDE_CLOTH_DEMOS /D _MBCS /Gm- /EHsc /RTC1 /MTd /GS /Gy /fp:fast /Zc:wchar_t /Zc:forScope /Zc:inline /Fo"OBJ\X32\DEBUG\BULLETEXAMPLEBROWSERLIB\\" /Fd"..\..\BIN\BULLETEXAMPLEBROWSERLIB_VS2010_DEBUG.PDB" /Gd /TP /analyze- /wd4244 /wd4267  C:\USERS\ANTONINO\DESKTOP\VULKAN_ENGINE\BULLET3-2.86.1\EXAMPLES\EXAMPLEBROWSER\GWENGUISUPPORT\GRAPHINGTEXTURE.CPP
^C:\USERS\ANTONINO\DESKTOP\VULKAN_ENGINE\BULLET3-2.86.1\EXAMPLES\EXAMPLEBROWSER\GWENGUISUPPORT\GWENPARAMETERINTERFACE.CPP
/c /I..\..\SRC\CLEW /I..\..\EXAMPLES\EXAMPLEBROWSER /I..\..\SRC /I..\..\EXAMPLES\THIRDPARTYLIBS /I..\..\EXAMPLES\THIRDPARTYLIBS\GLEW /Zi /nologo /W3 /WX- /Od /Oy- /D _DEBUG=1 /D B3_USE_CLEW /D GLEW_STATIC /D INCLUDE_CLOTH_DEMOS /D _MBCS /Gm- /EHsc /RTC1 /MTd /GS /Gy /fp:fast /Zc:wchar_t /Zc:forScope /Zc:inline /Fo"OBJ\X32\DEBUG\BULLETEXAMPLEBROWSERLIB\\" /Fd"..\..\BIN\BULLETEXAMPLEBROWSERLIB_VS2010_DEBUG.PDB" /Gd /TP /analyze- /wd4244 /wd4267  C:\USERS\ANTONINO\DESKTOP\VULKAN_ENGINE\BULLET3-2.86.1\EXAMPLES\EXAMPLEBROWSER\GWENGUISUPPORT\GWENPARAMETERINTERFACE.CPP
^C:\USERS\ANTONINO\DESKTOP\VULKAN_ENGINE\BULLET3-2.86.1\EXAMPLES\EXAMPLEBROWSER\GWENGUISUPPORT\GWENPROFILEWINDOW.CPP
/c /I..\..\SRC\CLEW /I..\..\EXAMPLES\EXAMPLEBROWSER /I..\..\SRC /I..\..\EXAMPLES\THIRDPARTYLIBS /I..\..\EXAMPLES\THIRDPARTYLIBS\GLEW /Zi /nologo /W3 /WX- /Od /Oy- /D _DEBUG=1 /D B3_USE_CLEW /D GLEW_STATIC /D INCLUDE_CLOTH_DEMOS /D _MBCS /Gm- /EHsc /RTC1 /MTd /GS /Gy /fp:fast /Zc:wchar_t /Zc:forScope /Zc:inline /Fo"OBJ\X32\DEBUG\BULLETEXAMPLEBROWSERLIB\\" /Fd"..\..\BIN\BULLETEXAMPLEBROWSERLIB_VS2010_DEBUG.PDB" /Gd /TP /analyze- /wd4244 /wd4267  C:\USERS\ANTONINO\DESKTOP\VULKAN_ENGINE\BULLET3-2.86.1\EXAMPLES\EXAMPLEBROWSER\GWENGUISUPPORT\GWENPROFILEWINDOW.CPP
^C:\USERS\ANTONINO\DESKTOP\VULKAN_ENGINE\BULLET3-2.86.1\EXAMPLES\EXAMPLEBROWSER\GWENGUISUPPORT\GWENTEXTUREWINDOW.CPP
/c /I..\..\SRC\CLEW /I..\..\EXAMPLES\EXAMPLEBROWSER /I..\..\SRC /I..\..\EXAMPLES\THIRDPARTYLIBS /I..\..\EXAMPLES\THIRDPARTYLIBS\GLEW /Zi /nologo /W3 /WX- /Od /Oy- /D _DEBUG=1 /D B3_USE_CLEW /D GLEW_STATIC /D INCLUDE_CLOTH_DEMOS /D _MBCS /Gm- /EHsc /RTC1 /MTd /GS /Gy /fp:fast /Zc:wchar_t /Zc:forScope /Zc:inline /Fo"OBJ\X32\DEBUG\BULLETEXAMPLEBROWSERLIB\\" /Fd"..\..\BIN\BULLETEXAMPLEBROWSERLIB_VS2010_DEBUG.PDB" /Gd /TP /analyze- /wd4244 /wd4267  C:\USERS\ANTONINO\DESKTOP\VULKAN_ENGINE\BULLET3-2.86.1\EXAMPLES\EXAMPLEBROWSER\GWENGUISUPPORT\GWENTEXTUREWINDOW.CPP
^C:\USERS\ANTONINO\DESKTOP\VULKAN_ENGINE\BULLET3-2.86.1\EXAMPLES\EXAMPLEBROWSER\GWENGUISUPPORT\GWENUSERINTERFACE.CPP
/c /I..\..\SRC\CLEW /I..\..\EXAMPLES\EXAMPLEBROWSER /I..\..\SRC /I..\..\EXAMPLES\THIRDPARTYLIBS /I..\..\EXAMPLES\THIRDPARTYLIBS\GLEW /Zi /nologo /W3 /WX- /Od /Oy- /D _DEBUG=1 /D B3_USE_CLEW /D GLEW_STATIC /D INCLUDE_CLOTH_DEMOS /D _MBCS /Gm- /EHsc /RTC1 /MTd /GS /Gy /fp:fast /Zc:wchar_t /Zc:forScope /Zc:inline /Fo"OBJ\X32\DEBUG\BULLETEXAMPLEBROWSERLIB\\" /Fd"..\..\BIN\BULLETEXAMPLEBROWSERLIB_VS2010_DEBUG.PDB" /Gd /TP /analyze- /wd4244 /wd4267  C:\USERS\ANTONINO\DESKTOP\VULKAN_ENGINE\BULLET3-2.86.1\EXAMPLES\EXAMPLEBROWSER\GWENGUISUPPORT\GWENUSERINTERFACE.CPP
^C:\USERS\ANTONINO\DESKTOP\VULKAN_ENGINE\BULLET3-2.86.1\EXAMPLES\EXAMPLEBROWSER\COLLISIONSHAPE2TRIANGLEMESH.CPP
/c /I..\..\SRC\CLEW /I..\..\EXAMPLES\EXAMPLEBROWSER /I..\..\SRC /I..\..\EXAMPLES\THIRDPARTYLIBS /I..\..\EXAMPLES\THIRDPARTYLIBS\GLEW /Zi /nologo /W3 /WX- /Od /Oy- /D _DEBUG=1 /D B3_USE_CLEW /D GLEW_STATIC /D INCLUDE_CLOTH_DEMOS /D _MBCS /Gm- /EHsc /RTC1 /MTd /GS /Gy /fp:fast /Zc:wchar_t /Zc:forScope /Zc:inline /Fo"OBJ\X32\DEBUG\BULLETEXAMPLEBROWSERLIB\\" /Fd"..\..\BIN\BULLETEXAMPLEBROWSERLIB_VS2010_DEBUG.PDB" /Gd /TP /analyze- /wd4244 /wd4267  C:\USERS\ANTONINO\DESKTOP\VULKAN_ENGINE\BULLET3-2.86.1\EXAMPLES\EXAMPLEBROWSER\COLLISIONSHAPE2TRIANGLEMESH.CPP
^C:\USERS\ANTONINO\DESKTOP\VULKAN_ENGINE\BULLET3-2.86.1\EXAMPLES\UTILS\B3RESOURCEPATH.CPP
/c /I..\..\SRC\CLEW /I..\..\EXAMPLES\EXAMPLEBROWSER /I..\..\SRC /I..\..\EXAMPLES\THIRDPARTYLIBS /I..\..\EXAMPLES\THIRDPARTYLIBS\GLEW /Zi /nologo /W3 /WX- /Od /Oy- /D _DEBUG=1 /D B3_USE_CLEW /D GLEW_STATIC /D INCLUDE_CLOTH_DEMOS /D _MBCS /Gm- /EHsc /RTC1 /MTd /GS /Gy /fp:fast /Zc:wchar_t /Zc:forScope /Zc:inline /Fo"OBJ\X32\DEBUG\BULLETEXAMPLEBROWSERLIB\\" /Fd"..\..\BIN\BULLETEXAMPLEBROWSERLIB_VS2010_DEBUG.PDB" /Gd /TP /analyze- /wd4244 /wd4267  C:\USERS\ANTONINO\DESKTOP\VULKAN_ENGINE\BULLET3-2.86.1\EXAMPLES\UTILS\B3RESOURCEPATH.CPP
^C:\USERS\ANTONINO\DESKTOP\VULKAN_ENGINE\BULLET3-2.86.1\EXAMPLES\EXAMPLEBROWSER\GL_SHAPEDRAWER.CPP
/c /I..\..\SRC\CLEW /I..\..\EXAMPLES\EXAMPLEBROWSER /I..\..\SRC /I..\..\EXAMPLES\THIRDPARTYLIBS /I..\..\EXAMPLES\THIRDPARTYLIBS\GLEW /Zi /nologo /W3 /WX- /Od /Oy- /D _DEBUG=1 /D B3_USE_CLEW /D GLEW_STATIC /D INCLUDE_CLOTH_DEMOS /D _MBCS /Gm- /EHsc /RTC1 /MTd /GS /Gy /fp:fast /Zc:wchar_t /Zc:forScope /Zc:inline /Fo"OBJ\X32\DEBUG\BULLETEXAMPLEBROWSERLIB\\" /Fd"..\..\BIN\BULLETEXAMPLEBROWSERLIB_VS2010_DEBUG.PDB" /Gd /TP /analyze- /wd4244 /wd4267  C:\USERS\ANTONINO\DESKTOP\VULKAN_ENGINE\BULLET3-2.86.1\EXAMPLES\EXAMPLEBROWSER\GL_SHAPEDRAWER.CPP
^C:\USERS\ANTONINO\DESKTOP\VULKAN_ENGINE\BULLET3-2.86.1\EXAMPLES\EXAMPLEBROWSER\INPROCESSEXAMPLEBROWSER.CPP
/c /I..\..\SRC\CLEW /I..\..\EXAMPLES\EXAMPLEBROWSER /I..\..\SRC /I..\..\EXAMPLES\THIRDPARTYLIBS /I..\..\EXAMPLES\THIRDPARTYLIBS\GLEW /Zi /nologo /W3 /WX- /Od /Oy- /D _DEBUG=1 /D B3_USE_CLEW /D GLEW_STATIC /D INCLUDE_CLOTH_DEMOS /D _MBCS /Gm- /EHsc /RTC1 /MTd /GS /Gy /fp:fast /Zc:wchar_t /Zc:forScope /Zc:inline /Fo"OBJ\X32\DEBUG\BULLETEXAMPLEBROWSERLIB\\" /Fd"..\..\BIN\BULLETEXAMPLEBROWSERLIB_VS2010_DEBUG.PDB" /Gd /TP /analyze- /wd4244 /wd4267  C:\USERS\ANTONINO\DESKTOP\VULKAN_ENGINE\BULLET3-2.86.1\EXAMPLES\EXAMPLEBROWSER\INPROCESSEXAMPLEBROWSER.CPP
