^C:\USERS\ANTONINO\DESKTOP\VULKAN_ENGINE\BULLET3-2.86.1\BUILD3\VS2010\OBJ\X32\DEBUG\BULLETXMLWORLDIMPORTER\BTBULLETXMLWORLDIMPORTER.OBJ|C:\USERS\ANTONINO\DESKTOP\VULKAN_ENGINE\BULLET3-2.86.1\BUILD3\VS2010\OBJ\X32\DEBUG\BULLETXMLWORLDIMPORTER\STRING_SPLIT.OBJ|C:\USERS\ANTONINO\DESKTOP\VULKAN_ENGINE\BULLET3-2.86.1\BUILD3\VS2010\OBJ\X32\DEBUG\BULLETXMLWORLDIMPORTER\TINYSTR.OBJ|C:\USERS\ANTONINO\DESKTOP\VULKAN_ENGINE\BULLET3-2.86.1\BUILD3\VS2010\OBJ\X32\DEBUG\BULLETXMLWORLDIMPORTER\TINYXML.OBJ|C:\USERS\ANTONINO\DESKTOP\VULKAN_ENGINE\BULLET3-2.86.1\BUILD3\VS2010\OBJ\X32\DEBUG\BULLETXMLWORLDIMPORTER\TINYXMLERROR.OBJ|C:\USERS\ANTONINO\DESKTOP\VULKAN_ENGINE\BULLET3-2.86.1\BUILD3\VS2010\OBJ\X32\DEBUG\BULLETXMLWORLDIMPORTER\TINYXMLPARSER.OBJ
C:\WINDOWS\GLOBALIZATION\SORTING\SORTDEFAULT.NLS
C:\USERS\ANTONINO\DESKTOP\VULKAN_ENGINE\BULLET3-2.86.1\BUILD3\VS2010\OBJ\X32\DEBUG\BULLETXMLWORLDIMPORTER\BTBULLETXMLWORLDIMPORTER.OBJ
C:\WINDOWS\SYSTEM32\TZRES.DLL
C:\USERS\ANTONINO\DESKTOP\VULKAN_ENGINE\BULLET3-2.86.1\BUILD3\VS2010\OBJ\X32\DEBUG\BULLETXMLWORLDIMPORTER\STRING_SPLIT.OBJ
C:\USERS\ANTONINO\DESKTOP\VULKAN_ENGINE\BULLET3-2.86.1\BUILD3\VS2010\OBJ\X32\DEBUG\BULLETXMLWORLDIMPORTER\TINYSTR.OBJ
C:\USERS\ANTONINO\DESKTOP\VULKAN_ENGINE\BULLET3-2.86.1\BUILD3\VS2010\OBJ\X32\DEBUG\BULLETXMLWORLDIMPORTER\TINYXML.OBJ
C:\USERS\ANTONINO\DESKTOP\VULKAN_ENGINE\BULLET3-2.86.1\BUILD3\VS2010\OBJ\X32\DEBUG\BULLETXMLWORLDIMPORTER\TINYXMLERROR.OBJ
C:\USERS\ANTONINO\DESKTOP\VULKAN_ENGINE\BULLET3-2.86.1\BUILD3\VS2010\OBJ\X32\DEBUG\BULLETXMLWORLDIMPORTER\TINYXMLPARSER.OBJ
